29.093697684106623, 102.0, 172.0, 31.103999999999996, 3039.3615089962786, -61.18920625702693, True, False, -6.706917804033275, 0.009572305761585614, -0.09639345561726241, 0.9353683669015762, 0.5930232558139535, 0.2852323302363394, 0.16914940514015478
26.836932477934987, 102.0, 172.0, 31.103999999999996, 3039.3615089962786, 32.61924307119283, True, False, -6.8234046948159035, 0.008829792835929424, -0.21288034639989056, 0.8628129011681774, 0.5930232558139535, 0.26310718115622533, 0.15602867719729643
112.86055799943063, 223.0, 343.0, 31.103999999999996, 3039.3615089962786, -131.0627748351759, True, False, -4.751154989973003, 0.03713298259038024, 1.8593693584430098, 3.628490162018732, 0.6501457725947521, 0.5061011569481194, 0.329039527695133
131.41276334938874, 209.0, 343.0, 31.103999999999996, 3039.3615089962786, -7.418650060113467, True, False, -4.531590974629184, 0.04323696373742214, 2.0789333737868287, 4.224947381346089, 0.60932944606414, 0.6287692026286542, 0.38312758993990886
112.6576627242753, 213.0, 343.0, 31.103999999999996, 3039.3615089962786, 116.12545024179668, True, False, -4.7537509317583275, 0.037066226702818075, 1.8567734166576852, 3.6219670371744894, 0.6209912536443148, 0.5289092146679591, 0.328447996280686
148.58336604709407, 230.0, 342.0, 31.103999999999996, 3039.3615089962786, 24.37646861667477, True, False, -4.3544237628161016, 0.0488863748544879, 2.256100585599911, 4.776985791123138, 0.672514619883041, 0.6460146349873656, 0.4344542866874096
132.77917906570164, 184.0, 343.0, 31.103999999999996, 3039.3615089962786, 153.1721259896855, True, False, -4.516667440340403, 0.043686537015318966, 2.09385690807561, 4.2688779277810465, 0.5364431486880467, 0.7216259731831611, 0.38711130922945086
113.7152787325202, 237.0, 343.0, 31.103999999999996, 3039.3615089962786, -95.87262828106682, True, False, -4.740270270489754, 0.03741419979029531, 1.8702540779262584, 3.6559696094560254, 0.6909620991253644, 0.47981130266886163, 0.3315314248761522
161.2243163734378, 256.0, 343.0, 31.103999999999996, 3039.3615089962786, -144.10460086540218, True, False, -4.236627025370995, 0.0530454557301677, 2.3738973230450173, 5.183394945133675, 0.7463556851311953, 0.6297824858337414, 0.47004173869806937
160.1723048833237, 191.0, 343.0, 31.103999999999996, 3039.3615089962786, -24.7211558679292, True, False, -4.246071662183017, 0.05269932662147161, 2.364452686232996, 5.1495725592632375, 0.5568513119533528, 0.8385984548865115, 0.4669746498056085
162.77422151983475, 209.0, 343.0, 31.103999999999996, 3039.3615089962786, 95.35582504285522, True, False, -4.2228241388546595, 0.05355540005295042, 2.387700209561353, 5.233224714500861, 0.60932944606414, 0.7788240264106926, 0.4745604125942704
21.440072302952693, 130.0, 172.0, 31.103999999999996, 3039.3615089962786, 27.7904424794521, True, False, -7.147314701427805, 0.007054136942740017, -0.536790353011793, 0.6893027360774401, 0.7558139534883721, 0.1649236330996361, 0.1246515831567017
21.314452071284414, 109.0, 171.0, 31.103999999999996, 3039.3615089962786, -16.69924423399362, True, False, -7.1557925039263575, 0.007012805817338694, -0.5452681555103452, 0.6852640197815206, 0.6374269005847953, 0.195545431846646, 0.12464591854552289
21.869345343439583, 102.0, 172.0, 31.103999999999996, 3039.3615089962786, 153.13018691250096, True, False, -7.118714438364773, 0.007195374843929551, -0.5081900899487594, 0.7031039526568797, 0.5930232558139535, 0.21440534650430965, 0.12714735664790455
20.526515167492228, 98.0, 171.0, 31.103999999999996, 3039.3615089962786, 26.56505117707799, True, False, -7.21013575380919, 0.006753561597307627, -0.5996114053931779, 0.6599316861976668, 0.5730994152046783, 0.2094542364029819, 0.12003810039469139
22.32601682163223, 95.0, 171.0, 31.103999999999996, 3039.3615089962786, 152.52556837372285, True, False, -7.088898589169748, 0.00734562728242393, -0.4783742407537344, 0.717786034646098, 0.5555555555555556, 0.23501070338560243, 0.13056150188089025
21.851502734670042, 106.0, 172.0, 31.103999999999996, 3039.3615089962786, 32.366638064724995, True, False, -7.119891974746107, 0.007189504331745749, -0.5093676263300947, 0.7025303091136202, 0.6162790697674418, 0.20614625221386831, 0.12704362055040722
21.869345343439583, 116.0, 171.0, 31.103999999999996, 3039.3615089962786, 153.13018691250096, True, False, -7.118714438364773, 0.007195374843929551, -0.5081900899487594, 0.7031039526568797, 0.6783625730994152, 0.18852883916758262, 0.12789090844116716
73.51598461583714, 113.0, 172.0, 31.103999999999996, 3039.3615089962786, 50.68089081796595, True, False, -5.369566502540445, 0.02418796987401315, 1.2409578458755677, 2.36355403214497, 0.6569767441860465, 0.650583934653426, 0.42741851520835544
179.0408341940744, 1292.0, 1371.0, 31.103999999999996, 3039.3615089962786, -133.1523897340054, True, False, -4.085407714281079, 0.05890738356201694, 2.525116634134934, 5.756199659017311, 0.9423778264040846, 0.13857649705423714, 0.13059141808466404
34.62691106000977, 94.0, 171.0, 31.103999999999996, 3039.3615089962786, 54.668668661083636, True, False, -6.455730776741104, 0.011392824103851005, 0.15479357167490895, 1.1132623154581331, 0.5497076023391813, 0.36837139425542303, 0.20249655590648988
34.79200000000001, 88.0, 172.0, 31.103999999999996, 3039.3615089962786, 90.0, True, False, -6.448868858557725, 0.011447141084408136, 0.161655489858288, 1.1185699588477371, 0.5116279069767442, 0.3953636363636365, 0.20227906976744192
36.143410767716, 83.0, 172.0, 31.103999999999996, 3039.3615089962786, 132.93988897627688, True, False, -6.393891816145732, 0.011891777487059125, 0.21663253227027995, 1.1620180930978654, 0.48255813953488375, 0.4354627803339277, 0.2101361091146279
41.60433067415452, 103.0, 171.0, 31.103999999999996, 3039.3615089962786, 166.6330693036832, True, False, -6.190890763410297, 0.013688510087072192, 0.4196335850057152, 1.3375877917359351, 0.6023391812865497, 0.403925540525772, 0.24330017938102058
43.05357893552614, 116.0, 172.0, 31.103999999999996, 3039.3615089962786, -165.6997225508144, True, False, -6.1414913022620095, 0.014165336636688602, 0.469033046154004, 1.3841814215382635, 0.6744186046511628, 0.37115154254763916, 0.25031150543910546
40.617094213426334, 109.0, 171.0, 31.103999999999996, 3039.3615089962786, 82.73675525941545, True, False, -6.225537440958216, 0.013363693030000817, 0.3849869074577965, 1.3058479363884496, 0.6374269005847953, 0.37263389186629664, 0.23752686674518325
146.69628430264422, 270.0, 343.0, 31.103999999999996, 3039.3615089962786, 167.56043798115348, True, False, -4.372864048400796, 0.04826549387706411, 2.2376603000152167, 4.71631572475065, 0.7871720116618076, 0.5433195714912749, 0.4276859600660181
42.008121593542334, 92.0, 172.0, 31.103999999999996, 3039.3615089962786, 25.581529257938893, True, False, -6.176956195771191, 0.013821363950685528, 0.43356815264482196, 1.3505697528788048, 0.5348837209302325, 0.45661001732111234, 0.2442332650787345
135.7440143873257, 128.0, 171.0, 31.103999999999996, 3039.3615089962786, 21.64016475393551, True, False, -4.484807793581921, 0.04466201667209832, 2.1257165548340917, 4.36419799341968, 0.7485380116959064, 1.060500112400982, 0.7938246455399164
119.08182321134299, 107.0, 172.0, 31.103999999999996, 3039.3615089962786, -131.86975513778088, True, False, -4.673743162234765, 0.039179881320096296, 1.936781186181248, 3.8285051186774375, 0.622093023255814, 1.112914235620028, 0.6923361814612965
162.9674871206011, 118.0, 171.0, 31.103999999999996, 3039.3615089962786, 77.69198418257209, True, False, -4.2211122097456695, 0.053618987619021216, 2.389412138670343, 5.239438243332083, 0.6900584795321637, 1.3810803993271281, 0.9530262404713515
106.65288949191284, 140.0, 172.0, 31.103999999999996, 3039.3615089962786, -156.62319612790466, True, False, -4.832773325181853, 0.03509055740037123, 1.777751023234159, 3.4289123422039887, 0.813953488372093, 0.7618063535136632, 0.62007493890647
164.71269099136816, 117.0, 172.0, 31.103999999999996, 3039.3615089962786, -10.666186759844834, True, False, -4.205744659649212, 0.05419318843902943, 2.404779688766801, 5.2955469068726915, 0.6802325581395349, 1.4078007777040014, 0.9576319243684196
162.18896967650878, 140.0, 172.0, 31.103999999999996, 3039.3615089962786, 145.53092785267484, True, False, -4.2280206710638, 0.053362842556386195, 2.3825036773522124, 5.2144087473157406, 0.813953488372093, 1.1584926405464913, 0.9429591260262138
151.8994496602115, 118.0, 171.0, 31.103999999999996, 3039.3615089962786, -68.34766852809109, True, False, -4.322579734696414, 0.04997742098483537, 2.287944613719599, 4.883598561606595, 0.6900584795321637, 1.2872834716967076, 0.8883008752059152
164.66861845152752, 97.0, 171.0, 31.103999999999996, 3039.3615089962786, 55.959718134398926, True, False, -4.206130736413279, 0.05417868784747091, 2.4043936120027336, 5.2941299656483904, 0.5672514619883041, 1.697614623211624, 0.9629743769095177
122.792, 126.0, 172.0, 31.103999999999996, 3039.3615089962786, -161.07535558394875, True, False, -4.629479806586091, 0.04040059059659242, 1.9810445418299214, 3.947788065843622, 0.7325581395348837, 0.9745396825396826, 0.713906976744186
181.73051684389654, 102.0, 171.0, 31.103999999999996, 3039.3615089962786, -40.67772294050896, True, False, -4.063895675114758, 0.05979233345753312, 2.5466286733012544, 5.842673509641736, 0.5964912280701754, 1.7816717337636916, 1.062751560490623
213.56183156248258, 133.0, 172.0, 31.103999999999996, 3039.3615089962786, 166.36688641100818, True, False, -3.8310425504844363, 0.07026536031674936, 2.779481797931576, 6.866056827497512, 0.7732558139534884, 1.6057280568607712, 1.241638555595829
117.30523071016242, 102.0, 171.0, 31.103999999999996, 3039.3615089962786, -23.994896086231545, True, False, -4.69542903215239, 0.038595353123657014, 1.915095316263622, 3.771387304210469, 0.5964912280701754, 1.1500512814721806, 0.68599550122902
124.38514028120113, 97.0, 171.0, 31.103999999999996, 3039.3615089962786, 61.512071754405696, True, False, -4.610882233942199, 0.040924759990883144, 1.9996421144738137, 3.9990078536908804, 0.5672514619883041, 1.2823210338268158, 0.7273984811766148
126.53521179846442, 89.0, 172.0, 31.103999999999996, 3039.3615089962786, 105.36161631184868, True, False, -4.5861574684111845, 0.04163216893545892, 2.0243668800048282, 4.068133095372442, 0.5174418604651163, 1.421743952791735, 0.7356698360375838
129.41924232217087, 96.0, 171.0, 31.103999999999996, 3039.3615089962786, -135.2114225810393, True, False, -4.553644241406787, 0.04258106248272862, 2.056880107009225, 4.160855270131523, 0.5614035087719298, 1.3481171075226133, 0.7568376743986601
186.8100716333656, 110.0, 172.0, 31.103999999999996, 3039.3615089962786, 21.92958775017535, True, False, -4.024124139326423, 0.06146359065232024, 2.5864002090895895, 6.005982241299049, 0.6395348837209303, 1.6982733784851418, 1.0861050676358466
142.29383373260984, 121.0, 171.0, 31.103999999999996, 3039.3615089962786, -132.82024400825847, True, False, -4.416823233191673, 0.04681701512354846, 2.1937011152243393, 4.574776033070019, 0.7076023391812866, 1.1759820969637176, 0.8321276826468412
168.49743990118657, 134.0, 172.0, 31.103999999999996, 3039.3615089962786, -6.970995807229458, True, False, -4.172969705880641, 0.055438433171719446, 2.4375546425353716, 5.417227363078273, 0.7790697674418605, 1.2574435813521385, 0.9796362784952707
183.25075417267155, 128.0, 171.0, 31.103999999999996, 3039.3615089962786, 146.63363399894044, True, False, -4.051877241769227, 0.06029251657963795, 2.5586471066467853, 5.8915494525678875, 0.7485380116959064, 1.4316465169739965, 1.071641837267085
157.43944478368056, 107.0, 172.0, 31.103999999999996, 3039.3615089962786, -62.03492334447804, True, False, -4.270899339506339, 0.05180017063375705, 2.339625008909674, 5.061710544742817, 0.622093023255814, 1.4713966802213136, 0.9153456092074451
178.9434047232568, 102.0, 171.0, 31.103999999999996, 3039.3615089962786, 58.22128023172194, True, False, -4.086193005936827, 0.05887532766128608, 2.524331342479186, 5.753067281483308, 0.5964912280701754, 1.7543471051299686, 1.0464526592003323
122.86766020414461, 114.0, 171.0, 31.103999999999996, 3039.3615089962786, -148.02743224051227, True, False, -4.628591141310949, 0.0404254840500104, 1.9819332071050642, 3.9502205569748146, 0.6666666666666666, 1.0777864930188124, 0.7185243286792082
125.3286630821824, 71.0, 171.0, 31.103999999999996, 3039.3615089962786, 65.75832427154641, True, False, -4.599979976033901, 0.04123519453385822, 2.0105443723821113, 4.029342305882922, 0.4152046783625731, 1.765192437777217, 0.7329161583753356
147.13860255184463, 118.0, 172.0, 31.103999999999996, 3039.3615089962786, -46.16124190831401, True, False, -4.3685205830386495, 0.04841102386679754, 2.2420037653773632, 4.7305363474744295, 0.686046511627907, 1.2469373097613952, 0.855456991580492
143.8332580043133, 111.0, 172.0, 31.103999999999996, 3039.3615089962786, 132.04922089099367, True, False, -4.401299074476638, 0.04732351106591888, 2.2092252739393747, 4.62426884015925, 0.6453488372093024, 1.2957951171559758, 0.8362398721181006
153.8012590608097, 117.0, 172.0, 31.103999999999996, 3039.3615089962786, -126.33939632917021, True, False, -4.304629063925351, 0.050603147603721935, 2.3058952844906626, 4.944742125154634, 0.6802325581395349, 1.3145406757334164, 0.8941933666326146
158.030507078122, 145.0, 171.0, 31.103999999999996, 3039.3615089962786, 14.730321380844895, True, False, -4.265493286512689, 0.05199463986444645, 2.345031061903323, 5.080713319126866, 0.847953216374269, 1.089865566056014, 0.9241550121527603
146.4256502101231, 105.0, 171.0, 31.103999999999996, 3039.3615089962786, 150.7320047851073, True, False, -4.375528076766798, 0.04817645080281314, 2.2349962716492136, 4.70761478299007, 0.6140350877192983, 1.3945300020011724, 0.8562903521059831
138.7521950635996, 96.0, 171.0, 31.103999999999996, 3039.3615089962786, 28.860757348806796, True, False, -4.453185782465877, 0.04565175766453042, 2.157338565950135, 4.460911621129103, 0.5614035087719298, 1.4453353652458292, 0.8114163454011672
169.41669643800938, 140.0, 172.0, 31.103999999999996, 3039.3615089962786, -129.39383404853342, True, False, -4.165120314713466, 0.055740883714079044, 2.4454040337025473, 5.446781649884562, 0.813953488372093, 1.2101192602714956, 0.9849807932442406
142.0761158778626, 118.0, 171.0, 31.103999999999996, 3039.3615089962786, 18.25756307538974, True, False, -4.419032331102045, 0.046745382363147035, 2.1914920173139674, 4.567776359241982, 0.6900584795321637, 1.2040348803208696, 0.83085447881791
175.04713693068902, 131.0, 171.0, 31.103999999999996, 3039.3615089962786, -140.4727116712505, True, False, -4.117952912331995, 0.05759339137926266, 2.492571436084018, 5.627801470251063, 0.7660818713450293, 1.3362376864938093, 1.0236674674309298
170.23339046219803, 126.0, 172.0, 31.103999999999996, 3039.3615089962786, 12.421862841257704, True, False, -4.158182335099655, 0.05600958950040005, 2.4523420133163576, 5.473038530806265, 0.7325581395348837, 1.3510586544618892, 0.9897290143151048
216.74002383239784, 138.0, 171.0, 31.103999999999996, 3039.3615089962786, -162.47443162627712, True, False, -3.80973078736165, 0.07131103792387443, 2.800793561054362, 6.968236362924314, 0.8070175438596491, 1.5705798828434625, 1.2674855194877066
258.49435421649156, 150.0, 172.0, 31.103999999999996, 3039.3615089962786, 22.166345822082455, True, False, -3.5555636066494833, 0.08504890038627125, 3.0549607417665285, 8.310646676198932, 0.872093023255814, 1.7232956947766105, 1.5028741524214626
123.88874903124989, 96.0, 171.0, 31.103999999999996, 3039.3615089962786, 110.77225468204584, True, False, -4.616651202647558, 0.04076143909322686, 1.9938731457684549, 3.9830487728668307, 0.5614035087719298, 1.290507802408853, 0.7244956083698824
145.9385829649865, 119.0, 171.0, 31.103999999999996, 3039.3615089962786, -29.027867852994838, True, False, -4.380335026930264, 0.048016197656323346, 2.2301893214857484, 4.691955470839329, 0.695906432748538, 1.2263746467645924, 0.8534420056431958
166.58229699705362, 131.0, 171.0, 31.103999999999996, 3039.3615089962786, 175.23635830927384, True, False, -4.189461286555018, 0.05480831961054409, 2.4210630618609956, 5.355655124648072, 0.7660818713450293, 1.271620587763768, 0.9741654795149335
177.20169069776603, 126.0, 172.0, 31.103999999999996, 3039.3615089962786, 19.267457700937356, True, False, -4.100304008739192, 0.05830227505785755, 2.510220339676821, 5.697070817186408, 0.7325581395348837, 1.4063626245854446, 1.0302423877777094
119.8606683644388, 105.0, 171.0, 31.103999999999996, 3039.3615089962786, -88.42633594589746, True, False, -4.664338053817022, 0.0394361342043914, 1.9461862945989912, 3.8535451506056715, 0.6140350877192983, 1.141530174899417, 0.7009395810785894
153.85217680266763, 98.0, 171.0, 31.103999999999996, 3039.3615089962786, 55.942185409009376, True, False, -4.304151521562554, 0.05061990037949645, 2.3063728268534596, 4.946379141032268, 0.5730994152046783, 1.5699201714557922, 0.8997203321793429
119.99243907740728, 143.0, 172.0, 31.103999999999996, 3039.3615089962786, 143.25588871521674, True, False, -4.662752875494444, 0.03947948893944955, 1.9477714729215685, 3.857781606140924, 0.8313953488372093, 0.8391079655762748, 0.6976304597523679
186.0358317461282, 103.0, 171.0, 31.103999999999996, 3039.3615089962786, 25.53280648551226, True, False, -4.030115856768914, 0.061208852976349246, 2.580408491647099, 5.9810902696157475, 0.6023391812865497, 1.8061731237488174, 1.0879288406206327
163.28035890129672, 127.0, 172.0, 31.103999999999996, 3039.3615089962786, -146.0280366944268, True, False, -4.2183451189567345, 0.05372192758840937, 2.3921792294592783, 5.249497135458357, 0.7383720930232558, 1.285672117333045, 0.9493044122168414
113.4279872008012, 171.0, 171.0, 31.103999999999996, 3039.3615089962786, -149.93141717813754, True, False, -4.743919723071257, 0.0373196761441714, 1.866604625344755, 3.6467331275977757, 1.0, 0.6633215625777847, 0.6633215625777847
136.35936892047494, 98.0, 171.0, 31.103999999999996, 3039.3615089962786, 26.952178931228936, True, False, -4.478282549860194, 0.04486447844945775, 2.1322417985558193, 4.383981768276587, 0.5730994152046783, 1.391422131841581, 0.7974232100612569
186.85624873915566, 150.0, 172.0, 31.103999999999996, 3039.3615089962786, 159.30933148606695, True, False, -4.023767567282153, 0.06147878368074196, 2.5867567811338597, 6.0074668447516615, 0.872093023255814, 1.2457083249277043, 1.0863735391811375
206.591181546373, 127.0, 172.0, 31.103999999999996, 3039.3615089962786, -154.19757638840355, True, False, -3.8789177042670135, 0.06797190164278874, 2.731606644148999, 6.641948995189463, 0.7383720930232558, 1.626702216900575, 1.2011115206184477
142.39160899278374, 99.0, 172.0, 31.103999999999996, 3039.3615089962786, -58.79611168233822, True, False, -4.415832245474349, 0.046849184794673294, 2.1946921029416635, 4.577919527802976, 0.5755813953488372, 1.4382990807351894, 0.8278581918185102
149.33159440256097, 128.0, 171.0, 31.103999999999996, 3039.3615089962786, 153.91946817796673, True, False, -4.347176945764834, 0.04913255430805148, 2.263347402651179, 4.801041486707851, 0.7485380116959064, 1.1666530812700076, 0.8732841777927542
163.18942678211747, 105.0, 171.0, 31.103999999999996, 3039.3615089962786, -26.33768816608743, True, False, -4.219148791005683, 0.05369200942339014, 2.39137555741033, 5.246573649116431, 0.6140350877192983, 1.5541850169725473, 0.9543241332287571
169.7230242291876, 135.0, 171.0, 31.103999999999996, 3039.3615089962786, 147.68038349181984, True, False, -4.162514086787487, 0.05584167060312515, 2.4480102616285255, 5.456630151401351, 0.7894736842105263, 1.257207586882871, 0.9925323054338455
192.83121267130667, 131.0, 171.0, 31.103999999999996, 3039.3615089962786, 31.69580802710686, True, False, -3.978357784930568, 0.0634446452324085, 2.632166563485445, 6.199563164586764, 0.7660818713450293, 1.471993989857303, 1.1276679103585185
188.5289139157615, 127.0, 172.0, 31.103999999999996, 3039.3615089962786, -123.1196637874033, True, False, -4.010910576828615, 0.062029118075533386, 2.599613771587398, 6.0612433743493295, 0.7383720930232558, 1.4844796371319804, 1.0960983367195436
239.48389581425616, 105.0, 171.0, 31.103999999999996, 3039.3615089962786, 107.95449233199388, True, False, -3.6657677329390292, 0.07879414643680986, 2.944756615476983, 7.699456526950109, 0.6140350877192983, 2.2807990077548204, 1.4004906187968196
186.43029149992162, 100.0, 172.0, 31.103999999999996, 3039.3615089962786, -48.42387124493067, True, False, -4.027060087087485, 0.061338636732781594, 2.5834642613285266, 5.993772231864765, 0.5813953488372093, 1.8643029149992163, 1.0838970436041955
221.90641357312373, 107.0, 172.0, 31.103999999999996, 3039.3615089962786, 158.3109350353842, True, False, -3.77574501245463, 0.07301086524794687, 2.834779335961383, 7.134336856131808, 0.622093023255814, 2.0738917156366705, 1.290153567285603
266.81631521089747, 119.0, 171.0, 31.103999999999996, 3039.3615089962786, 0.6965709014221768, True, False, -3.5098494908443634, 0.08778696263052009, 3.1006748575716494, 8.578199434506736, 0.695906432748538, 2.242153909335273, 1.5603293287186986
167.23698251214822, 148.0, 172.0, 31.103999999999996, 3039.3615089962786, 140.48218430954648, True, False, -4.183802459669302, 0.05502372192881284, 2.426721888746711, 5.376703398667317, 0.8604651162790697, 1.129979611568569, 0.9723080378613268
100.77666185503469, 83.0, 172.0, 31.103999999999996, 3039.3615089962786, 75.79323388223963, True, False, -4.9145348034731535, 0.03315718171620699, 1.6959895449428593, 3.239990414578019, 0.48255813953488375, 1.2141766488558396, 0.5859108247385738
129.60701505356664, 103.0, 171.0, 31.103999999999996, 3039.3615089962786, -52.4131957087493, True, False, -4.55155257055769, 0.04264284280429944, 2.0589717778583227, 4.166892202082262, 0.6023391812865497, 1.258320534500647, 0.7579357605471734
113.4279872008012, 88.0, 171.0, 31.103999999999996, 3039.3615089962786, 30.06858282186245, True, False, -4.743919723071257, 0.0373196761441714, 1.866604625344755, 3.6467331275977757, 0.5146198830409356, 1.2889544000091044, 0.6633215625777847
145.87371471804053, 125.0, 172.0, 31.103999999999996, 3039.3615089962786, 161.21675285641922, True, False, -4.3809764330702015, 0.04799485493458591, 2.229547915345811, 4.689869943352641, 0.7267441860465116, 1.1669897177443243, 0.8481029925467473
117.70586828146406, 100.0, 172.0, 31.103999999999996, 3039.3615089962786, 38.908486291145806, True, False, -4.690510129175307, 0.0387271694838089, 1.9200142192407064, 3.7842678845635316, 0.5813953488372093, 1.1770586828146405, 0.684336443496884
154.18516070523117, 128.0, 171.0, 31.103999999999996, 3039.3615089962786, 156.87094316521657, True, False, -4.301032455439406, 0.05072945756826058, 2.309491892976607, 4.957084642014892, 0.7485380116959064, 1.2045715680096185, 0.9016676064633402
104.03579687675568, 98.0, 171.0, 31.103999999999996, 3039.3615089962786, -43.293821705553, True, False, -4.868616357962208, 0.034229490821943244, 1.741907990453805, 3.344772276130263, 0.5730994152046783, 1.0615897640485275, 0.6083964729634835
155.5923673091485, 121.0, 171.0, 31.103999999999996, 3039.3615089962786, -139.6555074280136, True, False, -4.287925087924935, 0.05119245172007573, 2.322599260491077, 5.002326623879518, 0.7076023391812866, 1.2858873331334586, 0.9098968848488216
121.62344453547658, 100.0, 172.0, 31.103999999999996, 3039.3615089962786, 62.45920263562721, True, False, -4.643275023351906, 0.04001611660063485, 1.9672493250641065, 3.910218767215683, 0.5813953488372093, 1.2162344453547658, 0.7071130496248639
142.25471053666485, 135.0, 171.0, 31.103999999999996, 3039.3615089962786, 157.57413807864822, True, False, -4.417219951728921, 0.04680414294765586, 2.1933043966870915, 4.573518214270346, 0.7894736842105263, 1.0537385965678878, 0.8318988920272798
181.4577546722559, 122.0, 171.0, 31.103999999999996, 3039.3615089962786, 4.236394799058841, True, False, -4.0660626652805485, 0.05970259021019868, 2.5444616831354647, 5.8339041496995865, 0.7134502923976608, 1.4873586448545566, 1.0611564600716719
83.29114089093449, 131.0, 171.0, 31.103999999999996, 3039.3615089962786, -162.81041544384635, True, False, -5.189461418326957, 0.02740415730224886, 1.4210629300890558, 2.6778273177383776, 0.7660818713450293, 0.6358102358086603, 0.48708269526862275
138.4808138387389, 111.0, 172.0, 31.103999999999996, 3039.3615089962786, 60.113473059575966, True, False, -4.456010269159599, 0.045562468771433155, 2.1545140792564137, 4.452186658910073, 0.6453488372093024, 1.2475748994480982, 0.8051210106903425
131.05089371514057, 107.0, 172.0, 31.103999999999996, 3039.3615089962786, 154.89355395413415, True, False, -4.5355691852768745, 0.04311790266713581, 2.074955163139138, 4.213313198146238, 0.622093023255814, 1.2247747076181361, 0.7619238006694219
161.9013483101497, 131.0, 171.0, 31.103999999999996, 3039.3615089962786, 51.34019174590991, True, False, -4.230581377168303, 0.053268210389232754, 2.3799429712477096, 5.2051616612059455, 0.7660818713450293, 1.2358881550393106, 0.9467915105856708
99.7580458244258, 117.0, 172.0, 31.103999999999996, 3039.3615089962786, -136.25080081476543, True, False, -4.929191268201146, 0.03282204026376908, 1.6813330802148665, 3.2072416996021675, 0.6802325581395349, 0.8526328702942376, 0.5799886385141035
175.19461161158273, 128.0, 171.0, 31.103999999999996, 3039.3615089962786, 156.67464911902414, True, False, -4.1167379743399275, 0.05764191297843972, 2.493786374076085, 5.632542811586379, 0.7485380116959064, 1.36870790321549, 1.024529892465396
117.56129659983654, 95.0, 171.0, 31.103999999999996, 3039.3615089962786, 50.64331828053398, True, False, -4.692283201711759, 0.03867960301920784, 1.918241146704253, 3.7796198752519468, 0.5555555555555556, 1.2374873326298583, 0.6874929625721435
63.19136203984453, 98.0, 171.0, 31.103999999999996, 3039.3615089962786, -41.443818905744884, True, False, -5.587897110177326, 0.020790998982122694, 1.0226272382386867, 2.03161529191887, 0.5730994152046783, 0.6448098167331074, 0.3695401288879797
132.8560920313116, 134.0, 172.0, 31.103999999999996, 3039.3615089962786, -144.5989030685418, True, False, -4.515831994379419, 0.0437118426478942, 2.094692354036593, 4.271350695451119, 0.7790697674418605, 0.991463373367997, 0.7724191397169279
155.42701556505102, 85.0, 171.0, 31.103999999999996, 3039.3615089962786, 31.279805695782937, True, False, -4.28945908983493, 0.05113804827263848, 2.321065258581083, 4.997010531283792, 0.49707602339181284, 1.828553124294718, 0.9089299155850937
140.1777702507763, 111.0, 171.0, 31.103999999999996, 3039.3615089962786, -18.43494882292201, True, False, -4.438438796365986, 0.04612079538280022, 2.1720855520500275, 4.506744156725062, 0.6491228070175439, 1.2628627950520386, 0.8197530424022005
146.8518000573042, 141.0, 172.0, 31.103999999999996, 3039.3615089962786, -156.00968403415996, True, False, -4.371335427769478, 0.04831666112196066, 2.2391889206465354, 4.721315588262096, 0.8197674418604651, 1.041502128065987, 0.8537895352168848
149.48989795838787, 122.0, 171.0, 31.103999999999996, 3039.3615089962786, -157.7965214679426, True, False, -4.345648382511186, 0.049184638785451866, 2.2648759659048268, 4.806130978600434, 0.7134502923976608, 1.2253270324458023, 0.8742099295812156
90.06149793047851, 134.0, 172.0, 31.103999999999996, 3039.3615089962786, -51.39895662736892, True, False, -5.07671399924627, 0.029631716287747717, 1.5338103491697417, 2.8954956896372983, 0.7790697674418605, 0.6721007308244665, 0.5236133600609215
130.98879086361657, 112.0, 171.0, 31.103999999999996, 3039.3615089962786, 47.30737299696221, True, False, -4.5362530166418855, 0.04309746980604305, 2.0742713317741273, 4.211316578691377, 0.6549707602339181, 1.169542775568005, 0.766016320839863
123.33175315279473, 99.0, 171.0, 31.103999999999996, 3039.3615089962786, 50.90614111377051, True, False, -4.623152091888046, 0.040578178274529746, 1.9873722565279672, 3.9651412407662923, 0.5789473684210527, 1.245775284371664, 0.7212383225309633
101.26982724271815, 118.0, 172.0, 31.103999999999996, 3039.3615089962786, 150.29859045458946, True, False, -4.907491982038477, 0.03331944125204164, 1.7030323663775355, 3.255845783266402, 0.686046511627907, 0.8582188749382894, 0.5887780653646404
27.290603341057796, 150.0, 172.0, 31.103999999999996, 3039.3615089962786, 13.570434385161487, True, False, -6.799220182384652, 0.008979058022640507, -0.18869583396863993, 0.87739851276549, 0.872093023255814, 0.181937355607052, 0.15866629849452207
27.346452708952448, 113.0, 171.0, 31.103999999999996, 3039.3615089962786, -23.702645950966243, True, False, -6.796270768928421, 0.008997433384613522, -0.18574642051240886, 0.8791940814349425, 0.6608187134502924, 0.24200400627391547, 0.1599207760757453
27.2347190999916, 107.0, 172.0, 31.103999999999996, 3039.3615089962786, 10.304846468766033, True, False, -6.802177485232999, 0.008960671186819634, -0.19165313681698667, 0.8756018229163968, 0.622093023255814, 0.2545300850466505, 0.15834139011623025
27.680820216976933, 100.0, 172.0, 31.103999999999996, 3039.3615089962786, -20.854458039578347, True, False, -6.778737780023962, 0.009107445802364679, -0.16821343160794958, 0.8899440656178285, 0.5813953488372093, 0.2768082021697693, 0.1609350012614938
136.6084983093707, 246.0, 343.0, 31.103999999999996, 3039.3615089962786, 174.80557109226518, True, False, -4.475649142218911, 0.04494644612199633, 2.1348752061971017, 4.391991329390777, 0.717201166180758, 0.5553190988185801, 0.3982755052751332
104.22817395265972, 113.0, 171.0, 31.103999999999996, 3039.3615089962786, 24.87131467827699, True, False, -4.865951071871484, 0.0342927860486988, 1.7445732765445292, 3.3509572387043383, 0.6608187134502924, 0.9223732208199975, 0.6095214851032732
127.97612131405714, 112.0, 172.0, 31.103999999999996, 3039.3615089962786, -28.58641611743401, True, False, -4.569821730449731, 0.042106251900360506, 2.0407026179662826, 4.1144586327821875, 0.6511627906976745, 1.1426439403040816, 0.7440472169421927
34.005304693269956, 62.0, 171.0, 31.103999999999996, 3039.3615089962786, 52.177245850855016, True, False, -6.48186465382349, 0.011188305370261761, 0.1286596945925223, 1.0932775428649035, 0.36257309941520466, 0.5484726563430639, 0.19886143095479505
95.12603954643762, 91.0, 172.0, 31.103999999999996, 3039.3615089962786, -80.1185938796498, True, False, -4.997784157860938, 0.03129803390115713, 1.612740190555075, 3.058321744677136, 0.5290697674418605, 1.045341093916897, 0.5530583694560327
45.12792129385205, 77.0, 172.0, 31.103999999999996, 3039.3615089962786, 56.01383289035141, True, False, -6.073604146572496, 0.014847829440583766, 0.5369202018435169, 1.4508719551778566, 0.4476744186046512, 0.5860768999201564, 0.26237163542937236
142.09080077964236, 121.0, 171.0, 31.103999999999996, 3039.3615089962786, 160.85554218880335, True, False, -4.418883222717144, 0.046750213937718305, 2.191641125698868, 4.568248481855787, 0.7076023391812866, 1.1743041386747304, 0.830940355436505
112.33425849346628, 103.0, 171.0, 31.103999999999996, 3039.3615089962786, 151.23235066115623, True, False, -4.7578984051324795, 0.03695982138385494, 1.852625943283533, 3.611569524609899, 0.6023391812865497, 1.0906238688686047, 0.6569254882658847
126.29398937942273, 128.0, 172.0, 31.103999999999996, 3039.3615089962786, -141.24525267867696, True, False, -4.588910397991142, 0.0415528027862438, 2.0216139504248707, 4.060377744966009, 0.7441860465116279, 0.98667179202674, 0.7342673801129228
114.77222488402484, 114.0, 171.0, 31.103999999999996, 3039.3615089962786, 42.25191181994625, True, False, -4.726922828518433, 0.0377619524838713, 1.8836015198975802, 3.6899506457055313, 0.6666666666666666, 1.006773902491446, 0.671182601660964
114.89084245810304, 122.0, 171.0, 31.103999999999996, 3039.3615089962786, 153.14557865948143, True, False, -4.725432567127413, 0.0378009796195796, 1.8850917812885994, 3.693764225119054, 0.7134502923976608, 0.941728216869697, 0.6718762716848131
115.25185461506499, 99.0, 171.0, 31.103999999999996, 3039.3615089962786, 39.97092641821455, True, False, -4.720906411117537, 0.03791975856571463, 1.8896179372984763, 3.7053708402477175, 0.5789473684210527, 1.164160147626919, 0.673987453889269
119.65183613761451, 111.0, 172.0, 31.103999999999996, 3039.3615089962786, 156.67730329883014, True, False, -4.6668538414164225, 0.039367424961938284, 1.9436705069995912, 3.846831151543677, 0.6453488372093024, 1.0779444697082388, 0.6956502101024099
160.58338223908032, 105.0, 171.0, 31.103999999999996, 3039.3615089962786, -49.73343833057548, True, False, -4.242373772411599, 0.05283457784267049, 2.368150576004413, 5.162788780834631, 0.6140350877192983, 1.5293655451340984, 0.9390841066612884
151.7008590965788, 134.0, 172.0, 31.103999999999996, 3039.3615089962786, 57.795871079337594, True, False, -4.324467121855906, 0.049912081418270186, 2.2860572265601067, 4.877213834123547, 0.7790697674418605, 1.1320959634073045, 0.8819817389335977
145.45518884193223, 128.0, 171.0, 31.103999999999996, 3039.3615089962786, -151.21338168998597, True, False, -4.385121614780321, 0.04785715302750131, 2.225402733635692, 4.676414250319324, 0.7485380116959064, 1.1363686628275955, 0.8506151394265042
147.88959636892565, 125.0, 172.0, 31.103999999999996, 3039.3615089962786, -12.647126135726056, True, False, -4.361175811252642, 0.048658113202784105, 2.249348537163371, 4.754680953219061, 0.7267441860465116, 1.1831167709514052, 0.8598232347030561
145.07200385951367, 120.0, 171.0, 31.103999999999996, 3039.3615089962786, 133.24061457773803, True, False, -4.388927244052371, 0.047731078856566286, 2.2215971043636418, 4.664094774289921, 0.7017543859649122, 1.2089333654959473, 0.8483742915761033
180.36363890281982, 132.0, 171.0, 31.103999999999996, 3039.3615089962786, -70.74339489346129, True, False, -4.0747878552996735, 0.059342608100075356, 2.5357364931163384, 5.798728102585515, 0.7719298245614035, 1.366391203809241, 1.0547581222387123
149.01936565132843, 94.0, 172.0, 31.103999999999996, 3039.3615089962786, 54.05239792362172, True, False, -4.3501965508325595, 0.04902982590594849, 2.260327797583453, 4.791003268111125, 0.5465116279069767, 1.585312400546047, 0.8663916607635374
125.87974548066654, 106.0, 171.0, 31.103999999999996, 3039.3615089962786, -168.032897623415, True, False, -4.593650210853416, 0.04141650972023962, 2.016874137562597, 4.047059718385627, 0.6198830409356725, 1.1875447686855334, 0.7361388624600382
165.21451427684113, 118.0, 172.0, 31.103999999999996, 3039.3615089962786, -37.67611749417541, True, False, -4.201355942913537, 0.05435829656584738, 2.409168405502476, 5.311680628756467, 0.686046511627907, 1.4001230023461113, 0.9605495016095414
172.57700803926983, 113.0, 171.0, 31.103999999999996, 3039.3615089962786, 110.44179655841656, True, False, -4.138456106563058, 0.056780678286691144, 2.4720682418529547, 5.548386318134962, 0.6608187134502924, 1.527230159639556, 1.009222269235496
141.9218606279836, 141.0, 172.0, 31.103999999999996, 3039.3615089962786, -123.61222004737098, True, False, -4.420599548648131, 0.046694629845086114, 2.189924799767882, 4.562817021218609, 0.8197674418604651, 1.0065380186381816, 0.8251270966743232
157.04755865245468, 119.0, 171.0, 31.103999999999996, 3039.3615089962786, 13.719345264021625, True, False, -4.274494861512473, 0.05167123364154144, 2.33602948690354, 5.049111324988899, 0.695906432748538, 1.319727383634073, 0.918406775745349
150.7450464679949, 132.0, 171.0, 31.103999999999996, 3039.3615089962786, 166.42054691831092, True, False, -4.3335857821161685, 0.049597603319579145, 2.2769385662998443, 4.84648426144531, 0.7719298245614035, 1.1420079277878403, 0.8815499793449995
198.39322793264043, 143.0, 172.0, 31.103999999999996, 3039.3615089962786, -60.582363766311005, True, False, -3.9373335967933696, 0.06527463986939742, 2.673190751622643, 6.3783830996862285, 0.8313953488372093, 1.3873652302981847, 1.1534489996083745
114.70440770505613, 116.0, 171.0, 31.103999999999996, 3039.3615089962786, 102.07213734683587, True, False, -4.727775547242163, 0.03773963951492437, 1.8827488011738502, 3.6877703094475356, 0.6783625730994152, 0.9888311009056563, 0.6707860099710885
149.7778485842864, 135.0, 172.0, 31.103999999999996, 3039.3615089962786, -120.31480296287849, True, False, -4.342872105595255, 0.04927937928441726, 2.2676522428207577, 4.815388650472172, 0.7848837209302325, 1.1094655450687883, 0.870801445257479
88.27123444781344, 112.0, 171.0, 31.103999999999996, 3039.3615089962786, 85.42607874009914, True, False, -5.105681098932523, 0.02904269011321533, 1.5048432494834896, 2.8379383503026445, 0.6549707602339181, 0.7881360218554772, 0.5162060494024178
113.21434749312871, 142.0, 172.0, 31.103999999999996, 3039.3615089962786, -144.04466653441065, True, False, -4.746639577140014, 0.0372493851613317, 1.8638847712759992, 3.6398645670373178, 0.8255813953488372, 0.7972841372755544, 0.658222950541446
26.89867763978186, 103.0, 171.0, 31.103999999999996, 3039.3615089962786, 80.96051719664487, True, False, -6.820089221973782, 0.008850108011226642, -0.20956487355776898, 0.8647980208263202, 0.6023391812865497, 0.26115221009496953, 0.15730220841977696
27.597345052507883, 99.0, 171.0, 31.103999999999996, 3039.3615089962786, 172.3210361926313, True, False, -6.783094990389805, 0.009079981098274043, -0.17257064197379235, 0.8872603219041888, 0.5789473684210527, 0.2787610611364433, 0.16138798276320399
28.588475702529344, 93.0, 172.0, 31.103999999999996, 3039.3615089962786, -97.59464336859145, True, False, -6.732190772931003, 0.009406079407766938, -0.12166642451499017, 0.9191253762387265, 0.5406976744186046, 0.3074029645433263, 0.1662120680379613
169.00834890292685, 122.0, 171.0, 31.103999999999996, 3039.3615089962786, 62.99166343563686, True, False, -4.168601861116937, 0.05560653064884681, 2.4419224872990757, 5.4336531926095315, 0.7134502923976608, 1.3853143352698922, 0.9883529175609758
117.89197223764361, 118.0, 172.0, 31.103999999999996, 3039.3615089962786, 119.98163936884934, True, False, -4.688230895121865, 0.038788400750845976, 1.9222934532941476, 3.790251165047699, 0.686046511627907, 0.9990845104885052, 0.685418443242114
109.92276424625553, 122.0, 172.0, 31.103999999999996, 3039.3615089962786, 80.97545937377727, True, False, -4.789206188165119, 0.03616640005504199, 1.8213181602508939, 3.5340394883698414, 0.7093023255813954, 0.9010062643135699, 0.6390858386410205
123.9236738225926, 134.0, 171.0, 31.103999999999996, 3039.3615089962786, -55.28537797494747, True, False, -4.616244557790713, 0.04077292992485032, 1.9942797906252991, 3.9841716120946704, 0.783625730994152, 0.924803535989497, 0.7246998469157462
97.60439000778382, 113.0, 171.0, 31.103999999999996, 3039.3615089962786, 98.63713141507077, True, False, -4.960678434315067, 0.03211345202565811, 1.6498459141009454, 3.1380012219580706, 0.6608187134502924, 0.8637556637856976, 0.570785906478268
85.52486702694156, 120.0, 171.0, 31.103999999999996, 3039.3615089962786, -167.09259132873416, True, False, -5.151280516562725, 0.02813908999432758, 1.4592438318532879, 2.7496420726254365, 0.7017543859649122, 0.712707225224513, 0.5001454212101846
106.44845555388622, 102.0, 171.0, 31.103999999999996, 3039.3615089962786, 122.65357933127316, True, False, -4.83554135950838, 0.035023295267379975, 1.774982988907633, 3.422339749031836, 0.5964912280701754, 1.0436123093518257, 0.6225055880344224
85.79537833982033, 109.0, 171.0, 31.103999999999996, 3039.3615089962786, 30.89736516026651, True, False, -5.14672453833501, 0.028228092672053832, 1.4637998100810024, 2.7583390669952528, 0.6374269005847953, 0.7871135627506453, 0.5017273587123996
137.0706993132984, 120.0, 171.0, 31.103999999999996, 3039.3615089962786, 169.59228868750995, True, False, -4.470776168781291, 0.045098517865538396, 2.1397481796347217, 4.406851186770139, 0.7017543859649122, 1.1422558276108201, 0.8015830369198738
137.65195096566995, 131.0, 172.0, 31.103999999999996, 3039.3615089962786, 18.072322148959497, True, False, -4.464671319932287, 0.045289759233388543, 2.145853028483725, 4.42553854699299, 0.7616279069767442, 1.0507782516463355, 0.8003020404980812
101.627283135227, 109.0, 171.0, 31.103999999999996, 3039.3615089962786, 38.05901657125742, True, False, -4.902408613664805, 0.03343705012859378, 1.708115734751209, 3.267338063761157, 0.6374269005847953, 0.9323603957360276, 0.5943115972820293
131.55474151652584, 109.0, 171.0, 31.103999999999996, 3039.3615089962786, 168.6900675259798, True, False, -4.530033130304271, 0.043283676893036194, 2.080491218111742, 4.2295120086331615, 0.6374269005847953, 1.2069242340965673, 0.7693259737808529
126.62261192507955, 134.0, 171.0, 31.103999999999996, 3039.3615089962786, -52.09840428415822, True, False, -4.585161317216679, 0.04166092501674653, 2.025363031199334, 4.070943027426684, 0.783625730994152, 0.944944865112534, 0.7404831106729799
85.98106842274163, 129.0, 171.0, 31.103999999999996, 3039.3615089962786, -148.2405199151872, True, False, -5.143605434742267, 0.02828918776797173, 1.466918913673745, 2.7643090413690086, 0.7543859649122807, 0.6665199102538111, 0.502813265630068
62.56779893553077, 106.0, 172.0, 31.103999999999996, 3039.3615089962786, 26.154335778312912, True, False, -5.6022041199238, 0.02058583644964077, 1.0083202284922124, 2.011567609810017, 0.6162790697674418, 0.5902622541087809, 0.36376627288099284
158.3050381632796, 134.0, 171.0, 31.103999999999996, 3039.3615089962786, -167.1611837200992, True, False, -4.262989206648646, 0.052084965113465026, 2.3475351417673664, 5.089539550002559, 0.783625730994152, 1.1813808818155194, 0.9257604570952023
84.14089818512471, 130.0, 171.0, 31.103999999999996, 3039.3615089962786, -39.45468269113796, True, False, -5.174817253839032, 0.027683741449009622, 1.4357070945769812, 2.7051471895937733, 0.7602339181286549, 0.6472376783471132, 0.49205203617031995
131.19572281835735, 109.0, 172.0, 31.103999999999996, 3039.3615089962786, 105.90470288254267, True, False, -4.533975690931808, 0.04316555382767993, 2.0765486574842047, 4.217969483614884, 0.6337209302325582, 1.2036304845720858, 0.7627658303392869
143.94728128088303, 136.0, 171.0, 31.103999999999996, 3039.3615089962786, 67.16634582208245, True, False, -4.400155836475418, 0.04736102660207087, 2.2103685119405947, 4.6279347119625465, 0.7953216374269005, 1.0584358917711987, 0.8417969665548716
117.30523071016242, 113.0, 171.0, 31.103999999999996, 3039.3615089962786, -167.12499844038754, True, False, -4.69542903215239, 0.038595353123657014, 1.915095316263622, 3.771387304210469, 0.6608187134502924, 1.0380993868155965, 0.68599550122902
125.62171010998233, 92.0, 172.0, 31.103999999999996, 3039.3615089962786, 63.43494882292201, True, False, -4.596610563344466, 0.041331611832995725, 2.0139137850715465, 4.0387638281244325, 0.5348837209302325, 1.3654533707606775, 0.7303587797091996
143.59287463370995, 120.0, 171.0, 31.103999999999996, 3039.3615089962786, -149.32271997820357, True, False, -4.403712216067871, 0.04724442097746055, 2.206812132348142, 4.616540465332754, 0.7017543859649122, 1.1966072886142496, 0.8397244130626313
182.0562012248213, 131.0, 172.0, 31.103999999999996, 3039.3615089962786, -38.18357552987263, True, False, -4.061312494677163, 0.05989948898344235, 2.5492118537388495, 5.853144329501714, 0.7616279069767442, 1.3897419940826055, 1.0584662861908216
114.9924514666935, 92.0, 171.0, 31.103999999999996, 3039.3615089962786, 106.38954033403479, True, False, -4.724157217189219, 0.03783441065708196, 1.8863671312267933, 3.6970309756524404, 0.5380116959064327, 1.2499179507249294, 0.6724704764134123
83.29114089093449, 88.0, 172.0, 31.103999999999996, 3039.3615089962786, -23.92250588301327, True, False, -5.189461418326957, 0.02740415730224886, 1.4210629300890558, 2.6778273177383776, 0.5116279069767442, 0.9464902373969828, 0.48425081913334006
128.47498298484845, 115.0, 171.0, 31.103999999999996, 3039.3615089962786, -167.27564431457762, True, False, -4.564208916511587, 0.042270385607165284, 2.046315431904425, 4.1304971381445625, 0.672514619883041, 1.1171737650856388, 0.751315689969874
142.35250449683585, 131.0, 171.0, 31.103999999999996, 3039.3615089962786, -10.705684910472302, True, False, -4.416228502043405, 0.04683631877138777, 2.194295846372607, 4.5766623102120585, 0.7660818713450293, 1.0866603396705026, 0.8324707865312038
94.56572228788855, 87.0, 171.0, 31.103999999999996, 3039.3615089962786, -58.03335632591385, True, False, -5.006307135068377, 0.031113680293700242, 1.6042172133476356, 3.0403074295231662, 0.5087719298245614, 1.0869623251481442, 0.5530159198122138
135.7515918363139, 99.0, 172.0, 31.103999999999996, 3039.3615089962786, 150.32691788792218, True, False, -4.484727262274378, 0.044664509777629126, 2.1257970861416347, 4.364441609963796, 0.5755813953488372, 1.371228200366807, 0.7892534409088018
147.1051625101489, 109.0, 171.0, 31.103999999999996, 3039.3615089962786, 27.299572211332805, True, False, -4.368848500148594, 0.048400021542264325, 2.241675848267418, 4.729461243253244, 0.6374269005847953, 1.3495886468821, 0.8602641082464847
106.84820367203329, 106.0, 172.0, 31.103999999999996, 3039.3615089962786, -64.04123073843937, True, False, -4.830133723917944, 0.03515481898279318, 1.780390624498069, 3.435191733282964, 0.6162790697674418, 1.0080019214342764, 0.6212104864653099
137.916960961895, 80.0, 172.0, 31.103999999999996, 3039.3615089962786, 77.00538320808349, True, False, -4.461896487876456, 0.04537695188731952, 2.148627860539556, 4.434058672900432, 0.46511627906976744, 1.7239620120236876, 0.8018427962900873
196.0031539031573, 192.0, 258.0, 31.103999999999996, 3039.3615089962786, -133.27380035118233, True, False, -3.954819508531048, 0.06448826614504491, 2.6557048398849643, 6.301541727853567, 0.7441860465116279, 1.0208497599122777, 0.7597021469114624
149.3812246783848, 152.0, 171.0, 31.103999999999996, 3039.3615089962786, 8.972626614896393, True, False, -4.3466975464964115, 0.049148883486293996, 2.2638268019196013, 4.802637110287578, 0.8888888888888888, 0.9827712149893737, 0.8735744133238877
138.94865537088253, 127.0, 171.0, 31.103999999999996, 3039.3615089962786, 162.6459753637387, True, False, -4.45114450417746, 0.04571639634166751, 2.1593798442385532, 4.467227860432181, 0.7426900584795322, 1.0940839005581302, 0.8125652360870323
160.19928405337808, 106.0, 172.0, 31.103999999999996, 3039.3615089962786, 13.786317988671954, True, False, -4.245828677372373, 0.05270820321281308, 2.36469567104364, 5.150439945131755, 0.6162790697674418, 1.5113140005035668, 0.9313911863568493
174.80043866833097, 116.0, 171.0, 31.103999999999996, 3039.3615089962786, -136.88067823818665, True, False, -4.119987572244001, 0.057512223587399845, 2.490536776172011, 5.619870070355292, 0.6783625730994152, 1.5069003333476807, 1.0222247875340993
164.71269099136816, 109.0, 171.0, 31.103999999999996, 3039.3615089962786, 100.66618675984483, True, False, -4.205744659649212, 0.05419318843902943, 2.404779688766801, 5.2955469068726915, 0.6374269005847953, 1.511125605425396, 0.9632321110606326
137.21617105255822, 124.0, 172.0, 31.103999999999996, 3039.3615089962786, -56.86773189756609, True, False, -4.469245863111044, 0.045146380463925995, 2.1412784853049684, 4.411528133119799, 0.7209302325581395, 1.106582024617405, 0.7977684363520827
124.31813757862463, 120.0, 171.0, 31.103999999999996, 3039.3615089962786, 175.69553103949204, True, False, -4.611659581711025, 0.040902714998085093, 1.9988647667049886, 3.9968537030164817, 0.7017543859649122, 1.0359844798218718, 0.7270066525065768
195.94892901799093, 116.0, 172.0, 31.103999999999996, 3039.3615089962786, 38.86777750232069, True, False, -3.9552186898434085, 0.06447042526464754, 2.6553056585726043, 6.299798386638084, 0.6744186046511628, 1.689214905327508, 1.139237959406924
143.02357651784484, 127.0, 171.0, 31.103999999999996, 3039.3615089962786, -164.74488129694225, True, False, -4.40944339196768, 0.04705711252001644, 2.2010809564483327, 4.59823741376816, 0.7426900584795322, 1.126169893841298, 0.8363951843148821
162.62304767802868, 106.0, 172.0, 31.103999999999996, 3039.3615089962786, -14.159858765905556, True, False, -4.2241646403783175, 0.05350566136890161, 2.3863597080376953, 5.228364444381067, 0.6162790697674418, 1.5341796950757423, 0.9454828353373761
175.18618695494632, 118.0, 171.0, 31.103999999999996, 3039.3615089962786, 129.18751761688728, True, False, -4.116807351488463, 0.057639141127637676, 2.49371699692755, 5.63227195714205, 0.6900584795321637, 1.4846287030080196, 1.0244806254675223
131.93885163555962, 84.0, 171.0, 31.103999999999996, 3039.3615089962786, 123.44451568858067, True, False, -4.525826924378779, 0.04341005544915623, 2.084697424037233, 4.241861227995101, 0.49122807017543857, 1.570700614709043, 0.7715722317868984
151.02661257497573, 93.0, 171.0, 31.103999999999996, 3039.3615089962786, -92.68796896560357, True, False, -4.330893586663545, 0.04969024320665655, 2.2796307617524674, 4.8555366697201565, 0.543859649122807, 1.6239420706986638, 0.8831965647659399
163.90038109190027, 94.0, 172.0, 31.103999999999996, 3039.3615089962786, 35.09581678702612, True, False, -4.212877168670762, 0.053925925101955666, 2.397647179745251, 5.269430976462844, 0.5465116279069767, 1.7436210754457475, 0.952909192394769
162.792, 137.0, 171.0, 31.103999999999996, 3039.3615089962786, 180.0, True, False, -4.2226665738279525, 0.0535612494657671, 2.3878577745880607, 5.233796296296297, 0.8011695906432749, 1.1882627737226277, 0.952
27.680820216976933, 95.0, 171.0, 31.103999999999996, 3039.3615089962786, 110.85445803957836, True, False, -6.778737780023962, 0.009107445802364679, -0.16821343160794958, 0.8899440656178285, 0.5555555555555556, 0.29137705491554666, 0.16187614161974814
27.869744199108375, 92.0, 172.0, 31.103999999999996, 3039.3615089962786, 112.86450812189966, True, False, -6.768924711665765, 0.009169604904390628, -0.1584003632497516, 0.8960180105166017, 0.5348837209302325, 0.30293200216422145, 0.16203339650644405
142.63340206510986, 102.0, 171.0, 31.103999999999996, 3039.3615089962786, -9.554289672401765, True, False, -4.413384504142801, 0.04692873869821864, 2.1971398442732117, 4.585693224829922, 0.5964912280701754, 1.3983666869128417, 0.8341134623690635
189.74834542515495, 149.0, 172.0, 31.103999999999996, 3039.3615089962786, -151.29879638153733, True, False, -4.0016090719565245, 0.06243033112826964, 2.608915276459488, 6.100448348288162, 0.8662790697674418, 1.2734788283567446, 1.1031880547974124
159.71541021172146, 127.0, 171.0, 31.103999999999996, 3039.3615089962786, 51.21922968879115, True, False, -4.2501928590534215, 0.05254900074866909, 2.360331489362591, 5.1348833015599755, 0.7426900584795322, 1.2576016552104052, 0.9340082468521723
173.9148493814184, 123.0, 172.0, 31.103999999999996, 3039.3615089962786, -84.4101310401722, True, False, -4.127315257969116, 0.05722085012481855, 2.4832090904468966, 5.5913981925610345, 0.7151162790697675, 1.4139418648895805, 1.0111328452408046
197.4918267230843, 116.0, 171.0, 31.103999999999996, 3039.3615089962786, 144.71879220282565, True, False, -3.943903429561417, 0.06497806402381669, 2.6666209188545964, 6.3494028653255, 0.6783625730994152, 1.7025157476127957, 1.1549229632928906
214.81907448911923, 130.0, 171.0, 31.103999999999996, 3039.3615089962786, -12.932608396739514, True, False, -3.8225742769567805, 0.07067901394857806, 2.787950071459232, 6.9064774462808405, 0.7602339181286549, 1.652454419147071, 1.2562518975971886
123.67637266214714, 124.0, 171.0, 31.103999999999996, 3039.3615089962786, 158.54201764662457, True, False, -4.619126465782945, 0.04069156376958598, 1.9913978826330678, 3.976220828901336, 0.7251461988304093, 0.9973901021140898, 0.7232536412991061
219.58092810044897, 103.0, 172.0, 31.103999999999996, 3039.3615089962786, 19.270854868537135, True, False, -3.790943624379326, 0.07224574222266951, 2.8195807240366872, 7.0595720196903615, 0.5988372093023255, 2.1318536708781455, 1.276633302909587
156.15179483412234, 131.0, 172.0, 31.103999999999996, 3039.3615089962786, -147.91117639530285, True, False, -4.28274722555979, 0.051376512590530915, 2.3277771228562223, 5.020312333915971, 0.7616279069767442, 1.191998433848262, 0.907859272291409
182.23626767670376, 128.0, 171.0, 31.103999999999996, 3039.3615089962786, -18.360827545366394, True, False, -4.059886272504075, 0.05995873381211754, 2.550638075911938, 5.858933502980446, 0.7485380116959064, 1.4237208412242481, 1.0657091677000219
205.3476016980396, 123.0, 172.0, 31.103999999999996, 3039.3615089962786, 120.30268072048811, True, False, -3.887628279737455, 0.06756274338877634, 2.7228960686785575, 6.601967647184916, 0.7151162790697675, 1.6694926967320292, 1.1938814052211604
207.22288167468852, 115.0, 171.0, 31.103999999999996, 3039.3615089962786, -120.56258321877762, True, False, -3.874513062514324, 0.0681797413901981, 2.7360112859016885, 6.662258284294256, 0.672514619883041, 1.8019381015190306, 1.2118297173958392
219.5525366264055, 113.0, 171.0, 31.103999999999996, 3039.3615089962786, 18.62786317645504, True, False, -3.7911301746750934, 0.07223640096005253, 2.81939417374092, 7.058659227957997, 0.6608187134502924, 1.9429428020035884, 1.2839329627275176
208.39318255469615, 124.0, 172.0, 31.103999999999996, 3039.3615089962786, 163.90918365114783, True, False, -3.8663882960117966, 0.06856478965659998, 2.7441360524042158, 6.699883698389152, 0.7209302325581395, 1.680590181892711, 1.2115882706668382
137.60190966416056, 87.0, 171.0, 31.103999999999996, 3039.3615089962786, -48.65222278030634, True, False, -4.46519588542363, 0.04527329482092518, 2.145328462992383, 4.423929708852899, 0.5087719298245614, 1.5816311455650638, 0.8046895301997693
148.89387114282053, 81.0, 172.0, 31.103999999999996, 3039.3615089962786, 64.16324577599843, True, False, -4.351412007505385, 0.04898853614553781, 2.259112340910628, 4.786968593840681, 0.47093023255813954, 1.8381959400348213, 0.8656620415280263
151.69384664934523, 93.0, 171.0, 31.103999999999996, 3039.3615089962786, -144.89825994415253, True, False, -4.324533812689058, 0.049909774207623214, 2.2859905357269543, 4.876988382502098, 0.543859649122807, 1.6311166306381208, 0.8870985184172235
162.40277445216202, 106.0, 172.0, 31.103999999999996, 3039.3615089962786, -20.048487755803194, True, False, -4.226120098176519, 0.05343318784931051, 2.3844042502394935, 5.2212826148457445, 0.6162790697674418, 1.5321016457751133, 0.9442021770474536
147.83009178337153, 101.0, 171.0, 31.103999999999996, 3039.3615089962786, -166.2284002829176, True, False, -4.361756408183364, 0.04863853521399337, 2.2487679402326486, 4.752767868549754, 0.5906432748538012, 1.4636642750828863, 0.8645034607214709
163.33135355055003, 113.0, 171.0, 31.103999999999996, 3039.3615089962786, 61.38954033403479, True, False, -4.217894616262663, 0.05373870566798377, 2.39262973215335, 5.251136623924578, 0.6608187134502924, 1.4454102084119471, 0.955154114330702
191.88843838511394, 124.0, 172.0, 31.103999999999996, 3039.3615089962786, -159.49673761165067, True, False, -3.985428588339061, 0.06313445696312821, 2.6250957600769516, 6.169252777299189, 0.7209302325581395, 1.547487406331564, 1.1156304557274066
207.50666404331818, 137.0, 171.0, 31.103999999999996, 3039.3615089962786, -27.610131902970025, True, False, -3.872538708461001, 0.06827311046386363, 2.737985639955012, 6.671381945837134, 0.8011695906432749, 1.5146471827979429, 1.2134892634112175
218.60866617207748, 131.0, 172.0, 31.103999999999996, 3039.3615089962786, 108.04782106877106, True, False, -3.7973457835483617, 0.07192585203339993, 2.813178564867651, 7.028313598639323, 0.7616279069767442, 1.6687684440616601, 1.2709806172795202
199.96942084321446, 127.0, 171.0, 31.103999999999996, 3039.3615089962786, -118.22674937534572, True, False, -3.925916976438974, 0.06579323329959934, 2.6846073719770387, 6.429058026080713, 0.7426900584795322, 1.5745623688442083, 1.1694118177965758
218.23807324760318, 123.0, 172.0, 31.103999999999996, 3039.3615089962786, 25.559965171823812, True, False, -3.7997935651355443, 0.07180392085694154, 2.810730783280468, 7.016398959863786, 0.7151162790697675, 1.7742932784357983, 1.268826007253507
233.01056310198382, 151.0, 171.0, 31.103999999999996, 3039.3615089962786, 164.88105639291473, True, False, -3.705301019317359, 0.07666431334748772, 2.905223329098654, 7.49133754828909, 0.8830409356725146, 1.5431163119336677, 1.3626348719414259
195.32258070838887, 109.0, 171.0, 31.103999999999996, 3039.3615089962786, -38.694554022731374, True, False, -3.9598376326978775, 0.06426434635374861, 2.650686715718135, 6.279661159606125, 0.6374269005847953, 1.7919502817283381, 1.1422373140841455
242.06983356662707, 109.0, 172.0, 31.103999999999996, 3039.3615089962786, 124.42124106201962, True, False, -3.6502730738593643, 0.0796449625522067, 2.960251274556649, 7.7825949577747915, 0.6337209302325582, 2.2208241611617163, 1.4073827532943435
245.8179729308553, 121.0, 171.0, 31.103999999999996, 3039.3615089962786, -37.61395684873273, True, False, -3.6281059756649747, 0.08087816214137503, 2.9824183727510385, 7.9030984095568195, 0.7076023391812866, 2.0315534952963246, 1.4375320054435983
193.792, 131.0, 172.0, 31.103999999999996, 3039.3615089962786, 180.0, True, False, -3.971187362036062, 0.06376076008937746, 2.639336986379951, 6.23045267489712, 0.7616279069767442, 1.4793282442748092, 1.1266976744186046
235.73326938039318, 109.0, 171.0, 31.103999999999996, 3039.3615089962786, 28.027238550777582, True, False, -3.6885409949707504, 0.07756012856076536, 2.921983353445263, 7.57887311536758, 0.6374269005847953, 2.1626905447742493, 1.3785571308794924
214.1576997530627, 106.0, 172.0, 31.103999999999996, 3039.3615089962786, -81.04892935832024, True, False, -3.8270228292569675, 0.0704614107664298, 2.7835015191590453, 6.885214112431286, 0.6162790697674418, 2.0203556580477615, 1.2451029055410623
