34.124756630338375, 102.0, 135.0, 31.103999999999996, 3039.3615089962786, -41.6335393365702, True, False, -6.47680571536164, 0.01122760702513725, 0.13371863305437298, 1.097117947220241, 0.7555555555555555, 0.334556437552337, 0.2527759750395435
141.7527805437114, 117.0, 135.0, 31.103999999999996, 3039.3615089962786, -101.30993247402021, True, False, -4.422319343036316, 0.04663899971231917, 2.188205005379697, 4.557381061719117, 0.8666666666666667, 1.2115622268693282, 1.0500205966200844
88.73569811290565, 91.0, 135.0, 31.103999999999996, 3039.3615089962786, 57.9946167919165, True, False, -5.098109859156615, 0.029195506309550458, 1.512414489259397, 2.8528709527040146, 0.674074074074074, 0.9751175616802819, 0.6573014675030048
88.09835382444749, 123.0, 135.0, 31.103999999999996, 3039.3615089962786, -25.201123645475075, True, False, -5.1085094107783515, 0.02898580954048509, 1.502014937637661, 2.832380202689284, 0.9111111111111111, 0.7162467790605487, 0.652580398699611
209.792, 171.0, 270.0, 31.103999999999996, 3039.3615089962786, -90.0, True, False, -3.856736712922334, 0.06902502363704734, 2.753787635493678, 6.74485596707819, 0.6333333333333333, 1.2268538011695906, 0.7770074074074074
91.67507249337075, 107.0, 135.0, 31.103999999999996, 3039.3615089962786, -27.89727103094763, True, False, -5.051094970703277, 0.030162608897302778, 1.5594293777127357, 2.9473724438455107, 0.7925925925925926, 0.8567763784427173, 0.6790746110620055
132.44040096954302, 100.0, 135.0, 31.103999999999996, 3039.3615089962786, 170.5376777919744, True, False, -4.520353093903729, 0.04357507344142167, 2.0901712545122835, 4.257986142282119, 0.7407407407407407, 1.3244040096954302, 0.9810400071818002
134.5659820199815, 113.0, 135.0, 31.103999999999996, 3039.3615089962786, 63.43494882292201, True, False, -4.497382631633047, 0.04427442461901174, 2.1131417167829665, 4.326324010416073, 0.837037037037037, 1.190849398406916, 0.996785051999863
34.124756630338375, 71.0, 135.0, 31.103999999999996, 3039.3615089962786, 48.36646066342981, True, False, -6.47680571536164, 0.01122760702513725, 0.13371863305437298, 1.097117947220241, 0.5259259259259259, 0.48063037507518835, 0.2527759750395435
35.11620048477152, 86.0, 135.0, 31.103999999999996, 3039.3615089962786, 170.5376777919744, True, False, -6.435487716389339, 0.011553808384040609, 0.17503663202667433, 1.1289930711410598, 0.6370370370370371, 0.4083279126136223, 0.26012000359090015
257.79200000000003, 150.0, 270.0, 31.103999999999996, 3039.3615089962786, 0.0, True, False, -3.5594888840150087, 0.08481781428005696, 3.051035464401004, 8.288065843621402, 0.5555555555555556, 1.7186133333333335, 0.9547851851851853
34.124756630338375, 92.0, 135.0, 31.103999999999996, 3039.3615089962786, 175.23635830927384, True, False, -6.47680571536164, 0.01122760702513725, 0.13371863305437298, 1.097117947220241, 0.6814814814814815, 0.3709212677210693, 0.2527759750395435
34.124756630338375, 93.0, 135.0, 31.103999999999996, 3039.3615089962786, -175.23635830927384, True, False, -6.47680571536164, 0.01122760702513725, 0.13371863305437298, 1.097117947220241, 0.6888888888888889, 0.36693286699288574, 0.2527759750395435
34.124756630338375, 80.0, 135.0, 31.103999999999996, 3039.3615089962786, -94.76364169072619, True, False, -6.47680571536164, 0.01122760702513725, 0.13371863305437298, 1.097117947220241, 0.5925925925925926, 0.42655945787922966, 0.2527759750395435
104.2612163734785, 96.0, 135.0, 31.103999999999996, 3039.3615089962786, 54.78240703180728, True, False, -4.8654937811002, 0.034303657549413995, 1.7450305673158126, 3.352019559332514, 0.7111111111111111, 1.0860543372237343, 0.7723053064702111
108.81246661145559, 105.0, 135.0, 31.103999999999996, 3039.3615089962786, 10.784297867562598, True, False, -4.803852522392073, 0.03580109384467066, 1.8066718260239398, 3.49834319095472, 0.7777777777777778, 1.0363092058233865, 0.8060182711959674
31.08723031752482, 83.0, 135.0, 31.103999999999996, 3039.3615089962786, 149.03624346792648, True, False, -6.611302385390263, 0.010228210834910222, -0.0007780369742505493, 0.9994608512578712, 0.6148148148148148, 0.3745449435846364, 0.23027578012981348
96.58746593023366, 107.0, 135.0, 31.103999999999996, 3039.3615089962786, -139.08561677997488, True, False, -4.975788488520409, 0.03177886725364591, 1.6347358598956034, 3.1053069036211958, 0.7925925925925926, 0.9026865974788193, 0.7154627105943234
119.60509083781619, 127.0, 135.0, 31.103999999999996, 3039.3615089962786, 50.355825042855194, True, False, -4.667417580271673, 0.03935204498832871, 1.94310676814434, 3.8453282805367865, 0.9407407407407408, 0.9417723688017023, 0.8859636358356755
79.32644810363306, 95.0, 135.0, 31.103999999999996, 3039.3615089962786, -137.29061004263855, True, False, -5.259822519703385, 0.026099708069880073, 1.3507018287126273, 2.5503616288462276, 0.7037037037037037, 0.8350152431961374, 0.5876033192861708
79.32644810363306, 98.0, 135.0, 31.103999999999996, 3039.3615089962786, -137.29061004263855, True, False, -5.259822519703385, 0.026099708069880073, 1.3507018287126273, 2.5503616288462276, 0.725925925925926, 0.8094535520778883, 0.5876033192861708
80.22795051811886, 95.0, 135.0, 31.103999999999996, 3039.3615089962786, 141.84277341263095, True, False, -5.243519529447547, 0.026396317213549698, 1.367004818968465, 2.5793451169662704, 0.7037037037037037, 0.844504742295988, 0.5942811149490286
80.22795051811886, 111.0, 135.0, 31.103999999999996, 3039.3615089962786, -141.84277341263095, True, False, -5.243519529447547, 0.026396317213549698, 1.367004818968465, 2.5793451169662704, 0.8222222222222222, 0.7227743289920618, 0.5942811149490286
29.006034007931042, 92.0, 135.0, 31.103999999999996, 3039.3615089962786, 142.12501634890182, True, False, -6.711271422997694, 0.009543462968151499, -0.10074707458168135, 0.9325499616747378, 0.6814814814814815, 0.3152829783470765, 0.21485951116985957
148.2391430074545, 119.0, 135.0, 31.103999999999996, 3039.3615089962786, -8.74616226255521, True, False, -4.357769931517779, 0.04877311980449772, 2.252754416898234, 4.765918949570939, 0.8814814814814815, 1.2457070840962563, 1.0980677259811444
141.43875298172568, 106.0, 135.0, 31.103999999999996, 3039.3615089962786, -135.0, True, False, -4.425518917447547, 0.046535679471848855, 2.185005430968466, 4.547285010986552, 0.7851851851851852, 1.3343278583181668, 1.0476944665313013
105.98236833302911, 103.0, 135.0, 31.103999999999996, 3039.3615089962786, 177.27368900609372, True, False, -4.8418721055728895, 0.03486994489445542, 1.7686522428431233, 3.40735494897856, 0.762962962962963, 1.028955032359506, 0.7850545802446601
109.5592844286711, 102.0, 135.0, 31.103999999999996, 3039.3615089962786, 62.24145939893998, True, False, -4.793984629161609, 0.03604680920791553, 1.816539719254403, 3.5223535374444164, 0.7555555555555555, 1.0741106316536382, 0.8115502550271934
33.79200000000001, 82.0, 135.0, 31.103999999999996, 3039.3615089962786, -90.0, True, False, -6.490942732663339, 0.011118124612678769, 0.11958161575267305, 1.0864197530864201, 0.6074074074074074, 0.41209756097560984, 0.25031111111111115
34.046870006665124, 135.0, 135.0, 31.103999999999996, 3039.3615089962786, -119.22805194314516, True, False, -6.480102297830324, 0.011201981043021366, 0.13042205058568765, 1.094613876243092, 1.0, 0.25219903708640834, 0.25219903708640834
145.3540389184882, 113.0, 135.0, 31.103999999999996, 3039.3615089962786, -16.514163910233044, True, False, -4.386125217726126, 0.047823873036574066, 2.224399130689887, 4.673162259467857, 0.837037037037037, 1.2863189284821963, 1.076696584581394
88.73569811290565, 107.0, 135.0, 31.103999999999996, 3039.3615089962786, -122.00538320808353, True, False, -5.098109859156615, 0.029195506309550458, 1.512414489259397, 2.8528709527040146, 0.7925925925925926, 0.8293055898402397, 0.6573014675030048
99.7796538505327, 107.0, 135.0, 31.103999999999996, 3039.3615089962786, 32.9052429229879, True, False, -4.928878808026648, 0.032829149660279805, 1.6816455403893644, 3.2079364020876, 0.7925925925925926, 0.9325201294442308, 0.7391085470409829
219.61463926093657, 106.0, 135.0, 31.103999999999996, 3039.3615089962786, 6.519801751656986, True, False, -3.7907221516333878, 0.07225683374975105, 2.819802196782625, 7.060655840436491, 0.7851851851851852, 2.071836219442798, 1.6267751056365671
10.235081105099347, 52.0, 90.0, 31.103999999999996, 3039.3615089962786, -173.6598082540901, True, False, -8.214101937823672, 0.0033675102730636964, -1.6035775894076594, 0.32905996351271055, 0.5777777777777777, 0.19682848279037207, 0.11372312338999274
13.263849056452834, 75.0, 90.0, 31.103999999999996, 3039.3615089962786, -122.00538320808353, True, False, -7.840124978404966, 0.004364024818105003, -1.2296006299889535, 0.42643547635200735, 0.8333333333333334, 0.17685132075270446, 0.1473761006272537
9.792000000000009, 66.0, 90.0, 31.103999999999996, 3039.3615089962786, -90.0, True, False, -8.27794900932914, 0.0032217292911739634, -1.6674246609131276, 0.31481481481481516, 0.7333333333333333, 0.1483636363636365, 0.10880000000000009
122.48634208984313, 94.0, 135.0, 31.103999999999996, 3039.3615089962786, 175.03025927188972, True, False, -4.633075487930812, 0.040300024109436436, 1.9774488604852, 3.937961101139505, 0.6962962962962963, 1.3030461924451398, 0.9073062377025417
109.5592844286711, 109.0, 135.0, 31.103999999999996, 3039.3615089962786, -152.24145939893998, True, False, -4.793984629161609, 0.03604680920791553, 1.816539719254403, 3.5223535374444164, 0.8074074074074075, 1.005131049804322, 0.8115502550271934
117.56964043395385, 96.0, 135.0, 31.103999999999996, 3039.3615089962786, -69.14554196042165, True, False, -4.6921808110331025, 0.03868234827806981, 1.9183435373829103, 3.7798881312356567, 0.7111111111111111, 1.2246837545203526, 0.8708862254366951
32.19538976964758, 91.0, 135.0, 31.103999999999996, 3039.3615089962786, 36.384351815835885, True, False, -6.560770356575043, 0.010592813547961202, 0.04975399184097005, 1.035088405659966, 0.674074074074074, 0.3537954919741493, 0.23848436866405617
123.86725359380813, 106.0, 135.0, 31.103999999999996, 3039.3615089962786, 115.46334506187162, True, False, -4.6169015405667055, 0.04075436674024149, 1.993622807849307, 3.982357690130149, 0.7851851851851852, 1.1685589961680012, 0.9175352118059862
31.429599285757014, 103.0, 135.0, 31.103999999999996, 3039.3615089962786, -160.01689347810003, True, False, -6.595500593976675, 0.010340855864867602, 0.01502375443933765, 1.010468084032826, 0.762962962962963, 0.3051417406384176, 0.23281184656116308
211.3774528296415, 123.0, 135.0, 31.103999999999996, 3039.3615089962786, -104.3917978192129, True, False, -3.8458748817805763, 0.06954666373314933, 2.7646494666354364, 6.7958286017760265, 0.9111111111111111, 1.718515876663752, 1.5657589098491962
34.45636778875659, 65.0, 135.0, 31.103999999999996, 3039.3615089962786, -155.55604521958347, True, False, -6.462853844308627, 0.0113367125584661, 0.14767050410738486, 1.1077793141961354, 0.48148148148148145, 0.5300979659808706, 0.25523235399078953
33.31163149007643, 87.0, 135.0, 31.103999999999996, 3039.3615089962786, -160.42687416958984, True, False, -6.511598458447999, 0.01096007546041382, 0.09892588996801444, 1.07097580665112, 0.6444444444444445, 0.38289231597789, 0.246752825852418
34.124756630338375, 67.0, 135.0, 31.103999999999996, 3039.3615089962786, 131.6335393365702, True, False, -6.47680571536164, 0.01122760702513725, 0.13371863305437298, 1.097117947220241, 0.4962962962962963, 0.5093247258259459, 0.2527759750395435
78.52223839957068, 97.0, 135.0, 31.103999999999996, 3039.3615089962786, -17.79120310874663, True, False, -5.274523172797002, 0.025835109830518954, 1.3360011756190109, 2.524506121385375, 0.7185185185185186, 0.8095076123667081, 0.5816462103671902
9.346175279993282, 97.0, 135.0, 31.103999999999996, 3039.3615089962786, 26.56505117707799, True, False, -8.34517647331922, 0.0030750456147876173, -1.7346521249032087, 0.3004814583331174, 0.7185185185185186, 0.09635232247415755, 0.06923092799995025
11.548355658343105, 77.0, 135.0, 31.103999999999996, 3039.3615089962786, 49.39870535499554, True, False, -8.039937027968474, 0.0037995992329839185, -1.4294126795524613, 0.37128201062059885, 0.5703703703703704, 0.14997864491354682, 0.08554337524698596
13.686663844041114, 127.0, 135.0, 31.103999999999996, 3039.3615089962786, 71.56505117707799, True, False, -7.794853643276575, 0.004503137847712301, -1.1843292948605615, 0.440029058771898, 0.9407407407407408, 0.10776900664599302, 0.10138269514104528
92.29766332662373, 108.0, 135.0, 31.103999999999996, 3039.3615089962786, 111.25050550713324, True, False, -5.0413303484340615, 0.03036745153659072, 1.5691939999819509, 2.9673888672397037, 0.8, 0.8546079937650346, 0.6836863950120277
34.124756630338375, 90.0, 135.0, 31.103999999999996, 3039.3615089962786, -138.36646066342982, True, False, -6.47680571536164, 0.01122760702513725, 0.13371863305437298, 1.097117947220241, 0.6666666666666666, 0.3791639625593153, 0.2527759750395435
29.006034007931042, 88.0, 135.0, 31.103999999999996, 3039.3615089962786, -164.74488129694225, True, False, -6.711271422997694, 0.009543462968151499, -0.10074707458168135, 0.9325499616747378, 0.6518518518518519, 0.3296140228173982, 0.21485951116985957
35.11620048477152, 137.0, 135.0, 31.103999999999996, 3039.3615089962786, 170.5376777919744, True, False, -6.435487716389339, 0.011553808384040609, 0.17503663202667433, 1.1289930711410598, 1.0148148148148148, 0.25632263127570454, 0.26012000359090015
70.93853581674591, 103.0, 135.0, 31.103999999999996, 3039.3615089962786, 147.2647737278924, True, False, -5.4210549193590865, 0.023339946764073062, 1.1894694290569268, 2.280688522914928, 0.762962962962963, 0.688723648706271, 0.5254706356795994
56.72054997854806, 99.0, 135.0, 31.103999999999996, 3039.3615089962786, -132.27368900609375, True, False, -5.743752951046588, 0.018661995228491098, 0.8667713973694247, 1.8235773527053776, 0.7333333333333333, 0.5729348482681622, 0.4201522220633189
51.49336322841517, 97.0, 135.0, 31.103999999999996, 3039.3615089962786, -39.28940686250036, True, False, -5.883237971331003, 0.01694216468689188, 0.7272863770850101, 1.655522223135776, 0.7185185185185186, 0.5308594147259296, 0.38143232021048273
51.49336322841517, 111.0, 135.0, 31.103999999999996, 3039.3615089962786, -129.28940686250039, True, False, -5.883237971331003, 0.01694216468689188, 0.7272863770850101, 1.655522223135776, 0.8222222222222222, 0.4639041732289655, 0.38143232021048273
51.49336322841517, 92.0, 135.0, 31.103999999999996, 3039.3615089962786, 140.71059313749964, True, False, -5.883237971331003, 0.01694216468689188, 0.7272863770850101, 1.655522223135776, 0.6814814814814815, 0.5597104698740779, 0.38143232021048273
54.2737582284883, 110.0, 135.0, 31.103999999999996, 3039.3615089962786, 15.945395900922856, True, False, -5.807369659795834, 0.017856960439829914, 0.8031546886201782, 1.7449124944858638, 0.8148148148148148, 0.4933978020771663, 0.40202783872954295
49.21910621747296, 137.0, 135.0, 31.103999999999996, 3039.3615089962786, 68.96248897457819, True, False, -5.948406012712173, 0.016193896669345897, 0.6621183357038394, 1.5824043922798665, 1.0148148148148148, 0.35926354903264934, 0.3645859719812812
54.2737582284883, 124.0, 135.0, 31.103999999999996, 3039.3615089962786, 105.94539590092285, True, False, -5.807369659795834, 0.017856960439829914, 0.8031546886201782, 1.7449124944858638, 0.9185185185185185, 0.4376915986168411, 0.40202783872954295
50.92908498984762, 139.0, 135.0, 31.103999999999996, 3039.3615089962786, 171.86989764584402, True, False, -5.899134674979047, 0.01675650785176472, 0.7113896734369661, 1.6373805616591957, 1.0296296296296297, 0.36639629489099007, 0.37725248140627865
54.2737582284883, 89.0, 135.0, 31.103999999999996, 3039.3615089962786, -164.05460409907712, True, False, -5.807369659795834, 0.017856960439829914, 0.8031546886201782, 1.7449124944858638, 0.6592592592592592, 0.6098175081852618, 0.40202783872954295
54.2737582284883, 103.0, 135.0, 31.103999999999996, 3039.3615089962786, -164.05460409907712, True, False, -5.807369659795834, 0.017856960439829914, 0.8031546886201782, 1.7449124944858638, 0.762962962962963, 0.5269296915387214, 0.40202783872954295
54.2737582284883, 97.0, 135.0, 31.103999999999996, 3039.3615089962786, -164.05460409907712, True, False, -5.807369659795834, 0.017856960439829914, 0.8031546886201782, 1.7449124944858638, 0.7185185185185186, 0.5595232807060649, 0.40202783872954295
108.81246661145559, 113.0, 135.0, 31.103999999999996, 3039.3615089962786, 10.784297867562598, True, False, -4.803852522392073, 0.03580109384467066, 1.8066718260239398, 3.49834319095472, 0.837037037037037, 0.9629421824022618, 0.8060182711959674
112.51463734273244, 109.0, 135.0, 31.103999999999996, 3039.3615089962786, 164.05460409907712, True, False, -4.755583679714996, 0.037019168996415094, 1.8549406687010164, 3.6173687417287956, 0.8074074074074075, 1.0322443792911233, 0.8334417580943144
17.79200000000001, 51.0, 90.0, 31.103999999999996, 3039.3615089962786, -36.86989764584402, True, False, -7.416395779298286, 0.005853861065008899, -0.8058714308822724, 0.5720164609053502, 0.5666666666666667, 0.3488627450980394, 0.197688888888889
16.58286241436884, 43.0, 90.0, 31.103999999999996, 3039.3615089962786, 23.962488974578182, True, False, -7.517931416508147, 0.0054560348827491665, -0.9074070680921346, 0.5331424387335661, 0.4777777777777778, 0.3856479631248568, 0.18425402682632044
11.548355658343105, 52.0, 90.0, 31.103999999999996, 3039.3615089962786, -40.60129464500447, True, False, -8.039937027968474, 0.0037995992329839185, -1.4294126795524613, 0.37128201062059885, 0.5777777777777777, 0.22208376266044433, 0.12831506287047895
56.72054997854806, 100.0, 135.0, 31.103999999999996, 3039.3615089962786, -19.653824058053306, True, False, -5.743752951046588, 0.018661995228491098, 0.8667713973694247, 1.8235773527053776, 0.7407407407407407, 0.5672054997854805, 0.4201522220633189
50.0773507809456, 98.0, 135.0, 31.103999999999996, 3039.3615089962786, -85.91438322002512, True, False, -5.92346623041522, 0.016476273267500577, 0.6870581180007939, 1.6099971315890436, 0.725925925925926, 0.5109933753157714, 0.37094333911811556
49.21910621747296, 114.0, 135.0, 31.103999999999996, 3039.3615089962786, -21.037511025421818, True, False, -5.948406012712173, 0.016193896669345897, 0.6621183357038394, 1.5824043922798665, 0.8444444444444444, 0.4317465457673067, 0.3645859719812812
135.7010700296477, 127.0, 135.0, 31.103999999999996, 3039.3615089962786, 14.036243467926477, True, False, -4.4852642808489955, 0.04464788727105442, 2.1252600675670172, 4.362817323484045, 0.9407407407407408, 1.068512362438171, 1.0051931113307238
88.73569811290565, 95.0, 135.0, 31.103999999999996, 3039.3615089962786, 122.00538320808353, True, False, -5.098109859156615, 0.029195506309550458, 1.512414489259397, 2.8528709527040146, 0.7037037037037037, 0.934059980135849, 0.6573014675030048
107.49762748477141, 109.0, 135.0, 31.103999999999996, 3039.3615089962786, 8.130102354155978, True, False, -4.8213915582700215, 0.03536849011431731, 1.789132790145991, 3.4560708424887934, 0.8074074074074075, 0.986216765915334, 0.7962787221094179
50.92908498984762, 103.0, 135.0, 31.103999999999996, 3039.3615089962786, 45.0, True, False, -5.899134674979047, 0.01675650785176472, 0.7113896734369661, 1.6373805616591957, 0.762962962962963, 0.49445713582376327, 0.37725248140627865
128.87836790728952, 106.0, 135.0, 31.103999999999996, 3039.3615089962786, 163.2720360794327, True, False, -4.559686248345373, 0.042403105891095666, 2.0508381000706395, 4.143466046402056, 0.7851851851851852, 1.2158336595027313, 0.9546545770910334
42.099238483242395, 78.0, 135.0, 31.103999999999996, 3039.3615089962786, 57.528807709151515, True, False, -6.173830335294356, 0.013851342908249596, 0.43669401312165607, 1.3534991796309928, 0.5777777777777777, 0.5397338267082359, 0.31184621098698073
42.099238483242395, 93.0, 135.0, 31.103999999999996, 3039.3615089962786, -4.398705354995532, True, False, -6.173830335294356, 0.013851342908249596, 0.43669401312165607, 1.3534991796309928, 0.6888888888888889, 0.45267998369077844, 0.31184621098698073
45.12326291998992, 108.0, 135.0, 31.103999999999996, 3039.3615089962786, -63.43494882292201, True, False, -6.0737530778676145, 0.014846296758851652, 0.5367712705483986, 1.450722187499676, 0.8, 0.41780798999990665, 0.33424639199992534
99.58198732925348, 106.0, 135.0, 31.103999999999996, 3039.3615089962786, -81.46923439005188, True, False, -4.93173966532858, 0.0327641141188695, 1.6787846830874316, 3.2015813827563493, 0.7851851851851852, 0.9394527106533347, 0.7376443505870628
41.79200000000001, 81.0, 135.0, 31.103999999999996, 3039.3615089962786, 180.0, True, False, -6.184397670475362, 0.013750256386513704, 0.4261266779406504, 1.3436213991769552, 0.6, 0.5159506172839508, 0.30957037037037044
38.98488512538815, 78.0, 135.0, 31.103999999999996, 3039.3615089962786, 108.43494882292202, True, False, -6.2847095890447555, 0.012826669354729887, 0.32581475937125737, 1.2533720783625308, 0.5777777777777777, 0.49980621955625837, 0.28877692685472706
45.42099237658969, 92.0, 135.0, 31.103999999999996, 3039.3615089962786, 48.012787504183336, True, False, -6.064265245486451, 0.01494425465419201, 0.5462591029295608, 1.4602942507905636, 0.6814814814814815, 0.4937064388759749, 0.3364517953821458
38.98488512538815, 82.0, 135.0, 31.103999999999996, 3039.3615089962786, -108.43494882292202, True, False, -6.2847095890447555, 0.012826669354729887, 0.32581475937125737, 1.2533720783625308, 0.6074074074074074, 0.47542542835839213, 0.28877692685472706
41.79200000000001, 98.0, 135.0, 31.103999999999996, 3039.3615089962786, -157.38013505195957, True, False, -6.184397670475362, 0.013750256386513704, 0.4261266779406504, 1.3436213991769552, 0.725925925925926, 0.4264489795918368, 0.30957037037037044
43.01557150372725, 98.0, 135.0, 31.103999999999996, 3039.3615089962786, 171.2538377374448, True, False, -6.1427654669692835, 0.014152831565578637, 0.4677588814467294, 1.3829594747854699, 0.725925925925926, 0.4389344030992577, 0.3186338629905722
121.792, 127.0, 135.0, 31.103999999999996, 3039.3615089962786, 180.0, True, False, -4.641277005747772, 0.040071574124863056, 1.9692473426682413, 3.915637860082305, 0.9407407407407408, 0.958992125984252, 0.9021629629629629
43.01557150372725, 111.0, 135.0, 31.103999999999996, 3039.3615089962786, 98.74616226255522, True, False, -6.1427654669692835, 0.014152831565578637, 0.4677588814467294, 1.3829594747854699, 0.8222222222222222, 0.38752767120475, 0.3186338629905722
107.8743330037544, 126.0, 135.0, 31.103999999999996, 3039.3615089962786, -48.81407483429035, True, False, -4.8163447384602485, 0.03549243243505407, 1.7941796099557645, 3.46818200243552, 0.9333333333333333, 0.8561455000297968, 0.7990691333611437
43.01557150372725, 88.0, 135.0, 31.103999999999996, 3039.3615089962786, 81.2538377374448, True, False, -6.1427654669692835, 0.014152831565578637, 0.4677588814467294, 1.3829594747854699, 0.6518518518518519, 0.4888133125423551, 0.3186338629905722
84.65247800548656, 103.0, 135.0, 31.103999999999996, 3039.3615089962786, -60.64224645720873, True, False, -5.166072172173031, 0.02785205963651302, 1.4444521762429818, 2.721594586081744, 0.762962962962963, 0.8218687184998695, 0.6270553926332337
39.61537649086285, 72.0, 135.0, 31.103999999999996, 3039.3615089962786, 135.0, True, False, -6.261563959305383, 0.013034111399254202, 0.34896038911063, 1.273642505493276, 0.5333333333333333, 0.5502135623730952, 0.29344723326565075
42.099238483242395, 106.0, 135.0, 31.103999999999996, 3039.3615089962786, 85.60129464500447, True, False, -6.173830335294356, 0.013851342908249596, 0.43669401312165607, 1.3534991796309928, 0.7851851851851852, 0.39716262720039996, 0.31184621098698073
41.79200000000001, 102.0, 135.0, 31.103999999999996, 3039.3615089962786, 22.619864948040426, True, False, -6.184397670475362, 0.013750256386513704, 0.4261266779406504, 1.3436213991769552, 0.7555555555555555, 0.4097254901960785, 0.30957037037037044
135.7010700296477, 135.0, 135.0, 31.103999999999996, 3039.3615089962786, 14.036243467926477, True, False, -4.4852642808489955, 0.04464788727105442, 2.1252600675670172, 4.362817323484045, 1.0, 1.0051931113307238, 1.0051931113307238
42.099238483242395, 78.0, 135.0, 31.103999999999996, 3039.3615089962786, -147.52880770915152, True, False, -6.173830335294356, 0.013851342908249596, 0.43669401312165607, 1.3534991796309928, 0.5777777777777777, 0.5397338267082359, 0.31184621098698073
42.099238483242395, 75.0, 135.0, 31.103999999999996, 3039.3615089962786, 175.6012946450045, True, False, -6.173830335294356, 0.013851342908249596, 0.43669401312165607, 1.3534991796309928, 0.5555555555555556, 0.5613231797765653, 0.31184621098698073
139.7028714259834, 122.0, 135.0, 31.103999999999996, 3039.3615089962786, 123.6900675259798, True, False, -4.443334703656122, 0.04596454584703845, 2.1671896447598904, 4.491476061792162, 0.9037037037037037, 1.1451055034916673, 1.034836084636914
38.98488512538815, 89.0, 135.0, 31.103999999999996, 3039.3615089962786, -18.43494882292201, True, False, -6.2847095890447555, 0.012826669354729887, 0.32581475937125737, 1.2533720783625308, 0.6592592592592592, 0.4380324171391927, 0.28877692685472706
41.79200000000001, 81.0, 135.0, 31.103999999999996, 3039.3615089962786, -22.619864948040426, True, False, -6.184397670475362, 0.013750256386513704, 0.4261266779406504, 1.3436213991769552, 0.6, 0.5159506172839508, 0.30957037037037044
139.22685299222675, 128.0, 135.0, 31.103999999999996, 3039.3615089962786, -173.15722658736905, True, False, -4.448258883765596, 0.04580792794148569, 2.1622654646504165, 4.476171971200706, 0.9481481481481482, 1.0877097890017715, 1.0313100221646425
42.099238483242395, 93.0, 135.0, 31.103999999999996, 3039.3615089962786, -147.52880770915152, True, False, -6.173830335294356, 0.013851342908249596, 0.43669401312165607, 1.3534991796309928, 0.6888888888888889, 0.45267998369077844, 0.31184621098698073
38.98488512538815, 93.0, 135.0, 31.103999999999996, 3039.3615089962786, 161.56505117707798, True, False, -6.2847095890447555, 0.012826669354729887, 0.32581475937125737, 1.2533720783625308, 0.6888888888888889, 0.4191923131762167, 0.28877692685472706
42.099238483242395, 91.0, 135.0, 31.103999999999996, 3039.3615089962786, 94.39870535499553, True, False, -6.173830335294356, 0.013851342908249596, 0.43669401312165607, 1.3534991796309928, 0.674074074074074, 0.462628994321345, 0.31184621098698073
42.099238483242395, 87.0, 135.0, 31.103999999999996, 3039.3615089962786, 32.47119229084849, True, False, -6.173830335294356, 0.013851342908249596, 0.43669401312165607, 1.3534991796309928, 0.6444444444444445, 0.4838992929108321, 0.31184621098698073
41.79200000000001, 104.0, 135.0, 31.103999999999996, 3039.3615089962786, -22.619864948040426, True, False, -6.184397670475362, 0.013750256386513704, 0.4261266779406504, 1.3436213991769552, 0.7703703703703704, 0.4018461538461539, 0.30957037037037044
122.48634208984313, 117.0, 135.0, 31.103999999999996, 3039.3615089962786, -85.03025927188969, True, False, -4.633075487930812, 0.040300024109436436, 1.9774488604852, 3.937961101139505, 0.8666666666666667, 1.046891812733702, 0.9073062377025417
366.37688074126, 190.0, 270.0, 31.103999999999996, 3039.3615089962786, 31.35351772739158, True, False, -3.052367908790602, 0.12054402862470039, 3.55815643962541, 11.779092102020963, 0.7037037037037037, 1.9282993723224209, 1.3569514101528148
54.86035610018619, 100.0, 135.0, 31.103999999999996, 3039.3615089962786, -145.08816978339001, True, False, -5.791860485679787, 0.018049960801899908, 0.8186638627362262, 1.7637717367601013, 0.7407407407407407, 0.5486035610018619, 0.4063730081495273
54.2737582284883, 81.0, 135.0, 31.103999999999996, 3039.3615089962786, 105.94539590092285, True, False, -5.807369659795834, 0.017856960439829914, 0.8031546886201782, 1.7449124944858638, 0.6, 0.6700463978825716, 0.40202783872954295
49.21910621747296, 121.0, 135.0, 31.103999999999996, 3039.3615089962786, -111.03751102542182, True, False, -5.948406012712173, 0.016193896669345897, 0.6621183357038394, 1.5824043922798665, 0.8962962962962963, 0.40676947287167736, 0.3645859719812812
50.92908498984762, 119.0, 135.0, 31.103999999999996, 3039.3615089962786, -45.0, True, False, -5.899134674979047, 0.01675650785176472, 0.7113896734369661, 1.6373805616591957, 0.8814814814814815, 0.42797550411636653, 0.37725248140627865
55.91058448186721, 101.0, 135.0, 31.103999999999996, 3039.3615089962786, 28.30075576600638, True, False, -5.764503045682887, 0.01839550323855064, 0.8460213027331259, 1.7975367953275212, 0.7481481481481481, 0.5535701433848239, 0.4141524776434608
50.92908498984762, 99.0, 135.0, 31.103999999999996, 3039.3615089962786, 98.130102354156, True, False, -5.899134674979047, 0.01675650785176472, 0.7113896734369661, 1.6373805616591957, 0.7333333333333333, 0.5144352019176527, 0.37725248140627865
49.21910621747296, 113.0, 135.0, 31.103999999999996, 3039.3615089962786, -21.037511025421818, True, False, -5.948406012712173, 0.016193896669345897, 0.6621183357038394, 1.5824043922798665, 0.837037037037037, 0.43556731165905277, 0.3645859719812812
50.0773507809456, 94.0, 135.0, 31.103999999999996, 3039.3615089962786, 94.08561677997488, True, False, -5.92346623041522, 0.016476273267500577, 0.6870581180007939, 1.6099971315890436, 0.6962962962962963, 0.5327377742653787, 0.37094333911811556
52.334568506210836, 81.0, 135.0, 31.103999999999996, 3039.3615089962786, 155.22485943116808, True, False, -5.859860269060136, 0.01721893507939233, 0.7506640793558765, 1.6825671459044125, 0.6, 0.6461057840272942, 0.38766347041637655
50.92908498984762, 91.0, 135.0, 31.103999999999996, 3039.3615089962786, -135.0, True, False, -5.899134674979047, 0.01675650785176472, 0.7113896734369661, 1.6373805616591957, 0.674074074074074, 0.55966027461371, 0.37725248140627865
145.792, 122.0, 135.0, 31.103999999999996, 3039.3615089962786, 180.0, True, False, -4.3817848203136815, 0.04796796944636786, 2.2287395281023312, 4.6872427983539104, 0.9037037037037037, 1.195016393442623, 1.0799407407407406
50.92908498984762, 134.0, 135.0, 31.103999999999996, 3039.3615089962786, 135.0, True, False, -5.899134674979047, 0.01675650785176472, 0.7113896734369661, 1.6373805616591957, 0.9925925925925926, 0.38006779843169863, 0.37725248140627865
127.44431345807516, 131.0, 135.0, 31.103999999999996, 3039.3615089962786, -27.64597536373868, True, False, -4.575829375577251, 0.04193127835594736, 2.034694972838762, 4.097360900786882, 0.9703703703703703, 0.9728573546417951, 0.9440319515412975
49.79200000000001, 97.0, 135.0, 31.103999999999996, 3039.3615089962786, -90.0, True, False, -5.931710507035602, 0.01638238816034864, 0.6788138413804116, 1.6008230452674903, 0.7185185185185186, 0.5133195876288661, 0.3688296296296297
145.945789300123, 93.0, 135.0, 31.103999999999996, 3039.3615089962786, -2.2025981617658057, True, False, -4.380263789516038, 0.04801856865928406, 2.230260558899974, 4.692187155996754, 0.6888888888888889, 1.569309562366914, 1.081079920741652
48.93155191559844, 88.0, 135.0, 31.103999999999996, 3039.3615089962786, -30.256437163529274, True, False, -5.956859432386201, 0.01609928656751254, 0.653664916029811, 1.5731594623070488, 0.6518518518518519, 0.556040362677255, 0.362455940115544
50.92908498984762, 78.0, 135.0, 31.103999999999996, 3039.3615089962786, -135.0, True, False, -5.899134674979047, 0.01675650785176472, 0.7113896734369661, 1.6373805616591957, 0.5777777777777777, 0.6529369870493285, 0.37725248140627865
88.09835382444749, 81.0, 135.0, 31.103999999999996, 3039.3615089962786, 115.20112364547509, True, False, -5.1085094107783515, 0.02898580954048509, 1.502014937637661, 2.832380202689284, 0.6, 1.087633997832685, 0.652580398699611
51.49336322841517, 91.0, 135.0, 31.103999999999996, 3039.3615089962786, 140.71059313749964, True, False, -5.883237971331003, 0.01694216468689188, 0.7272863770850101, 1.655522223135776, 0.674074074074074, 0.5658611343781886, 0.38143232021048273
75.89341201305655, 112.0, 135.0, 31.103999999999996, 3039.3615089962786, -169.9920201985587, True, False, -5.3236498156669345, 0.024970182648039012, 1.2868745327490785, 2.439988812148166, 0.8296296296296296, 0.6776197501165763, 0.5621734223189374
73.792, 111.0, 135.0, 31.103999999999996, 3039.3615089962786, -118.07248693585296, True, False, -5.364160054370021, 0.02427878348185344, 1.2463642940459911, 2.372427983539095, 0.8222222222222222, 0.6647927927927928, 0.5466074074074074
73.792, 126.0, 135.0, 31.103999999999996, 3039.3615089962786, -61.92751306414704, True, False, -5.364160054370021, 0.02427878348185344, 1.2463642940459911, 2.372427983539095, 0.9333333333333333, 0.5856507936507936, 0.5466074074074074
74.72994214898952, 125.0, 135.0, 31.103999999999996, 3039.3615089962786, -6.709836807756933, True, False, -5.345938067011702, 0.024587381898400235, 1.26458628140431, 2.40258301662132, 0.9259259259259259, 0.5978395371919162, 0.553555127029552
55.91058448186721, 86.0, 135.0, 31.103999999999996, 3039.3615089962786, 61.69924423399363, True, False, -5.764503045682887, 0.01839550323855064, 0.8460213027331259, 1.7975367953275212, 0.6370370370370371, 0.6501230753705489, 0.4141524776434608
64.28310640673519, 85.0, 135.0, 31.103999999999996, 3039.3615089962786, 161.56505117707798, True, False, -5.563184825206287, 0.02115020086174747, 1.0473395232097258, 2.066715097953163, 0.6296296296296297, 0.7562718400792375, 0.4761711585684088
54.48390203266036, 107.0, 135.0, 31.103999999999996, 3039.3615089962786, 107.96913974015702, True, False, -5.801794442367979, 0.017926101212834392, 0.8087299060480345, 1.7516686610294614, 0.7925925925925926, 0.5091953460996296, 0.4035844595011879
49.21910621747296, 88.0, 135.0, 31.103999999999996, 3039.3615089962786, 111.03751102542182, True, False, -5.948406012712173, 0.016193896669345897, 0.6621183357038394, 1.5824043922798665, 0.6518518518518519, 0.5593080251985564, 0.3645859719812812
48.21391811411356, 83.0, 135.0, 31.103999999999996, 3039.3615089962786, -167.97772331381648, True, False, -5.978174797060658, 0.015863173226154253, 0.6323495513553552, 1.550087387928034, 0.6148148148148148, 0.5808905796881152, 0.35714013417861895
50.0773507809456, 98.0, 135.0, 31.103999999999996, 3039.3615089962786, 175.91438322002514, True, False, -5.92346623041522, 0.016476273267500577, 0.6870581180007939, 1.6099971315890436, 0.725925925925926, 0.5109933753157714, 0.37094333911811556
51.49336322841517, 83.0, 135.0, 31.103999999999996, 3039.3615089962786, 140.71059313749964, True, False, -5.883237971331003, 0.01694216468689188, 0.7272863770850101, 1.655522223135776, 0.6148148148148148, 0.6204019666074116, 0.38143232021048273
73.792, 76.0, 135.0, 31.103999999999996, 3039.3615089962786, 118.07248693585296, True, False, -5.364160054370021, 0.02427878348185344, 1.2463642940459911, 2.372427983539095, 0.562962962962963, 0.9709473684210527, 0.5466074074074074
73.792, 92.0, 135.0, 31.103999999999996, 3039.3615089962786, -151.92751306414706, True, False, -5.364160054370021, 0.02427878348185344, 1.2463642940459911, 2.372427983539095, 0.6814814814814815, 0.8020869565217391, 0.5466074074074074
73.792, 89.0, 135.0, 31.103999999999996, 3039.3615089962786, -61.92751306414704, True, False, -5.364160054370021, 0.02427878348185344, 1.2463642940459911, 2.372427983539095, 0.6592592592592592, 0.829123595505618, 0.5466074074074074
50.92908498984762, 89.0, 135.0, 31.103999999999996, 3039.3615089962786, 171.86989764584402, True, False, -5.899134674979047, 0.01675650785176472, 0.7113896734369661, 1.6373805616591957, 0.6592592592592592, 0.5722369099982878, 0.37725248140627865
166.59759433720146, 104.0, 135.0, 31.103999999999996, 3039.3615089962786, 143.53076560994813, True, False, -4.1893288091915295, 0.054813352687426375, 2.4211955392244837, 5.3561469372814265, 0.7703703703703704, 1.601899945550014, 1.2340562543496405
53.16964081484766, 97.0, 135.0, 31.103999999999996, 3039.3615089962786, -146.30993247402023, True, False, -5.837021752081087, 0.017493687624018917, 0.7735025963349256, 1.7094148924526642, 0.7185185185185186, 0.5481406269571923, 0.3938491912210938
49.21910621747296, 70.0, 135.0, 31.103999999999996, 3039.3615089962786, -158.96248897457818, True, False, -5.948406012712173, 0.016193896669345897, 0.6621183357038394, 1.5824043922798665, 0.5185185185185185, 0.7031300888210423, 0.3645859719812812
51.49336322841517, 110.0, 135.0, 31.103999999999996, 3039.3615089962786, 50.71059313749964, True, False, -5.883237971331003, 0.01694216468689188, 0.7272863770850101, 1.655522223135776, 0.8148148148148148, 0.4681214838946834, 0.38143232021048273
50.92908498984762, 106.0, 135.0, 31.103999999999996, 3039.3615089962786, -45.0, True, False, -5.899134674979047, 0.01675650785176472, 0.7113896734369661, 1.6373805616591957, 0.7851851851851852, 0.48046306594195864, 0.37725248140627865
93.33299138169335, 128.0, 135.0, 31.103999999999996, 3039.3615089962786, -12.249123419755794, True, False, -5.025237336844885, 0.030708091520352154, 1.5852870115711277, 3.0006748772406557, 0.9481481481481482, 0.7291639951694793, 0.691355491716247
243.7756596944353, 154.0, 202.0, 31.103999999999996, 3039.3615089962786, -167.7352262721076, True, False, -3.6401422934282177, 0.08020620744616193, 2.970382054987795, 7.837437618776856, 0.7623762376237624, 1.5829588291846448, 1.2068101965071054
34.45636778875659, 81.0, 135.0, 31.103999999999996, 3039.3615089962786, 155.55604521958347, True, False, -6.462853844308627, 0.0113367125584661, 0.14767050410738486, 1.1077793141961354, 0.6, 0.4253872566513159, 0.25523235399078953
74.02709092741122, 105.0, 135.0, 31.103999999999996, 3039.3615089962786, 3.3664606634298013, True, False, -5.3595711369444965, 0.024356132269325866, 1.2509532114715158, 2.3799862052279845, 0.7777777777777778, 0.7050199135943926, 0.5483488216845276
70.21556285797479, 103.0, 135.0, 31.103999999999996, 3039.3615089962786, -115.01689347810004, True, False, -5.435833641805583, 0.023102076752022447, 1.1746907066104302, 2.2574447935305684, 0.762962962962963, 0.6817044937667455, 0.5201152804294429
170.34306965997814, 118.0, 135.0, 31.103999999999996, 3039.3615089962786, 93.94518622903759, True, False, -4.1572531244305475, 0.05604567576307577, 2.4532712239854653, 5.476564739582631, 0.8740740740740741, 1.4435853361015096, 1.261800515999838
68.02256476879765, 95.0, 135.0, 31.103999999999996, 3039.3615089962786, -169.38034472384487, True, False, -5.481611069051295, 0.02238054425821214, 1.1289132793647174, 2.1869394537293485, 0.7037037037037037, 0.7160269975662911, 0.5038708501392418
70.21556285797479, 94.0, 135.0, 31.103999999999996, 3039.3615089962786, 154.9831065219, True, False, -5.435833641805583, 0.023102076752022447, 1.1746907066104302, 2.2574447935305684, 0.6962962962962963, 0.7469740729571785, 0.5201152804294429
74.02709092741122, 125.0, 135.0, 31.103999999999996, 3039.3615089962786, -139.7636416907262, True, False, -5.3595711369444965, 0.024356132269325866, 1.2509532114715158, 2.3799862052279845, 0.9259259259259259, 0.5922167274192898, 0.5483488216845276
184.24077763949248, 117.0, 135.0, 31.103999999999996, 3039.3615089962786, 16.743780392542963, True, False, -4.044103972032685, 0.06061825060762065, 2.5664203763833275, 5.923378910734713, 0.8666666666666667, 1.5747075011922433, 1.3647465010332775
95.26263218263907, 128.0, 135.0, 31.103999999999996, 3039.3615089962786, -112.0041059739167, True, False, -4.99571406040303, 0.03134297512838434, 1.6148102880129827, 3.062713226036493, 0.9481481481481482, 0.7442393139268677, 0.7056491272788079
80.68006808127822, 122.0, 135.0, 31.103999999999996, 3039.3615089962786, 29.794617204166105, True, False, -5.235412171113425, 0.026545071338987272, 1.3751121773025874, 2.593880789650149, 0.9037037037037037, 0.6613120334531002, 0.5976301339353942
33.17543671728337, 73.0, 135.0, 31.103999999999996, 3039.3615089962786, 150.47863816541837, True, False, -6.517509015295503, 0.010915265136801463, 0.0930153331205095, 1.0665971166822072, 0.5407407407407407, 0.45445803722305983, 0.2457439756835805
32.09470409696639, 88.0, 135.0, 31.103999999999996, 3039.3615089962786, 55.80439459753925, True, False, -6.565289212613012, 0.010559686303181938, 0.045235135803001675, 1.0318513405660492, 0.6518518518518519, 0.36471254655643626, 0.23773854886641768
32.981285111298114, 93.0, 135.0, 31.103999999999996, 3039.3615089962786, 170.93349726018383, True, False, -6.5259768581852775, 0.010851386060419604, 0.08454749023073505, 1.060355102600891, 0.6888888888888889, 0.35463747431503345, 0.24430581563924528
90.96184037335809, 79.0, 135.0, 31.103999999999996, 3039.3615089962786, 101.67673783095401, True, False, -5.062363028811032, 0.029927943781652155, 1.5481613196049804, 2.9244418844315234, 0.5851851851851851, 1.1514157009285835, 0.6737914101730229
141.7527805437114, 108.0, 135.0, 31.103999999999996, 3039.3615089962786, -11.309932474020213, True, False, -4.422319343036316, 0.04663899971231917, 2.188205005379697, 4.557381061719117, 0.8, 1.3125257457751056, 1.0500205966200844
123.06207313648906, 116.0, 135.0, 31.103999999999996, 3039.3615089962786, -56.224160413073086, True, False, -4.626310175703463, 0.040489449107068934, 1.9842141727125504, 3.9564709727523497, 0.8592592592592593, 1.0608799408318021, 0.9115709121221413
34.87443919473801, 95.0, 135.0, 31.103999999999996, 3039.3615089962786, 18.621579366487577, True, False, -6.445454454884656, 0.011474264937393043, 0.16506989353135623, 1.1212203959213611, 0.7037037037037037, 0.3670993599446106, 0.25832917922028154
29.006034007931042, 90.0, 135.0, 31.103999999999996, 3039.3615089962786, -52.125016348901795, True, False, -6.711271422997694, 0.009543462968151499, -0.10074707458168135, 0.9325499616747378, 0.6666666666666666, 0.32228926675478936, 0.21485951116985957
34.45636778875659, 101.0, 135.0, 31.103999999999996, 3039.3615089962786, -155.55604521958347, True, False, -6.462853844308627, 0.0113367125584661, 0.14767050410738486, 1.1077793141961354, 0.7481481481481481, 0.34115215632432266, 0.25523235399078953
25.210533504057373, 76.0, 135.0, 31.103999999999996, 3039.3615089962786, -125.69005982501398, True, False, -6.913597823712075, 0.00829468078391995, -0.3030734752960624, 0.8105238395080175, 0.562962962962963, 0.33171754610601806, 0.1867446926226472
34.45636778875659, 74.0, 135.0, 31.103999999999996, 3039.3615089962786, 155.55604521958347, True, False, -6.462853844308627, 0.0113367125584661, 0.14767050410738486, 1.1077793141961354, 0.5481481481481482, 0.4656265917399539, 0.25523235399078953
31.08723031752482, 75.0, 135.0, 31.103999999999996, 3039.3615089962786, -30.96375653207352, True, False, -6.611302385390263, 0.010228210834910222, -0.0007780369742505493, 0.9994608512578712, 0.5555555555555556, 0.4144964042336643, 0.23027578012981348
99.58198732925348, 105.0, 135.0, 31.103999999999996, 3039.3615089962786, 8.530765609948133, True, False, -4.93173966532858, 0.0327641141188695, 1.6787846830874316, 3.2015813827563493, 0.7777777777777778, 0.9483998793262236, 0.7376443505870628
35.444444925869625, 78.0, 135.0, 31.103999999999996, 3039.3615089962786, 55.00797980144134, True, False, -6.4220649354417025, 0.011661806211915485, 0.18845941297430993, 1.1395461974623724, 0.5777777777777777, 0.4544159605880721, 0.2625514438953306
29.006034007931042, 76.0, 135.0, 31.103999999999996, 3039.3615089962786, 105.25511870305778, True, False, -6.711271422997694, 0.009543462968151499, -0.10074707458168135, 0.9325499616747378, 0.562962962962963, 0.381658342209619, 0.21485951116985957
31.429599285757014, 91.0, 135.0, 31.103999999999996, 3039.3615089962786, 70.01689347810003, True, False, -6.595500593976675, 0.010340855864867602, 0.01502375443933765, 1.010468084032826, 0.674074074074074, 0.3453802119313958, 0.23281184656116308
53.16964081484766, 99.0, 135.0, 31.103999999999996, 3039.3615089962786, 56.309932474020215, True, False, -5.837021752081087, 0.017493687624018917, 0.7735025963349256, 1.7094148924526642, 0.7333333333333333, 0.5370670789378552, 0.3938491912210938
75.42920427268203, 89.0, 135.0, 31.103999999999996, 3039.3615089962786, -35.53767779197438, True, False, -5.332501265928914, 0.024817450655151528, 1.278023082487099, 2.4250644377791293, 0.6592592592592592, 0.8475191491312587, 0.5587348464643114
74.49605992508049, 100.0, 135.0, 31.103999999999996, 3039.3615089962786, -110.55604521958348, True, False, -5.350460348600439, 0.024510430794289467, 1.2600639998155734, 2.39506365499873, 0.7407407407407407, 0.7449605992508048, 0.5518226661117073
188.86967722360345, 116.0, 135.0, 31.103999999999996, 3039.3615089962786, 149.34933204294714, True, False, -4.008305280044343, 0.062141234816774374, 2.6022190683716695, 6.0721989848123545, 0.8592592592592593, 1.628186872617271, 1.3990346461007663
85.3047113166862, 99.0, 135.0, 31.103999999999996, 3039.3615089962786, -139.3987053549955, True, False, -5.154999049738635, 0.028066655139308287, 1.4555252986773786, 2.7425640212411975, 0.7333333333333333, 0.8616637506735979, 0.6318867504939718
157.90106387516167, 131.0, 135.0, 31.103999999999996, 3039.3615089962786, 70.90650799951439, True, False, -4.2666754860432645, 0.05195205091851909, 2.3438488623727483, 5.0765516935172865, 0.9703703703703703, 1.205351632634822, 1.1696375101863827
85.3047113166862, 96.0, 135.0, 31.103999999999996, 3039.3615089962786, -139.3987053549955, True, False, -5.154999049738635, 0.028066655139308287, 1.4555252986773786, 2.7425640212411975, 0.7111111111111111, 0.8885907428821479, 0.6318867504939718
169.792, 111.0, 135.0, 31.103999999999996, 3039.3615089962786, 46.39718102729638, True, False, -4.1619278917930975, 0.05586436476787266, 2.448596456622915, 5.458847736625515, 0.8222222222222222, 1.5296576576576577, 1.2577185185185185
110.02730416264836, 107.0, 135.0, 31.103999999999996, 3039.3615089962786, -33.874594358241275, True, False, -4.78783479299891, 0.036200795409488444, 1.822689555417102, 3.537400468192142, 0.7925925925925926, 1.0282925622677417, 0.8150170678714693
110.8584612222715, 121.0, 135.0, 31.103999999999996, 3039.3615089962786, 56.309932474020215, True, False, -4.776977490126233, 0.03647425977269861, 1.8335468582897794, 3.5641223386789966, 0.8962962962962963, 0.9161856299361281, 0.8211737868316408
104.83690414256881, 106.0, 135.0, 31.103999999999996, 3039.3615089962786, 163.30075576600638, True, False, -4.8575497212870244, 0.034493068308017835, 1.7529746271289883, 3.370528039563041, 0.7851851851851852, 0.9890273975714039, 0.7765696603153245
106.5521848778319, 102.0, 135.0, 31.103999999999996, 3039.3615089962786, -5.440332031005506, True, False, -4.834136201356947, 0.035057423923559455, 1.7763881470590657, 3.4256746681401724, 0.7555555555555555, 1.044629263508156, 0.7892754435394956
110.8584612222715, 117.0, 135.0, 31.103999999999996, 3039.3615089962786, 33.690067525979785, True, False, -4.776977490126233, 0.03647425977269861, 1.8335468582897794, 3.5641223386789966, 0.8666666666666667, 0.9475082155749701, 0.8211737868316408
107.49762748477141, 132.0, 135.0, 31.103999999999996, 3039.3615089962786, 81.86989764584403, True, False, -4.8213915582700215, 0.03536849011431731, 1.789132790145991, 3.4560708424887934, 0.9777777777777777, 0.8143759657937228, 0.7962787221094179
175.6490999570961, 131.0, 135.0, 31.103999999999996, 3039.3615089962786, 160.34617594194668, True, False, -4.113000193514084, 0.057791447130322644, 2.4975241549019285, 5.647154705410755, 0.9703703703703703, 1.3408328240999703, 1.3011044441266377
52.334568506210836, 97.0, 135.0, 31.103999999999996, 3039.3615089962786, 12.094757077012103, True, False, -5.859860269060136, 0.01721893507939233, 0.7506640793558765, 1.6825671459044125, 0.7185185185185186, 0.5395316340846478, 0.38766347041637655
51.49336322841517, 90.0, 135.0, 31.103999999999996, 3039.3615089962786, 140.71059313749964, True, False, -5.883237971331003, 0.01694216468689188, 0.7272863770850101, 1.655522223135776, 0.6666666666666666, 0.5721484803157241, 0.38143232021048273
80.90035055998655, 81.0, 135.0, 31.103999999999996, 3039.3615089962786, 26.56505117707799, True, False, -5.231478518271253, 0.026617547902915685, 1.3790458301447603, 2.6009629166662345, 0.6, 0.998769759999834, 0.5992618559999003
80.90035055998655, 96.0, 135.0, 31.103999999999996, 3039.3615089962786, -26.56505117707799, True, False, -5.231478518271253, 0.026617547902915685, 1.3790458301447603, 2.6009629166662345, 0.7111111111111111, 0.8427119849998599, 0.5992618559999003
85.3047113166862, 110.0, 135.0, 31.103999999999996, 3039.3615089962786, 40.60129464500447, True, False, -5.154999049738635, 0.028066655139308287, 1.4555252986773786, 2.7425640212411975, 0.8148148148148148, 0.7754973756062381, 0.6318867504939718
86.6140413782851, 116.0, 135.0, 31.103999999999996, 3039.3615089962786, -138.81407483429035, True, False, -5.133023547003939, 0.02849744629650475, 1.4775008014120745, 2.78465925213108, 0.8592592592592593, 0.7466727705024577, 0.6415854916910007
85.3047113166862, 114.0, 135.0, 31.103999999999996, 3039.3615089962786, -139.3987053549955, True, False, -5.154999049738635, 0.028066655139308287, 1.4555252986773786, 2.7425640212411975, 0.8444444444444444, 0.7482869413744403, 0.6318867504939718
33.12824704172072, 86.0, 135.0, 31.103999999999996, 3039.3615089962786, 164.79759129082385, True, False, -6.519562606244028, 0.010899738956245787, 0.09096174217198486, 1.0650799589030582, 0.6370370370370371, 0.3852121749037293, 0.2453944225312646
