132.39807247183552, 94.66666666666667, 110.66666666666667, 34.239999999999995, 3683.1328553932317, 54.7275785514016, False, True, -4.797979414246142, 0.03594713459167358, 1.9511275118525988, 3.8667661352755704, 0.8554216867469879, 1.3985711880827696, 1.1963681247455016
132.05179299053805, 84.0, 110.66666666666667, 34.239999999999995, 3683.1328553932317, -65.86344843327721, False, True, -4.801757642494306, 0.03585311694558448, 1.947349283604435, 3.8566528326675837, 0.7590361445783133, 1.5720451546492624, 1.1932390932879944
196.07245226608657, 105.33333333333333, 110.0, 34.239999999999995, 3683.1328553932317, 133.46839220798898, False, True, -4.2314746785569035, 0.05323523749054466, 2.5176322475418376, 5.7264150778646785, 0.9575757575757575, 1.8614473316400624, 1.782476838782605
196.56716561397147, 92.0, 110.66666666666667, 34.239999999999995, 3683.1328553932317, -144.21102654081668, False, True, -4.227839177507923, 0.053369556117460464, 2.521267748590818, 5.740863481716457, 0.8313253012048193, 2.1365996262388203, 1.7762093278370914
133.21531476958012, 98.0, 110.0, 34.239999999999995, 3683.1328553932317, 54.891619726822185, False, True, -4.789101585135447, 0.036169022405616515, 1.9600053409632938, 3.890634193036803, 0.8909090909090909, 1.3593399466283687, 1.211048316087092
132.05179299053805, 88.0, 110.66666666666667, 34.239999999999995, 3683.1328553932317, -65.86344843327721, False, True, -4.801757642494306, 0.03585311694558448, 1.947349283604435, 3.8566528326675837, 0.7951807228915663, 1.5005885567106596, 1.1932390932879944
103.92939649566668, 78.0, 110.66666666666667, 34.239999999999995, 3683.1328553932317, 143.7282964135823, False, True, -5.147257753779735, 0.0282176615876026, 1.601849172319006, 3.03532115933606, 0.7048192771084337, 1.332428160200855, 0.9391210526716868
102.91719951037709, 99.33333333333333, 110.66666666666667, 34.239999999999995, 3683.1328553932317, 24.4716205337049, False, True, -5.161377427542812, 0.027942842018222305, 1.5877294985559298, 3.0057593314946582, 0.8975903614457831, 1.036079189701783, 0.9299746943708772
187.02146770615624, 106.66666666666667, 110.0, 34.239999999999995, 3683.1328553932317, 128.48469944870405, False, True, -4.299657650133876, 0.05077782286139901, 2.4494492759648643, 5.462075575530265, 0.9696969696969697, 1.7533262597452146, 1.7001951609650567
75.44359083902819, 88.0, 110.0, 34.239999999999995, 3683.1328553932317, -157.53325007900426, False, True, -5.609391283182552, 0.020483537738410853, 1.1397156429161894, 2.2033759006725524, 0.8, 0.8573135322616839, 0.6858508258093472
122.03771571168915, 94.66666666666667, 110.0, 34.239999999999995, 3683.1328553932317, -7.2369220259680045, False, True, -4.915534451872891, 0.03313421494774174, 1.83357247422585, 3.5641856224208284, 0.8606060606060606, 1.2891307997713641, 1.109433779197174
156.68216378423796, 99.33333333333333, 110.66666666666667, 34.239999999999995, 3683.1328553932317, -71.08223300313468, False, True, -4.555020575760308, 0.04254045942296309, 2.1940863503384325, 4.575997774072371, 0.8975903614457831, 1.577337219304409, 1.4158026847973308
214.66307337457508, 119.33333333333333, 110.0, 34.239999999999995, 3683.1328553932317, 88.1784866483989, False, True, -4.100787494717117, 0.0582827396682807, 2.648319431381624, 6.269365460706049, 1.0848484848484847, 1.7988525701780036, 1.9514824852234098
114.98934348822422, 90.0, 110.66666666666667, 34.239999999999995, 3683.1328553932317, -112.09136540936295, False, True, -5.001361365772604, 0.031220525569650492, 1.7477455603261367, 3.358333629913091, 0.8132530120481928, 1.2776593720913803, 1.0390603327249177
114.73844885272882, 98.0, 110.66666666666667, 34.239999999999995, 3683.1328553932317, 127.68299276767523, False, True, -5.0045126134874724, 0.031152405671361183, 1.7445943126112688, 3.351006099670819, 0.8855421686746987, 1.1708004984972329, 1.036793212524658
204.82934854117232, 120.0, 110.0, 34.239999999999995, 3683.1328553932317, -2.726310993906266, False, True, -4.168439089285906, 0.05561280480046751, 2.580667836812835, 5.982165553188445, 1.0909090909090908, 1.7069112378431026, 1.86208498673793
114.73844885272882, 87.33333333333333, 110.66666666666667, 34.239999999999995, 3683.1328553932317, 127.68299276767523, False, True, -5.0045126134874724, 0.031152405671361183, 1.7445943126112688, 3.351006099670819, 0.789156626506024, 1.3137990326648339, 1.036793212524658
139.2602223932573, 76.66666666666667, 110.0, 34.239999999999995, 3683.1328553932317, -23.850473908076925, False, True, -4.725078300503521, 0.0378102631267666, 2.02402862559522, 4.06717939232644, 0.696969696969697, 1.8164376833903124, 1.2660020217568846
212.82055101261355, 82.0, 110.66666666666667, 34.239999999999995, 3683.1328553932317, 79.96842226763883, False, True, -4.113224061564265, 0.057782480124489465, 2.635882864534476, 6.215553475835677, 0.7409638554216867, 2.5953725733245556, 1.923077268186267
212.56448046528155, 102.66666666666667, 110.0, 34.239999999999995, 3683.1328553932317, -40.09270015771185, False, True, -4.1149609903513165, 0.057712954924778834, 2.634145935747424, 6.2080747799439715, 0.9333333333333333, 2.07043325128521, 1.932404367866196
120.3400201249857, 90.0, 110.0, 34.239999999999995, 3683.1328553932317, 70.50946949202458, False, True, -4.935745029801838, 0.03267327703065914, 1.8133618962969025, 3.514603391500751, 0.8181818181818182, 1.3371113347220633, 1.0940001829544155
145.49429752192202, 62.0, 110.66666666666667, 34.239999999999995, 3683.1328553932317, -82.21071452203832, False, True, -4.661898923446187, 0.039502864337047715, 2.0872080026525537, 4.249249343514078, 0.5602409638554217, 2.3466822180955167, 1.3147075077282109
209.26268667239466, 83.33333333333333, 110.66666666666667, 34.239999999999995, 3683.1328553932317, 115.82698212361996, False, True, -4.137546443295379, 0.05681649152730675, 2.6115604828033625, 6.111643886460126, 0.753012048192771, 2.511152240068736, 1.890927891618024
212.82055101261355, 72.0, 110.66666666666667, 34.239999999999995, 3683.1328553932317, -100.03157773236119, False, True, -4.113224061564265, 0.057782480124489465, 2.635882864534476, 6.215553475835677, 0.6506024096385542, 2.955840986286299, 1.923077268186267
209.01234223668226, 80.0, 110.0, 34.239999999999995, 3683.1328553932317, 59.46117347303165, False, True, -4.139273396587258, 0.056748521012654846, 2.6098335295114823, 6.104332425136749, 0.7272727272727273, 2.6126542779585282, 1.900112202151657
243.77950746134215, 87.33333333333333, 110.66666666666667, 34.239999999999995, 3683.1328553932317, -81.71420297604625, False, True, -3.917284677404469, 0.06618808417523535, 2.831822248694272, 7.119728605763498, 0.789156626506024, 2.7913684060459025, 2.202826874650682
22.040715861066857, 75.33333333333333, 110.66666666666667, 34.239999999999995, 3683.1328553932317, -73.96766064606405, False, True, -7.384618545832574, 0.005984230470750604, -0.6355116197338336, 0.6437124959423732, 0.680722891566265, 0.2925758742619495, 0.1991630951301222
59.53562404644208, 83.33333333333333, 110.66666666666667, 34.239999999999995, 3683.1328553932317, -118.96766064606403, False, True, -5.951036442514872, 0.016164397642964123, 0.7980704835838683, 1.7387740667769302, 0.753012048192771, 0.714427488557305, 0.5379725064437537
22.040715861066857, 72.0, 110.66666666666667, 34.239999999999995, 3683.1328553932317, 106.03233935393598, False, True, -7.384618545832574, 0.005984230470750604, -0.6355116197338336, 0.6437124959423732, 0.6506024096385542, 0.30612105362592856, 0.1991630951301222
59.53562404644208, 79.33333333333333, 110.0, 34.239999999999995, 3683.1328553932317, -28.967660646064033, False, True, -5.951036442514872, 0.016164397642964123, 0.7980704835838683, 1.7387740667769302, 0.7212121212121212, 0.7504490426022111, 0.5412329458767462
106.56570831642804, 102.0, 110.66666666666667, 34.239999999999995, 3683.1328553932317, -178.69061018058946, False, True, -5.111118263716629, 0.028933441312165346, 1.6379886623821116, 3.1123162475592308, 0.9216867469879517, 1.0447618462394905, 0.9629431474376028
79.70906842274164, 70.0, 110.0, 34.239999999999995, 3683.1328553932317, 58.240519915187214, False, True, -5.530045760281131, 0.02164164898532596, 1.2190611658176103, 2.3279517646828753, 0.6363636363636364, 1.1387009774677377, 0.7246278947521967
21.65878188659974, 60.0, 110.66666666666667, 34.239999999999995, 3683.1328553932317, -49.95027223429175, False, True, -7.409837521344882, 0.005880532344871749, -0.6607305952461419, 0.6325578822020953, 0.5421686746987951, 0.3609796981099957, 0.19571188451746752
78.50639392814563, 99.33333333333333, 110.66666666666667, 34.239999999999995, 3683.1328553932317, 166.62555953512887, False, True, -5.5519794692122035, 0.021315113250174586, 1.1971274568865367, 2.292826925471543, 0.8975903614457831, 0.7903328247799896, 0.7093951258567376
61.52000000000001, 88.66666666666667, 110.66666666666667, 34.239999999999995, 3683.1328553932317, 67.38013505195958, False, True, -5.903734124538061, 0.016703171570342876, 0.8453728015606801, 1.7967289719626174, 0.8012048192771084, 0.6938345864661655, 0.5559036144578314
23.443881554251192, 59.333333333333336, 110.0, 34.239999999999995, 3683.1328553932317, -67.61986494804043, False, True, -7.295578174312206, 0.006365201168326629, -0.5464712482134645, 0.6846928024021961, 0.5393939393939394, 0.3951215992289527, 0.2131261959477381
61.52000000000001, 85.33333333333333, 110.66666666666667, 34.239999999999995, 3683.1328553932317, 157.38013505195957, False, True, -5.903734124538061, 0.016703171570342876, 0.8453728015606801, 1.7967289719626174, 0.7710843373493975, 0.7209375000000001, 0.5559036144578314
61.52000000000001, 67.33333333333333, 110.0, 34.239999999999995, 3683.1328553932317, -112.61986494804043, False, True, -5.903734124538061, 0.016703171570342876, 0.8453728015606801, 1.7967289719626174, 0.6121212121212121, 0.9136633663366339, 0.5592727272727274
61.52000000000001, 76.0, 110.66666666666667, 34.239999999999995, 3683.1328553932317, -22.619864948040426, False, True, -5.903734124538061, 0.016703171570342876, 0.8453728015606801, 1.7967289719626174, 0.6867469879518072, 0.8094736842105265, 0.5559036144578314
23.443881554251192, 60.0, 110.66666666666667, 34.239999999999995, 3683.1328553932317, 112.38013505195958, False, True, -7.295578174312206, 0.006365201168326629, -0.5464712482134645, 0.6846928024021961, 0.5421686746987951, 0.39073135923751984, 0.21184230320106498
61.52000000000001, 71.33333333333333, 110.0, 34.239999999999995, 3683.1328553932317, -112.61986494804043, False, True, -5.903734124538061, 0.016703171570342876, 0.8453728015606801, 1.7967289719626174, 0.6484848484848484, 0.8624299065420563, 0.5592727272727274
61.52000000000001, 76.0, 110.66666666666667, 34.239999999999995, 3683.1328553932317, -22.619864948040426, False, True, -5.903734124538061, 0.016703171570342876, 0.8453728015606801, 1.7967289719626174, 0.6867469879518072, 0.8094736842105265, 0.5559036144578314
137.06804791094467, 101.33333333333333, 110.66666666666667, 34.239999999999995, 3683.1328553932317, 138.94518622903757, False, True, -4.74796923092801, 0.03721507023843443, 2.0011376951707303, 4.0031556048757215, 0.9156626506024096, 1.3526452096474804, 1.238566697990464
61.52000000000001, 84.0, 110.0, 34.239999999999995, 3683.1328553932317, 67.38013505195958, False, True, -5.903734124538061, 0.016703171570342876, 0.8453728015606801, 1.7967289719626174, 0.7636363636363637, 0.7323809523809525, 0.5592727272727274
81.8562896974646, 73.33333333333333, 110.66666666666667, 34.239999999999995, 3683.1328553932317, -34.43000877917291, False, True, -5.491696352656854, 0.02222463671860275, 1.2574105734418863, 2.3906626663979154, 0.6626506024096385, 1.1162221322381538, 0.7396652683505838
21.525555384098382, 60.0, 110.0, 34.239999999999995, 3683.1328553932317, -89.36340642403653, False, True, -7.418739166543308, 0.00584436028490756, -0.6696322404445663, 0.6286669212645557, 0.5454545454545454, 0.3587592564016397, 0.1956868671281671
58.80707711311467, 66.66666666666667, 110.66666666666667, 34.239999999999995, 3683.1328553932317, 135.63659357596347, False, True, -5.968799841796507, 0.015966591329173246, 0.7803070843022336, 1.7174964110138633, 0.6024096385542169, 0.88210615669672, 0.5313892510221205
58.80707711311467, 68.0, 110.0, 34.239999999999995, 3683.1328553932317, -134.3634064240365, False, True, -5.968799841796507, 0.015966591329173246, 0.7803070843022336, 1.7174964110138633, 0.6181818181818182, 0.864809957545804, 0.5346097919374061
58.80707711311467, 75.33333333333333, 110.66666666666667, 34.239999999999995, 3683.1328553932317, -44.36340642403651, False, True, -5.968799841796507, 0.015966591329173246, 0.7803070843022336, 1.7174964110138633, 0.680722891566265, 0.7806249174307258, 0.5313892510221205
132.77854019146616, 80.0, 110.66666666666667, 34.239999999999995, 3683.1328553932317, 154.0715423988855, False, True, -4.793839537328147, 0.03605043461764835, 1.955267388770594, 3.877877926152634, 0.7228915662650602, 1.659731752393327, 1.1998060860674653
111.53111076819675, 86.0, 110.66666666666667, 34.239999999999995, 3683.1328553932317, 0.6365935759634864, False, True, -5.045415337688479, 0.030281587753447758, 1.7036915884102615, 3.2573338425291114, 0.7771084337349398, 1.2968733810255437, 1.007811241881296
88.44354826475217, 76.0, 110.0, 34.239999999999995, 3683.1328553932317, -149.34933204294714, False, True, -5.380032722072236, 0.02401313005455228, 1.3690742040265054, 2.58304755446122, 0.6909090909090909, 1.1637308982204233, 0.8040322569522924
111.61997223764362, 97.33333333333333, 110.66666666666667, 34.239999999999995, 3683.1328553932317, 119.98163936884934, False, True, -5.04426634027967, 0.030305714352442618, 1.704840585819072, 3.2599290957255738, 0.8795180722891566, 1.1467805366881194, 1.0086142069666593
89.8140302096071, 66.0, 110.0, 34.239999999999995, 3683.1328553932317, -149.22246961446552, False, True, -5.3578487960924015, 0.024385226853300152, 1.391258130006339, 2.6230733121964693, 0.6, 1.3608186395395014, 0.8164911837237009
89.54847844613326, 74.0, 110.66666666666667, 34.239999999999995, 3683.1328553932317, 91.0877638403841, False, True, -5.362120708824411, 0.024313127427648157, 1.3869862172743306, 2.615317711627724, 0.6686746987951807, 1.2101145735963954, 0.8091729980072282
113.99739586041883, 63.333333333333336, 110.66666666666667, 34.239999999999995, 3683.1328553932317, -59.35933654424464, False, True, -5.0138606648952555, 0.03095120386262793, 1.735246261203485, 3.329363196858027, 0.572289156626506, 1.799958882006613, 1.0300969505459532
112.86221791960085, 85.33333333333333, 110.0, 34.239999999999995, 3683.1328553932317, 60.607824244760735, False, True, -5.028298926756611, 0.03064299398115278, 1.7208079993421297, 3.296209635502362, 0.7757575757575758, 1.3226041162453226, 1.0260201629054624
113.99739586041883, 74.66666666666667, 110.66666666666667, 34.239999999999995, 3683.1328553932317, -59.35933654424464, False, True, -5.0138606648952555, 0.03095120386262793, 1.735246261203485, 3.329363196858027, 0.674698795180723, 1.5267508374163237, 1.0300969505459532
88.80000508646992, 98.66666666666667, 110.66666666666667, 34.239999999999995, 3683.1328553932317, 149.84845201817788, False, True, -5.374229868624753, 0.024109910929886656, 1.3748770574739875, 2.593458092478678, 0.891566265060241, 0.90000005155206, 0.8024096845162945
88.52318468107583, 82.66666666666667, 110.66666666666667, 34.239999999999995, 3683.1328553932317, 90.36493633573066, False, True, -5.3787342738413475, 0.024034751977912185, 1.3703726522573931, 2.585373384377215, 0.7469879518072289, 1.070844975980756, 0.7999082953109261
88.3001007781281, 90.0, 110.66666666666667, 34.239999999999995, 3683.1328553932317, -29.835539100261556, False, True, -5.3823745433952865, 0.023974182915728868, 1.3667323827034548, 2.5788580834733676, 0.8132530120481928, 0.98111223086809, 0.797892476910796
88.52318468107583, 76.0, 110.66666666666667, 34.239999999999995, 3683.1328553932317, -89.63506366426935, False, True, -5.3787342738413475, 0.024034751977912185, 1.3703726522573931, 2.585373384377215, 0.6867469879518072, 1.1647787458036294, 0.7999082953109261
85.57193929321372, 79.33333333333333, 110.66666666666667, 34.239999999999995, 3683.1328553932317, 150.43964553531924, False, True, -5.427651841484606, 0.023233465273431626, 1.3214550846141344, 2.4991804700120834, 0.716867469879518, 1.078637890250593, 0.7732404153001239
86.5490295396317, 66.66666666666667, 110.66666666666667, 34.239999999999995, 3683.1328553932317, 91.10881212775993, False, True, -5.411271984862988, 0.023498753082690862, 1.337834941235753, 2.527716984218216, 0.6024096385542169, 1.2982354430944754, 0.7820695440328166
21.464427287075438, 56.0, 110.66666666666667, 34.239999999999995, 3683.1328553932317, -118.55962047831983, False, True, -7.42284194846548, 0.005827763518126955, -0.6737350223667403, 0.6268816380571098, 0.5060240963855421, 0.38329334441206137, 0.19395566825670577
109.57897899291686, 94.66666666666667, 110.66666666666667, 34.239999999999995, 3683.1328553932317, 61.85180015213771, False, True, -5.07089046650745, 0.029751568378115864, 1.6782164595912912, 3.200320648157619, 0.8554216867469879, 1.157524425981516, 0.9901714969239475
85.63683879446788, 66.66666666666667, 110.0, 34.239999999999995, 3683.1328553932317, -87.76882539196875, False, True, -5.426558086898587, 0.023251086006596092, 1.3225488392001545, 2.5010758993711417, 0.6060606060606061, 1.284552581917018, 0.7785167163133443
110.23765441612085, 74.0, 110.66666666666667, 34.239999999999995, 3683.1328553932317, 121.7335191534163, False, True, -5.0622444364413814, 0.029930404018605857, 1.6868624896573596, 3.2195576640222217, 0.6686746987951807, 1.4896980326502818, 0.9961233832782004
107.5654486773231, 81.33333333333333, 110.66666666666667, 34.239999999999995, 3683.1328553932317, 1.3019526725788753, False, True, -5.0976467917358095, 0.02920487880848893, 1.6514601343629314, 3.1415142721180818, 0.7349397590361445, 1.3225260083277433, 0.9719769458794256
87.52000000000001, 79.33333333333333, 110.66666666666667, 34.239999999999995, 3683.1328553932317, 157.38013505195957, False, True, -5.395176889707331, 0.02376237932113798, 1.35393003639141, 2.556074766355141, 0.716867469879518, 1.1031932773109245, 0.7908433734939759
110.15930138690086, 80.66666666666667, 110.66666666666667, 34.239999999999995, 3683.1328553932317, -111.68229161324494, False, True, -5.06327021768273, 0.029909130545099395, 1.685836708416011, 3.217269316206217, 0.7289156626506024, 1.3656111742177792, 0.9954153739780198
87.22806016388492, 66.66666666666667, 110.0, 34.239999999999995, 3683.1328553932317, -81.50562421019103, False, True, -5.399997321421957, 0.02368311532291223, 1.3491096046767836, 2.54754848609477, 0.6060606060606061, 1.3084209024582738, 0.7929823651262266
41.72889256316843, 74.0, 110.66666666666667, 34.239999999999995, 3683.1328553932317, 143.85795876362835, False, True, -6.463742994196121, 0.01132972776207749, 0.28536393190262005, 1.218717656634592, 0.6686746987951807, 0.5639039535563302, 0.3770683062936906
87.22806016388492, 96.0, 110.66666666666667, 34.239999999999995, 3683.1328553932317, 8.494375789808984, False, True, -5.399997321421957, 0.02368311532291223, 1.3491096046767836, 2.54754848609477, 0.8674698795180723, 0.9086256267071345, 0.7882053629266709
41.72889256316843, 64.66666666666667, 110.66666666666667, 34.239999999999995, 3683.1328553932317, 143.85795876362835, False, True, -6.463742994196121, 0.01132972776207749, 0.28536393190262005, 1.218717656634592, 0.5843373493975904, 0.645292153038687, 0.3770683062936906
108.22880000724356, 104.0, 110.66666666666667, 34.239999999999995, 3683.1328553932317, 34.8592068538872, False, True, -5.088777077233979, 0.02938498399501488, 1.6603298488647624, 3.1608878506788427, 0.9397590361445782, 1.0406615385311881, 0.9779710844028032
41.52000000000001, 72.66666666666667, 110.66666666666667, 34.239999999999995, 3683.1328553932317, 143.13010235415598, False, True, -6.470983184142007, 0.011273011762038952, 0.2781237419567344, 1.212616822429907, 0.6566265060240964, 0.571376146788991, 0.37518072289156634
106.83685600648903, 95.33333333333333, 110.66666666666667, 34.239999999999995, 3683.1328553932317, 34.77783136636388, False, True, -5.107452106849673, 0.029007060076599527, 1.6416548192490672, 3.120235280563348, 0.8614457831325301, 1.1206663217463884, 0.9653932771670695
41.52000000000001, 62.666666666666664, 110.66666666666667, 34.239999999999995, 3683.1328553932317, 143.13010235415598, False, True, -6.470983184142007, 0.011273011762038952, 0.2781237419567344, 1.212616822429907, 0.5662650602409638, 0.6625531914893619, 0.37518072289156634
99.86488409215173, 70.0, 110.66666666666667, 34.239999999999995, 3683.1328553932317, -80.42577211490818, False, True, -5.204812161554152, 0.027114113992906617, 1.544294764544589, 2.916614605495086, 0.6325301204819277, 1.4266412013164533, 0.9023935309531782
44.13438629233835, 70.0, 110.66666666666667, 34.239999999999995, 3683.1328553932317, -127.78573796079326, False, True, -6.382886491270875, 0.01198283853044077, 0.36622043482786565, 1.288971562276237, 0.6325301204819277, 0.6304912327476907, 0.3988046954126959
126.14014284240983, 96.0, 110.66666666666667, 34.239999999999995, 3683.1328553932317, 142.30575953331083, False, True, -4.867834060904949, 0.034248056693828494, 1.881272865193792, 3.683999498902157, 0.8674698795180723, 1.3139598212751025, 1.1398205678531008
112.5614317221337, 96.66666666666667, 110.66666666666667, 34.239999999999995, 3683.1328553932317, -163.96766064606405, False, True, -5.032148948825491, 0.030561328125133846, 1.7169579772732493, 3.2874249918847465, 0.8734939759036144, 1.1644286040220728, 1.017121370983136
21.018603341057798, 67.33333333333333, 110.66666666666667, 34.239999999999995, 3683.1328553932317, 76.42956561483852, False, True, -7.453122820567859, 0.005706718754464732, -0.7040158944691182, 0.6138610788860339, 0.6084337349397589, 0.31215747536224453, 0.18992713862401622
87.16703659241315, 75.33333333333333, 110.66666666666667, 34.239999999999995, 3683.1328553932317, -73.19497906246215, False, True, -5.4010069645732885, 0.02366654693565397, 1.348099961525453, 2.5457662556195433, 0.680722891566265, 1.1570845565364578, 0.787653945112167
21.018603341057798, 64.66666666666667, 110.0, 34.239999999999995, 3683.1328553932317, 76.42956561483852, False, True, -7.453122820567859, 0.005706718754464732, -0.7040158944691182, 0.6138610788860339, 0.5878787878787879, 0.3250299485730587, 0.19107821219143453
83.54960238058902, 71.33333333333333, 110.66666666666667, 34.239999999999995, 3683.1328553932317, -135.2664900760584, False, True, -5.462156665439037, 0.022684384642342424, 1.286950260659703, 2.4401168919564555, 0.644578313253012, 1.1712561081390984, 0.7549662865715875
84.13061562027721, 94.0, 110.66666666666667, 34.239999999999995, 3683.1328553932317, -15.584401166904446, False, True, -5.452158726692767, 0.022842134379454787, 1.2969481994059735, 2.457085736573517, 0.8493975903614458, 0.8950065491518853, 0.7602164062073241
102.64568480505784, 80.0, 110.66666666666667, 34.239999999999995, 3683.1328553932317, 134.52649194126508, False, True, -5.165188554711921, 0.027869123606212902, 1.5839183713868195, 2.9978295795869703, 0.7228915662650602, 1.283071060063223, 0.9275212482384744
54.487475374588385, 84.66666666666667, 110.66666666666667, 34.239999999999995, 3683.1328553932317, 31.363302213950057, False, True, -6.0788649812790325, 0.014793784941751986, 0.6702419448197084, 1.5913398181830722, 0.7650602409638554, 0.6435528587549809, 0.4923567051920637
64.37330255586423, 72.66666666666667, 110.66666666666667, 34.239999999999995, 3683.1328553932317, -109.79887635452494, False, True, -5.838327142231649, 0.017477866013332115, 0.910779783867091, 1.8800614064212686, 0.6566265060240964, 0.8858711360898747, 0.5816864688782912
84.57227865013968, 80.66666666666667, 110.0, 34.239999999999995, 3683.1328553932317, 104.76261696929446, False, True, -5.4446047778240185, 0.022962049421133432, 1.3045021482747223, 2.469984773660622, 0.7333333333333334, 1.0484166774810704, 0.7688388968194516
84.57227865013968, 88.0, 110.66666666666667, 34.239999999999995, 3683.1328553932317, 14.76261696929444, False, True, -5.4446047778240185, 0.022962049421133432, 1.3045021482747223, 2.469984773660622, 0.7951807228915663, 0.9610486210243145, 0.7642073372000573
84.57227865013968, 92.0, 110.66666666666667, 34.239999999999995, 3683.1328553932317, -75.23738303070556, False, True, -5.4446047778240185, 0.022962049421133432, 1.3045021482747223, 2.469984773660622, 0.8313253012048193, 0.9192638983710835, 0.7642073372000573
111.12233851484228, 84.66666666666667, 110.66666666666667, 34.239999999999995, 3683.1328553932317, -150.29468760527064, False, True, -5.05071266739299, 0.030170602820401994, 1.6983942587057512, 3.2453954005503007, 0.7650602409638554, 1.3124685651359325, 1.004117516700382
104.1467650163207, 93.33333333333333, 110.66666666666667, 34.239999999999995, 3683.1328553932317, 153.13808215559732, False, True, -5.144243505548785, 0.0282766788778249, 1.6048634205499555, 3.0416695390280584, 0.8433734939759036, 1.1158581966034362, 0.9410852260510906
107.54556632489499, 84.0, 110.66666666666667, 34.239999999999995, 3683.1328553932317, -179.02346196423844, False, True, -5.0979134835305615, 0.029199480590936442, 1.6511934425681793, 3.140933595937354, 0.7590361445783133, 1.2803043610106546, 0.9717972860683282
91.13516218705541, 89.33333333333333, 110.0, 34.239999999999995, 3683.1328553932317, -5.031934222829207, False, True, -5.336781839172522, 0.0247439247415704, 1.4123250869262185, 2.6616577741546563, 0.8121212121212121, 1.020169725974501, 0.8285014744277764
91.13516218705541, 90.0, 110.66666666666667, 34.239999999999995, 3683.1328553932317, -5.031934222829207, False, True, -5.336781839172522, 0.0247439247415704, 1.4123250869262185, 2.6616577741546563, 0.8132530120481928, 1.0126129131895045, 0.8235105016902597
22.805267157411564, 72.66666666666667, 110.0, 34.239999999999995, 3683.1328553932317, 155.40020939484253, False, True, -7.335422556768851, 0.006191812256790489, -0.5863156306701097, 0.6660416809991696, 0.6606060606060606, 0.31383395170749856, 0.2073206105219233
23.356811791350864, 62.666666666666664, 110.66666666666667, 34.239999999999995, 3683.1328553932317, -144.7524249416538, False, True, -7.300946268290979, 0.006341561031975634, -0.5518393421922382, 0.6821498770838454, 0.5662650602409638, 0.3727150817768755, 0.21105552823509816
61.39686476043377, 66.0, 110.66666666666667, 34.239999999999995, 3683.1328553932317, 80.24757505834621, False, True, -5.906624641787314, 0.016669739368898952, 0.8424822843114274, 1.7931327324893043, 0.5963855421686747, 0.930255526673239, 0.5547909466304256
23.356811791350864, 56.0, 110.66666666666667, 34.239999999999995, 3683.1328553932317, -144.7524249416538, False, True, -7.300946268290979, 0.006341561031975634, -0.5518393421922382, 0.6821498770838454, 0.5060240963855421, 0.4170859248455511, 0.21105552823509816
60.244512040248196, 80.66666666666667, 110.0, 34.239999999999995, 3683.1328553932317, 80.61085243866876, False, True, -5.933959802477389, 0.016356866397591884, 0.8151471236213519, 1.7594775712689312, 0.7333333333333334, 0.7468327938873743, 0.5476773821840745
61.39686476043377, 82.0, 110.66666666666667, 34.239999999999995, 3683.1328553932317, 170.24757505834623, False, True, -5.906624641787314, 0.016669739368898952, 0.8424822843114274, 1.7931327324893043, 0.7409638554216867, 0.7487422531760216, 0.5547909466304256
85.28930773076922, 88.66666666666667, 110.0, 34.239999999999995, 3683.1328553932317, -75.69264287958971, False, True, -5.432424738002006, 0.023156728545884415, 1.3166821880967348, 2.490926043538821, 0.8060606060606061, 0.9619094856853672, 0.775357343006993
136.70284528683192, 71.33333333333333, 110.66666666666667, 34.239999999999995, 3683.1328553932317, -10.105036365037957, False, True, -4.751818261926852, 0.03711591480786722, 1.9972886641718894, 3.992489640386447, 0.644578313253012, 1.9163950273854944, 1.2352666742786016
13.355200250259074, 66.0, 110.66666666666667, 34.239999999999995, 3683.1328553932317, 128.55046529615774, False, True, -8.107388019675353, 0.0036260435815403673, -1.3582810935766112, 0.39004673628093095, 0.5963855421686747, 0.2023515189433193, 0.12067952033366633
46.589544189589986, 87.33333333333333, 110.66666666666667, 34.239999999999995, 3683.1328553932317, -1.9920935729664446, False, True, -6.304783411979, 0.01264943351727556, 0.4443235141197403, 1.3606759401165303, 0.789156626506024, 0.5334680632395801, 0.42098985713484927
129.53010075246164, 89.33333333333333, 110.0, 34.239999999999995, 3683.1328553932317, 0.5787255656077621, False, True, -4.829574136504788, 0.03516845735357876, 1.9195327895939527, 3.7830052789854456, 0.8121212121212121, 1.4499638143932274, 1.177546370476924
12.91410298049854, 62.666666666666664, 110.0, 34.239999999999995, 3683.1328553932317, 47.48955292199915, False, True, -8.155842191159323, 0.0035062821482500553, -1.4067352650605816, 0.37716422256128923, 0.5696969696969697, 0.20607611139093418, 0.11740093618635038
71.76621207005914, 70.0, 110.66666666666667, 34.239999999999995, 3683.1328553932317, -102.3515591500302, False, True, -5.68148485275932, 0.01948510001885256, 1.067622073339421, 2.0959758198031295, 0.6325301204819277, 1.0252316010008449, 0.648489868102944
93.43355718407278, 76.66666666666667, 111.33333333333333, 34.239999999999995, 3683.1328553932317, 107.98733465206148, False, True, -5.300848832847764, 0.025367957348390924, 1.4482580932509763, 2.728783796263808, 0.6886227544910181, 1.2186985719661667, 0.8392235675216119
72.74322755127784, 66.0, 110.0, 34.239999999999995, 3683.1328553932317, -102.2647737278924, False, True, -5.6619766895487835, 0.019750367528762785, 1.087130236549957, 2.124510150446199, 0.6, 1.1021701144133007, 0.6613020686479804
147.91316070523118, 105.33333333333333, 110.0, 34.239999999999995, 3683.1328553932317, 66.8709431652166, False, True, -4.638111109726039, 0.040159605019037294, 2.1109958163727014, 4.319893712185491, 0.9575757575757575, 1.4042388674547264, 1.3446650973202834
72.44906016858269, 73.33333333333333, 110.66666666666667, 34.239999999999995, 3683.1328553932317, 138.16388361888076, False, True, -5.667822653016527, 0.019670498733841527, 1.0812842730822134, 2.1159188133347753, 0.6626506024096385, 0.9879417295715822, 0.6546601822462291
94.38497474902331, 62.666666666666664, 110.0, 34.239999999999995, 3683.1328553932317, -72.12130340415865, False, True, -5.286232414229097, 0.025626274819496364, 1.4628745118696442, 2.75657052421213, 0.5696969696969697, 1.5061432140801594, 0.858045224991121
95.04675622050357, 86.0, 110.66666666666667, 34.239999999999995, 3683.1328553932317, 47.72631099390627, False, True, -5.276152236781424, 0.02580595377691198, 1.4729546893173164, 2.7758982541034927, 0.7771084337349398, 1.1051948397732974, 0.8588562309081648
71.76621207005914, 75.33333333333333, 110.66666666666667, 34.239999999999995, 3683.1328553932317, -102.3515591500302, False, True, -5.68148485275932, 0.01948510001885256, 1.067622073339421, 2.0959758198031295, 0.680722891566265, 0.9526488327883957, 0.648489868102944
93.43355718407278, 82.0, 110.66666666666667, 34.239999999999995, 3683.1328553932317, 107.98733465206148, False, True, -5.300848832847764, 0.025367957348390924, 1.4482580932509763, 2.728783796263808, 0.7409638554216867, 1.1394336241960095, 0.8442791311813805
95.78807358704856, 70.66666666666667, 110.0, 34.239999999999995, 3683.1328553932317, -132.03906386583625, False, True, -5.264943588243071, 0.026007227365362495, 1.48416333785567, 2.7975488781264186, 0.6424242424242425, 1.3554916073638945, 0.8708006689731687
147.52231480241133, 76.0, 110.66666666666667, 34.239999999999995, 3683.1328553932317, 67.11487870858359, False, True, -4.641928334273922, 0.04005348723340066, 2.1071785918248187, 4.308478820163883, 0.6867469879518072, 1.9410830895054123, 1.33303296508203
72.53418368376992, 63.333333333333336, 110.66666666666667, 34.239999999999995, 3683.1328553932317, -101.86773189756609, False, True, -5.666128563629757, 0.01969361044838709, 1.082978362468984, 2.1184048973063647, 0.572289156626506, 1.1452765844805777, 0.6554293706364752
146.54092921387908, 70.0, 110.66666666666667, 34.239999999999995, 3683.1328553932317, 89.20057588668246, False, True, -4.651557864023388, 0.039787033204435836, 2.0975490620753527, 4.2798168578819835, 0.6325301204819277, 2.093441845912558, 1.3241650230169797
94.06230218623091, 62.0, 110.0, 34.239999999999995, 3683.1328553932317, -71.34211152588047, False, True, -5.291172985074046, 0.025538666640410476, 1.4579339410246954, 2.7471466759997347, 0.5636363636363636, 1.5171339062295308, 0.8551118380566446
71.87668847618201, 62.0, 110.66666666666667, 34.239999999999995, 3683.1328553932317, 139.04448557418112, False, True, -5.679265685726784, 0.019515095245867274, 1.069841240371957, 2.0992023503557835, 0.5602409638554217, 1.1593014270351938, 0.6494881488811627
175.7023089414956, 102.0, 110.0, 34.239999999999995, 3683.1328553932317, -10.619655276155134, False, True, -4.389728382716512, 0.04770458081201544, 2.35937854338223, 5.131492667683868, 0.9272727272727272, 1.7225716562891726, 1.59729371764996
131.37995096566996, 88.0, 110.66666666666667, 34.239999999999995, 3683.1328553932317, 161.92767785104053, False, True, -4.809116400739895, 0.035670706467536076, 1.9399905253588463, 3.8370312782029785, 0.7951807228915663, 1.4929539882462495, 1.1871682316174996
131.20475154603068, 90.0, 110.66666666666667, 34.239999999999995, 3683.1328553932317, 102.43544150252767, False, True, -4.811041565221828, 0.035623138425187904, 1.9380653608769132, 3.8319144727228593, 0.8132530120481928, 1.4578305727336742, 1.1855851043316024
104.93568556506071, 78.66666666666667, 110.66666666666667, 34.239999999999995, 3683.1328553932317, -47.57073711069054, False, True, -5.1333561531024365, 0.028490877110610553, 1.6157507729963039, 3.064710442904811, 0.7108433734939759, 1.3339282063355173, 0.9482140261903076
132.02436404228214, 104.0, 110.0, 34.239999999999995, 3683.1328553932317, 162.2879879455155, False, True, -4.802057340946544, 0.03584566976696432, 1.9470495851521965, 3.855851753571325, 0.9454545454545454, 1.2694650388680975, 1.200221491293474
131.87218990567587, 86.0, 110.66666666666667, 34.239999999999995, 3683.1328553932317, -76.72673028585695, False, True, -4.803721181518031, 0.03580435327294119, 1.9453857445807095, 3.851407415469506, 0.7771084337349398, 1.5333975570427427, 1.1916161738464686
198.4675603934226, 119.33333333333333, 110.0, 34.239999999999995, 3683.1328553932317, 23.395869840570953, False, True, -4.213958315426572, 0.053885528485024765, 2.5351486106721697, 5.796365665695754, 1.0848484848484847, 1.6631359809504687, 1.8042505490311145
95.20567438844489, 89.33333333333333, 110.66666666666667, 34.239999999999995, 3683.1328553932317, 138.71528910542875, False, True, -5.273742065143826, 0.02584910132933019, 1.4753648609549153, 2.7805395557372927, 0.8072289156626505, 1.0657351610646817, 0.8602922384498032
95.30339354159202, 74.66666666666667, 110.66666666666667, 34.239999999999995, 3683.1328553932317, -77.66091272167381, False, True, -5.2722620416306025, 0.025875632860226244, 1.476844884468138, 2.783393502967057, 0.674698795180723, 1.2763847349320359, 0.8611752428457109
96.3138105633825, 100.0, 110.0, 34.239999999999995, 3683.1328553932317, 66.39053046156253, False, True, -5.257046945005407, 0.026149969155293884, 1.4920599810933342, 2.812903345893181, 0.9090909090909091, 0.9631381056338251, 0.87558009603075
134.44116695899422, 104.66666666666667, 110.66666666666667, 34.239999999999995, 3683.1328553932317, 60.150053210468215, False, True, -4.775886562440866, 0.036501851070110405, 1.9732203636578751, 3.9264359509052054, 0.9457831325301205, 1.2844697480158682, 1.2148298219186224
175.7023089414956, 76.66666666666667, 110.0, 34.239999999999995, 3683.1328553932317, -95.64054943215685, False, True, -4.389728382716512, 0.04770458081201544, 2.35937854338223, 5.131492667683868, 0.696969696969697, 2.291769247062986, 1.59729371764996
133.9304740372889, 98.66666666666667, 110.66666666666667, 34.239999999999995, 3683.1328553932317, 132.59739053101399, False, True, -4.781377269522666, 0.036363193861218925, 1.9677296565760745, 3.9115208538927835, 0.891566265060241, 1.3574034530806305, 1.210215126842972
118.8405808233575, 72.0, 110.66666666666667, 34.239999999999995, 3683.1328553932317, -77.6702503649277, False, True, -4.9538339715964, 0.03226616727912451, 1.7952729545023407, 3.4708113558223572, 0.6506024096385542, 1.650563622546632, 1.0738606700905797
135.1863938896155, 94.66666666666667, 110.66666666666667, 34.239999999999995, 3683.1328553932317, 72.27676338311369, False, True, -4.767911577009101, 0.036704186136446666, 1.9811953490896401, 3.948200756121948, 0.8554216867469879, 1.4280252875663608, 1.2215638002073688
176.25863609981977, 84.0, 110.0, 34.239999999999995, 3683.1328553932317, -59.5581947848013, False, True, -4.385167586343143, 0.04785562808078543, 2.363939339755598, 5.147740540298475, 0.7636363636363637, 2.0983170964264257, 1.6023512372710889
96.3138105633825, 102.66666666666667, 110.0, 34.239999999999995, 3683.1328553932317, 66.39053046156253, False, True, -5.257046945005407, 0.026149969155293884, 1.4920599810933342, 2.812903345893181, 0.9333333333333333, 0.9381215314615179, 0.87558009603075
32.93498903022177, 74.0, 110.66666666666667, 34.239999999999995, 3683.1328553932317, -77.47119229084849, False, True, -6.8051685582374235, 0.008942112685942047, -0.056061632138682434, 0.9618863618639537, 0.6686746987951807, 0.44506741932732125, 0.2976053225622449
97.20041525780891, 108.66666666666667, 110.66666666666667, 34.239999999999995, 3683.1328553932317, 174.80557109226518, False, True, -5.243827150538618, 0.02639068941417028, 1.5052797755601233, 2.838797174585541, 0.9819277108433735, 0.8944823489982415, 0.8783170053416468
33.5641081101697, 88.0, 110.66666666666667, 34.239999999999995, 3683.1328553932317, 65.69545073406329, False, True, -6.7778703212540625, 0.009112923543070566, -0.02876339515532211, 0.980260166768975, 0.7951807228915663, 0.3814103194337466, 0.3032901335256298
95.30339354159202, 92.0, 110.66666666666667, 34.239999999999995, 3683.1328553932317, -77.66091272167381, False, True, -5.2722620416306025, 0.025875632860226244, 1.476844884468138, 2.783393502967057, 0.8313253012048193, 1.0359064515390437, 0.8611752428457109
147.04030066794172, 100.0, 110.0, 34.239999999999995, 3683.1328553932317, 128.78436410029735, False, True, -4.646649911185656, 0.039922616544399096, 2.102457014913085, 4.294401304554373, 0.9090909090909091, 1.4704030066794171, 1.3367300060721974
97.11287424282483, 86.0, 110.0, 34.239999999999995, 3683.1328553932317, 175.1501560982172, False, True, -5.245127061595252, 0.026366921329113044, 1.5039798645034896, 2.8362404860638097, 0.7818181818181819, 1.1292194679398235, 0.8828443112984076
99.43962362987835, 62.0, 110.66666666666667, 34.239999999999995, 3683.1328553932317, -41.378515295882664, False, True, -5.2109687919093455, 0.026998652379391735, 1.5381381341893952, 2.9041946153585974, 0.5602409638554217, 1.6038648972561025, 0.8985508159326357
99.86488409215173, 80.0, 110.0, 34.239999999999995, 3683.1328553932317, 103.04563706294861, False, True, -5.204812161554152, 0.027114113992906617, 1.544294764544589, 2.916614605495086, 0.7272727272727273, 1.2483110511518967, 0.9078625826559248
98.6756161186336, 70.66666666666667, 111.33333333333333, 34.239999999999995, 3683.1328553932317, -112.88353441445696, False, True, -5.2220960056776455, 0.026791218235351556, 1.5270109204210955, 2.881881311875982, 0.6347305389221558, 1.3963530582825507, 0.8863079292092838
136.05361581901397, 72.0, 110.0, 34.239999999999995, 3683.1328553932317, 97.02077914520122, False, True, -4.758686234173642, 0.03693964381974164, 1.9904206919250989, 3.9735284993870907, 0.6545454545454545, 1.8896335530418606, 1.236851052900127
236.52491799313665, 98.0, 110.66666666666667, 34.239999999999995, 3683.1328553932317, -40.479042100418575, False, True, -3.9608693528892074, 0.06421840516743563, 2.7882375732095337, 6.907853913350955, 0.8855421686746987, 2.4135195713585373, 2.1372733553596683
99.86488409215173, 84.66666666666667, 110.0, 34.239999999999995, 3683.1328553932317, -76.9543629370514, False, True, -5.204812161554152, 0.027114113992906617, 1.544294764544589, 2.916614605495086, 0.7696969696969698, 1.179506505025414, 0.9078625826559248
236.78218239408565, 119.33333333333333, 110.66666666666667, 34.239999999999995, 3683.1328553932317, 70.08103650141588, False, True, -3.9593010091576453, 0.06428825450794266, 2.789805916941096, 6.915367476462783, 1.078313253012048, 1.984208232352673, 2.1395980336814966
99.86488409215173, 74.0, 110.0, 34.239999999999995, 3683.1328553932317, 103.04563706294861, False, True, -5.204812161554152, 0.027114113992906617, 1.544294764544589, 2.916614605495086, 0.6727272727272727, 1.349525460704753, 0.9078625826559248
223.99393046218668, 99.33333333333333, 110.66666666666667, 34.239999999999995, 3683.1328553932317, -22.092433165224033, False, True, -4.0394018926797886, 0.06081614192498952, 2.709705033418952, 6.5418788102274155, 0.8975903614457831, 2.2549724543173157, 2.024041540320964
224.73834867552202, 82.0, 110.0, 34.239999999999995, 3683.1328553932317, 70.267310500339, False, True, -4.034615210286431, 0.06101825741812067, 2.714491715812309, 6.563619996364546, 0.7454545454545455, 2.740711569213683, 2.0430758970502003
133.8192832414391, 72.66666666666667, 110.66666666666667, 34.239999999999995, 3683.1328553932317, -93.11698859912019, False, True, -4.782575510900114, 0.036333004671685085, 1.9665314151986268, 3.9082734591541803, 0.6566265060240964, 1.8415497693776024, 1.2092103907358955
173.4394080680589, 97.33333333333333, 110.66666666666667, 34.239999999999995, 3683.1328553932317, 161.93952806380082, False, True, -4.408429794916388, 0.04709018514335985, 2.3406771311823533, 5.06540327301574, 0.8795180722891566, 1.7819117267266327, 1.5672235668800503
149.0791873490982, 86.0, 110.66666666666667, 34.239999999999995, 3683.1328553932317, 6.863691914627042, False, True, -4.626782673076253, 0.0404761905698842, 2.1223242530224877, 4.353948228653569, 0.7771084337349398, 1.7334789226639324, 1.3471010905038994
170.1263704095094, 90.0, 110.0, 34.239999999999995, 3683.1328553932317, -147.84189628417215, False, True, -4.436254749913069, 0.04619066894651721, 2.3128521761856713, 4.968643995604832, 0.8181818181818182, 1.8902930045501045, 1.5466033673591764
216.5638562747845, 116.0, 110.66666666666667, 34.239999999999995, 3683.1328553932317, 127.8749836510982, False, True, -4.088069050503918, 0.058798817413732135, 2.661037875594823, 6.324878979987866, 1.0481927710843373, 1.8669297954722803, 1.9569023157360046
93.00374531202823, 102.0, 110.66666666666667, 34.239999999999995, 3683.1328553932317, -141.28477998415957, False, True, -5.307500812323686, 0.025251259990755514, 1.441606113775055, 2.716230879440077, 0.9216867469879517, 0.9118014246277277, 0.8403952889641104
92.37397104206039, 92.0, 110.0, 34.239999999999995, 3683.1328553932317, 74.49495581768771, False, True, -5.317303238736354, 0.02508027124430135, 1.431803687362386, 2.6978379393125116, 0.8363636363636363, 1.0040649026310913, 0.8397633731096399
91.98494944379598, 81.33333333333333, 110.66666666666667, 34.239999999999995, 3683.1328553932317, -69.19320898728877, False, True, -5.323391800788465, 0.02497464877192847, 1.4257151253102758, 2.686476327213668, 0.7349397590361445, 1.1309624931614262, 0.8311893022029757
94.56907236779975, 82.66666666666667, 110.0, 34.239999999999995, 3683.1328553932317, 38.27564690689035, False, True, -5.283421182506455, 0.025676258794010576, 1.4656857435922854, 2.7619472070034976, 0.7515151515151516, 1.1439807141266098, 0.8597188397072705
93.6063967148385, 72.66666666666667, 110.66666666666667, 34.239999999999995, 3683.1328553932317, -105.75117366345305, False, True, -5.2981825062187875, 0.025414884662053428, 1.4509244198799538, 2.7338316797557978, 0.6566265060240964, 1.2881614226812637, 0.8458409341702273
92.92012391568974, 95.33333333333333, 110.66666666666667, 34.239999999999995, 3683.1328553932317, 110.6806913888171, False, True, -5.308798549751865, 0.02522855611347994, 1.440308376346876, 2.713788665761967, 0.8614457831325301, 0.9746866145002421, 0.8396396739369555
94.05307355735326, 68.66666666666667, 110.66666666666667, 34.239999999999995, 3683.1328553932317, -33.2012075502687, False, True, -5.291314537534327, 0.025536160993929618, 1.4577923885644135, 2.7468771482871865, 0.6204819277108434, 1.3697049547187368, 0.8498771706989752
173.1498822579691, 90.66666666666667, 110.0, 34.239999999999995, 3683.1328553932317, 164.6408963303246, False, True, -4.410840126448515, 0.047011576572489035, 2.338266799650225, 5.056947495851902, 0.8242424242424243, 1.9097413484334826, 1.57408983870881
171.9404650190994, 98.0, 110.66666666666667, 34.239999999999995, 3683.1328553932317, 44.66296989014219, False, True, -4.420952419709029, 0.04668321012839003, 2.328154506389712, 5.0216257306979974, 0.8855421686746987, 1.7544945410112185, 1.5536789007749945
178.60095839218368, 96.0, 110.66666666666667, 34.239999999999995, 3683.1328553932317, 159.87821101843647, False, True, -4.366121710811902, 0.04849158729928987, 2.3829852152868383, 5.216149485753029, 0.8674698795180723, 1.86042664991858, 1.6138640818570815
133.21283576765936, 96.66666666666667, 110.0, 34.239999999999995, 3683.1328553932317, 120.37912601136838, False, True, -4.789128432476994, 0.03616834933678677, 1.9599784936217475, 3.8905617922797715, 0.8787878787878788, 1.3780638182861311, 1.2110257797059942
106.52000000000001, 86.66666666666667, 110.66666666666667, 34.239999999999995, 3683.1328553932317, -90.0, False, True, -5.111737199289274, 0.02892103113902671, 1.6373697268094678, 3.110981308411216, 0.7831325301204819, 1.2290769230769232, 0.9625301204819278
134.94074623793907, 94.0, 110.66666666666667, 34.239999999999995, 3683.1328553932317, 59.905758523554994, False, True, -4.770535487708361, 0.03663749083618979, 1.9785714383903796, 3.941026467229529, 0.8493975903614458, 1.4355398535950965, 1.2193440925114976
133.21283576765936, 83.33333333333333, 110.66666666666667, 34.239999999999995, 3683.1328553932317, -59.62087398863165, False, True, -4.789128432476994, 0.03616834933678677, 1.9599784936217475, 3.8905617922797715, 0.753012048192771, 1.5985540292119125, 1.2037304436836689
198.99897113605024, 104.0, 110.0, 34.239999999999995, 3683.1328553932317, 139.7007484344138, False, True, -4.210100561180284, 0.05402981074784065, 2.539006364918457, 5.811885839253804, 0.9454545454545454, 1.9134516455389448, 1.809081555782275
199.44722892606492, 112.66666666666667, 110.66666666666667, 34.239999999999995, 3683.1328553932317, 19.855214369321057, False, True, -4.206854453859262, 0.05415151631959549, 2.5422524722394795, 5.824977480317318, 1.0180722891566265, 1.7702416768585643, 1.8022339963198637
133.21283576765936, 98.66666666666667, 110.66666666666667, 34.239999999999995, 3683.1328553932317, 120.37912601136838, False, True, -4.789128432476994, 0.03616834933678677, 1.9599784936217475, 3.8905617922797715, 0.891566265060241, 1.3501300922397907, 1.2037304436836689
132.5224875467963, 102.66666666666667, 110.66666666666667, 34.239999999999995, 3683.1328553932317, 0.2850512775838264, False, True, -4.796624343693361, 0.035980914278653534, 1.9524825824053795, 3.8703997531190515, 0.927710843373494, 1.2908034501311327, 1.197492357350569
133.21283576765936, 89.33333333333333, 110.66666666666667, 34.239999999999995, 3683.1328553932317, 120.37912601136838, False, True, -4.789128432476994, 0.03616834933678677, 1.9599784936217475, 3.8905617922797715, 0.8072289156626505, 1.4911884600857392, 1.2037304436836689
296.0539490363003, 110.0, 110.66666666666667, 34.239999999999995, 3683.1328553932317, -13.807519016201312, False, True, -3.637001435085564, 0.08038101275732883, 3.112105491013177, 8.646435427462043, 0.9939759036144578, 2.691399536693639, 2.6751862864725933
199.41923478800757, 78.66666666666667, 110.66666666666667, 34.239999999999995, 3683.1328553932317, 100.97438269675368, False, True, -4.207056962758303, 0.054143915687428136, 2.542049963340438, 5.824159894509568, 0.7108433734939759, 2.5349902727289098, 1.801981037241032
198.99897113605024, 68.0, 110.66666666666667, 34.239999999999995, 3683.1328553932317, -40.299251565586175, False, True, -4.210100561180284, 0.05402981074784065, 2.539006364918457, 5.811885839253804, 0.6144578313253012, 2.9264554578830917, 1.798183474120936
135.52980368599938, 75.33333333333333, 110.66666666666667, 34.239999999999995, 3683.1328553932317, -179.43829466743347, False, True, -4.764251390582012, 0.03679742464015175, 1.9848555355167286, 3.9582302478387676, 0.680722891566265, 1.7990681905221158, 1.2246669007771027
198.68474318292826, 82.66666666666667, 110.0, 34.239999999999995, 3683.1328553932317, 41.206099735126955, False, True, -4.212380439323132, 0.053944495347756215, 2.5367264867756085, 5.802708620996738, 0.7515151515151516, 2.4034444739870353, 1.8062249380266204
199.16155133312165, 87.33333333333333, 110.66666666666667, 34.239999999999995, 3683.1328553932317, -99.46232220802563, False, True, -4.208922374776253, 0.05407395257042881, 2.540184551322488, 5.816634092672946, 0.789156626506024, 2.2804757786235306, 1.7996525722872438
237.8172412543084, 112.0, 110.66666666666667, 34.239999999999995, 3683.1328553932317, 120.8354347320401, False, True, -3.9530082216918663, 0.06456928125904318, 2.7960987044068744, 6.945596999249663, 1.0120481927710843, 2.1233682254848967, 2.1489509751895337
198.68474318292826, 80.66666666666667, 110.66666666666667, 34.239999999999995, 3683.1328553932317, -138.79390026487306, False, True, -4.212380439323132, 0.053944495347756215, 2.5367264867756085, 5.802708620996738, 0.7289156626506024, 2.463034006399937, 1.7953440649059782
189.25047937719748, 102.66666666666667, 110.66666666666667, 34.239999999999995, 3683.1328553932317, -18.083445383048655, False, True, -4.282564578344559, 0.051383017340815434, 2.4665423477541824, 5.527175215455535, 0.927710843373494, 1.8433488251025727, 1.710094693167447
198.04767210929523, 71.33333333333333, 110.66666666666667, 34.239999999999995, 3683.1328553932317, -78.31063082456082, False, True, -4.217013789325241, 0.053771525460802466, 2.5320931367735, 5.784102573285493, 0.644578313253012, 2.7763692351770364, 1.789587398577969
297.8995845840759, 127.33333333333333, 110.66666666666667, 34.239999999999995, 3683.1328553932317, 146.35330550094574, False, True, -3.6280354211753867, 0.08088211755594422, 3.1210715049233544, 8.700338334815303, 1.150602409638554, 2.3395255333827953, 2.691863716121168
236.63800995680347, 96.0, 110.66666666666667, 34.239999999999995, 3683.1328553932317, -118.16085513956612, False, True, -3.960179707912326, 0.06424911053922291, 2.7889272181864144, 6.91115683285057, 0.8674698795180723, 2.4649792703833695, 2.138295270694007
196.5049052304678, 100.0, 110.66666666666667, 34.239999999999995, 3683.1328553932317, 102.2004687273808, False, True, -4.228296206912646, 0.0533526519258529, 2.5208107191860947, 5.739045129394505, 0.9036144578313252, 1.9650490523046782, 1.7756467340102513
229.6005260328155, 90.0, 110.66666666666667, 34.239999999999995, 3683.1328553932317, -58.44286765683037, False, True, -4.003735585605544, 0.062338377421441694, 2.7453713404931968, 6.7056228397434445, 0.8132530120481928, 2.5511169559201723, 2.0747035484892966
236.63800995680347, 97.33333333333333, 110.0, 34.239999999999995, 3683.1328553932317, 61.839144860433905, False, True, -3.960179707912326, 0.06424911053922291, 2.7889272181864144, 6.91115683285057, 0.8848484848484848, 2.4312124310630496, 2.1512546359709406
205.75347716863453, 87.33333333333333, 110.66666666666667, 34.239999999999995, 3683.1328553932317, -100.08059798754232, False, True, -4.161944721008001, 0.05586371310699493, 2.58716220509074, 6.009155291140028, 0.789156626506024, 2.3559558454423803, 1.8592181671864565
290.733028716944, 126.66666666666667, 110.66666666666667, 34.239999999999995, 3683.1328553932317, 134.77442723036597, False, True, -3.663166554839273, 0.078936340374261, 3.085940371259468, 8.491034717200469, 1.144578313253012, 2.295260753028505, 2.6271056811772047
128.64178976460215, 78.66666666666667, 110.66666666666667, 34.239999999999995, 3683.1328553932317, -16.504361381755018, False, True, -4.839502149286181, 0.034927273822401295, 1.9096047768125597, 3.757061616956839, 0.7108433734939759, 1.635276988533078, 1.162425811125923
97.72770138594663, 68.66666666666667, 110.66666666666667, 34.239999999999995, 3683.1328553932317, -142.5785354748598, False, True, -5.23602206884261, 0.02653385181119476, 1.5130848572561308, 2.854196886271806, 0.6204819277108434, 1.4232189522225236, 0.8830816390296382
98.23532623007401, 90.0, 110.66666666666667, 34.239999999999995, 3683.1328553932317, -34.738625282765625, False, True, -5.2285477050072995, 0.02667167601250861, 1.5205592210914411, 2.869022378214779, 0.8132530120481928, 1.0915036247786, 0.887668610512717
126.66353691577902, 111.33333333333333, 110.0, 34.239999999999995, 3683.1328553932317, -160.54367870850092, False, True, -4.86186026247223, 0.03439016236688419, 1.8872466636265113, 3.6992855407645746, 1.012121212121212, 1.1376964393632847, 1.1514866992343546
127.54295783912659, 102.0, 110.66666666666667, 34.239999999999995, 3683.1328553932317, 127.74680538727468, False, True, -4.851878288820267, 0.034628932174511365, 1.8972286372784741, 3.724969563058604, 0.9216867469879517, 1.2504211552855549, 1.1524966069800595
248.75335259710633, 108.0, 110.66666666666667, 34.239999999999995, 3683.1328553932317, 19.520182745142897, False, True, -3.888145563102694, 0.06753852287268308, 2.8609613629960475, 7.2649927744482, 0.9759036144578312, 2.30327178330654, 2.247771258407587
180.59027120874944, 94.0, 110.66666666666667, 34.239999999999995, 3683.1328553932317, 55.79951586973146, False, True, -4.350141359162401, 0.04903170162442284, 2.39896556693634, 5.274248575021889, 0.8493975903614458, 1.9211730979654196, 1.6318398000790613
180.61837414162304, 84.0, 110.66666666666667, 34.239999999999995, 3683.1328553932317, -88.389699397501, False, True, -4.3499168686221275, 0.04903933179525212, 2.3991900574766127, 5.275069338248337, 0.7590361445783133, 2.1502187397812267, 1.6320937422435815
180.34323042674293, 87.33333333333333, 110.66666666666667, 34.239999999999995, 3683.1328553932317, 127.65282982088364, False, True, -4.352116263487647, 0.04896462807814965, 2.3969906626110933, 5.267033598911886, 0.789156626506024, 2.0649988216802626, 1.6296075038561109
173.5943687382041, 76.66666666666667, 110.0, 34.239999999999995, 3683.1328553932317, -75.16006083808709, False, True, -4.407141384276552, 0.04713225820350437, 2.341965541822189, 5.069928993522317, 0.696969696969697, 2.2642743748461402, 1.5781306248927647
173.55305559365235, 102.66666666666667, 110.66666666666667, 34.239999999999995, 3683.1328553932317, 42.65586752593016, False, True, -4.40748476731714, 0.04712104135464939, 2.341622158781601, 5.068722418038913, 0.927710843373494, 1.6904518401979123, 1.5682505023522801
181.08161563830285, 106.66666666666667, 110.66666666666667, 34.239999999999995, 3683.1328553932317, -160.33073233598296, False, True, -4.346221449245371, 0.04916510556309259, 2.40288547685337, 5.2885985875672565, 0.963855421686747, 1.6976401466090891, 1.6362796593822546
174.11637260272462, 105.33333333333333, 110.66666666666667, 34.239999999999995, 3683.1328553932317, 78.8290222564112, False, True, -4.402809663320605, 0.0472739864237493, 2.3462972627781364, 5.08517443349079, 0.9518072289156626, 1.6530035373676388, 1.5733407162896802
229.78330649276992, 102.66666666666667, 110.0, 34.239999999999995, 3683.1328553932317, -70.41078549903672, False, True, -4.0025875413846, 0.062388003776811085, 2.7465193847141403, 6.710961054111272, 0.9333333333333333, 2.2381490892152915, 2.088939149934272
229.6005260328155, 93.33333333333333, 110.66666666666667, 34.239999999999995, 3683.1328553932317, 73.63215439401326, False, True, -4.003735585605544, 0.062338377421441694, 2.7453713404931968, 6.7056228397434445, 0.8433734939759036, 2.4600056360658806, 2.0747035484892966
229.54684442848432, 99.33333333333333, 110.66666666666667, 34.239999999999995, 3683.1328553932317, -142.36107767157793, False, True, -4.004072933436288, 0.06232380243692747, 2.745033992662453, 6.704055035878632, 0.8975903614457831, 2.3108742727699765, 2.074218473751364
228.65633234594523, 89.33333333333333, 110.0, 34.239999999999995, 3683.1328553932317, 1.735704588928389, False, True, -4.009680659650341, 0.06208202129095683, 2.7394262664483997, 6.678047089542794, 0.8121212121212121, 2.5595858098426705, 2.078693930417684
228.14434155004878, 93.33333333333333, 110.66666666666667, 34.239999999999995, 3683.1328553932317, -142.39607655971267, False, True, -4.012914660534033, 0.061943011698851906, 2.736192265564708, 6.663094087326192, 0.8433734939759036, 2.4444036594648084, 2.06154525497032
228.36002425549017, 114.66666666666667, 110.66666666666667, 34.239999999999995, 3683.1328553932317, 73.76295757833077, False, True, -4.011551412267393, 0.06200157127677361, 2.7375555138313477, 6.669393231760812, 1.036144578313253, 1.9915118394374143, 2.0634941950797305
228.50653168115215, 90.0, 110.66666666666667, 34.239999999999995, 3683.1328553932317, -70.52786070403333, False, True, -4.010626128764127, 0.062041349213496, 2.7384807973346144, 6.673672070127108, 0.8132530120481928, 2.538961463123913, 2.0648180573598087
88.52318468107583, 73.33333333333333, 110.66666666666667, 34.239999999999995, 3683.1328553932317, -179.63506366426935, False, True, -5.3787342738413475, 0.024034751977912185, 1.3703726522573931, 2.585373384377215, 0.6626506024096385, 1.207134336560125, 0.7999082953109261
89.77612152457169, 75.33333333333333, 110.66666666666667, 34.239999999999995, 3683.1328553932317, 176.73983936212514, False, True, -5.35845785702577, 0.024374934342406906, 1.390649069072971, 2.62196616602137, 0.680722891566265, 1.1917184273173234, 0.8112300137762501
23.329585556193436, 61.333333333333336, 110.66666666666667, 34.239999999999995, 3683.1328553932317, 147.00229489878373, False, True, -7.3026289493770395, 0.006334168891581469, -0.5535220232782992, 0.681354718346771, 0.5542168674698795, 0.3803736775466321, 0.21080950803789247
90.72113064925136, 83.33333333333333, 110.66666666666667, 34.239999999999995, 3683.1328553932317, -2.8803775528476065, False, True, -5.34335100726772, 0.02463151187077271, 1.405755918831021, 2.6495657315786034, 0.753012048192771, 1.0886535677910165, 0.8197692528546809
115.78068490049634, 104.66666666666667, 110.66666666666667, 34.239999999999995, 3683.1328553932317, -152.87869659584135, False, True, -4.991466936985061, 0.03143538108622882, 1.7576399891136796, 3.381445236579917, 0.9457831325301205, 1.1061848875843598, 1.046211008137015
91.6230917877603, 91.33333333333333, 110.66666666666667, 34.239999999999995, 3683.1328553932317, -63.27490516231601, False, True, -5.329078380943359, 0.02487640152692187, 1.4200285451553825, 2.6759080545490748, 0.825301204819277, 1.0031725378221932, 0.8279195041062678
90.73055241409097, 59.333333333333336, 110.66666666666667, 34.239999999999995, 3683.1328553932317, -63.1130658075233, False, True, -5.343201185197258, 0.02463406995521047, 1.4059057409014835, 2.649840899944246, 0.536144578313253, 1.5291666137206341, 0.8198543892839545
90.49798589741914, 80.66666666666667, 110.66666666666667, 34.239999999999995, 3683.1328553932317, 80.95242800009929, False, True, -5.346903943577203, 0.024570926287631044, 1.402202982521538, 2.64304865354612, 0.7289156626506024, 1.1218758582324686, 0.8177528846152332
91.32613254815976, 88.66666666666667, 110.66666666666667, 34.239999999999995, 3683.1328553932317, -135.0, False, True, -5.333761888076323, 0.024795774720542705, 1.4153450380224182, 2.667235179560741, 0.8012048192771084, 1.029993976107065, 0.8252361374833713
127.28005721290543, 78.66666666666667, 110.66666666666667, 34.239999999999995, 3683.1328553932317, 74.89890183861456, False, True, -4.854855143671382, 0.03455755255380716, 1.8942517824273586, 3.7172913905638274, 0.7108433734939759, 1.6179668289776112, 1.150120998911796
126.79416623813813, 84.66666666666667, 110.0, 34.239999999999995, 3683.1328553932317, -57.12373824778938, False, True, -4.860373163915717, 0.03442562927168721, 1.8887337621830242, 3.703100649478334, 0.7696969696969698, 1.4975688925764346, 1.1526742385285285
127.45111034238539, 88.66666666666667, 110.66666666666667, 34.239999999999995, 3683.1328553932317, 159.0674646348969, False, True, -4.852917590908681, 0.0346039948452465, 1.89618933519006, 3.7222871011210694, 0.8012048192771084, 1.4374185376960757, 1.1516666597203498
126.05534383242548, 96.66666666666667, 110.66666666666667, 34.239999999999995, 3683.1328553932317, 14.89347295884161, False, True, -4.86880425365027, 0.034225033085038443, 1.8803026724484715, 3.6815228923021466, 0.8734939759036144, 1.3040207982664704, 1.1390543117387844
127.83097778779464, 102.66666666666667, 110.0, 34.239999999999995, 3683.1328553932317, -128.79655209830818, False, True, -4.848624040286366, 0.03470713189197371, 1.9004828858123746, 3.733381360624844, 0.9333333333333333, 1.2451069265044932, 1.1620997980708603
175.10981916328114, 104.66666666666667, 110.66666666666667, 34.239999999999995, 3683.1328553932317, -57.74528947313286, False, True, -4.3946015487735535, 0.04754371510299089, 2.354505377325187, 5.1141886437874176, 0.9457831325301205, 1.6730237499676541, 1.582317643041697
136.26862636901865, 104.66666666666667, 110.66666666666667, 34.239999999999995, 3683.1328553932317, 50.9468630539735, False, True, -4.756408089603483, 0.03699802090209148, 1.9926988364952576, 3.979808013113863, 0.9457831325301205, 1.3019295512963565, 1.2313430093586022
103.71175357722566, 73.33333333333333, 110.66666666666667, 34.239999999999995, 3683.1328553932317, 25.820991974189283, False, True, -5.150282129959498, 0.02815856979618858, 1.5988247961392432, 3.0289647656900023, 0.6626506024096385, 1.4142511851439865, 0.9371543997942078
105.1085940953495, 81.33333333333333, 110.66666666666667, 34.239999999999995, 3683.1328553932317, -118.18898107457377, False, True, -5.130980898361611, 0.02853782315819491, 1.6181260277371294, 3.069760341569787, 0.7349397590361445, 1.2923187798608546, 0.9497764526688207
104.05985046939156, 102.66666666666667, 110.66666666666667, 34.239999999999995, 3683.1328553932317, 97.66047533446635, False, True, -5.145447993627387, 0.028253080883850323, 1.6036589324713533, 3.039131146886436, 0.927710843373494, 1.0135699721044633, 0.9402998536390803
86.50709623707388, 79.33333333333333, 110.66666666666667, 34.239999999999995, 3683.1328553932317, 75.42578380196126, False, True, -5.411971144959873, 0.023487367855981916, 1.337135781138868, 2.526492296643513, 0.716867469879518, 1.0904255828202591, 0.7816906286482579
77.86889818512472, 68.66666666666667, 110.66666666666667, 34.239999999999995, 3683.1328553932317, -39.45468269113796, False, True, -5.563742415003969, 0.021142028062088737, 1.1853645110947708, 2.2742084750328484, 0.6204819277108434, 1.1340130803658939, 0.7036346221547414
85.57518491761323, 72.0, 110.66666666666667, 34.239999999999995, 3683.1328553932317, -83.29016319224307, False, True, -5.427597123110016, 0.02323434648638998, 1.3215098029887247, 2.499275260444312, 0.6506024096385542, 1.1885442349668505, 0.7732697432314448
131.87218990567587, 102.66666666666667, 110.0, 34.239999999999995, 3683.1328553932317, 116.69294332965693, False, True, -4.803721181518031, 0.03580435327294119, 1.9453857445807095, 3.851407415469506, 0.9333333333333333, 1.2844693821981414, 1.1988380900515987
22.073851381374183, 53.333333333333336, 110.66666666666667, 34.239999999999995, 3683.1328553932317, 136.78991060824606, False, True, -7.38245125902447, 0.005993227029280609, -0.6333443329257294, 0.6446802389420031, 0.4819277108433735, 0.41388471340076594, 0.19946251248229682
79.11742545180115, 60.666666666666664, 110.0, 34.239999999999995, 3683.1328553932317, -115.69699972733245, False, True, -5.540794147498504, 0.021481013191242633, 1.2083127786002368, 2.310672472307277, 0.5515151515151515, 1.304133386568151, 0.7192493222891014
21.946765949026414, 68.0, 110.66666666666667, 34.239999999999995, 3683.1328553932317, 100.1915018500277, False, True, -7.3907812663484425, 0.005958722318932819, -0.6416743402497018, 0.6409686316888557, 0.6144578313253012, 0.32274655807391783, 0.19831415014180492
78.65938969562163, 73.33333333333333, 110.66666666666667, 34.239999999999995, 3683.1328553932317, -43.34769532234869, False, True, -5.549170635130786, 0.021356652823544025, 1.1999362909679545, 2.2972952598020338, 0.6626506024096385, 1.0726280413039313, 0.7107776177315207
79.01237268414934, 78.66666666666667, 110.66666666666667, 34.239999999999995, 3683.1328553932317, 100.54806541814213, False, True, -5.542711042745404, 0.021452490525409935, 1.2063958833533368, 2.307604342410904, 0.7108433734939759, 1.0043945680188475, 0.7139672230495422
111.57554698481246, 85.33333333333333, 110.0, 34.239999999999995, 3683.1328553932317, -49.05355423183141, False, True, -5.044840653715884, 0.03029365254132274, 1.7042662723828574, 3.2586316292293365, 0.7757575757575758, 1.3075259412282711, 1.014323154407386
