56.16009913255179, 80.0, 116.0, 36.48, 4180.801344107822, -16.189206257026942, False, True, -6.218090201107228, 0.013432855213678251, 0.6224397527551082, 1.5394764016598628, 0.6896551724137931, 0.7020012391568974, 0.4841387856254465
77.61224179774969, 131.33333333333334, 116.66666666666667, 36.48, 4180.801344107822, 163.00917670801385, False, True, -5.751351456365208, 0.018563963080219504, 1.0891784974971277, 2.127528558052349, 1.1257142857142857, 0.590956155820429, 0.6652477868378545
97.92007490635062, 95.33333333333333, 116.0, 36.48, 4180.801344107822, -16.313852426260556, False, True, -5.416031021709229, 0.02342136515152854, 1.4244989321531067, 2.6842125796696994, 0.82183908045977, 1.0271336528638177, 0.8441385767788847
73.51866738880445, 104.0, 116.0, 36.48, 4180.801344107822, 34.992020198558656, False, True, -5.829525067023508, 0.01758482676829823, 1.0110048868388277, 2.0153143472808237, 0.896551724137931, 0.7069102633538888, 0.633781615420728
72.47727170158275, 88.66666666666667, 116.0, 36.48, 4180.801344107822, 148.49573328079583, False, True, -5.850107035054243, 0.01733573679690091, 0.9904229188080934, 1.9867673163811064, 0.764367816091954, 0.8174128387396551, 0.6248040663929547
99.22594600024708, 86.0, 116.66666666666667, 36.48, 4180.801344107822, -59.2645122980799, False, True, -5.3969182717094535, 0.023733714623893898, 1.4436116821528826, 2.720009484655896, 0.7371428571428571, 1.153790069770315, 0.8505081085735463
79.35546211727818, 76.66666666666667, 116.66666666666667, 36.48, 4180.801344107822, 156.80140948635182, False, True, -5.719306154717845, 0.01898092149944344, 1.121223799144491, 2.175314202776266, 0.6571428571428571, 1.0350712450079762, 0.6801896752909558
91.96422502470644, 78.0, 116.0, 36.48, 4180.801344107822, -22.83365417791754, False, True, -5.506562935423607, 0.021996793785553925, 1.3339670184387298, 2.5209491508965582, 0.6724137931034483, 1.1790285259577749, 0.7927950433164348
106.14890541790488, 124.66666666666667, 116.66666666666667, 36.48, 4180.801344107822, 156.29735404903377, False, True, -5.299618093883441, 0.025389607561121023, 1.540911859978895, 2.9097835914995858, 1.0685714285714285, 0.8514618081650124, 0.9098477607248989
153.59683613610076, 114.66666666666667, 174.66666666666666, 36.48, 4180.801344107822, 132.13759477388828, False, True, -4.766559089461319, 0.03673861145126429, 2.073970864401017, 4.210439587064166, 0.6564885496183207, 1.3395072918845996, 0.8793711992524853
145.3975050232989, 139.33333333333334, 174.0, 36.48, 4180.801344107822, -98.42696902148069, False, True, -4.84570507521322, 0.03477742496141647, 1.9948248786491154, 3.985677221033413, 0.8007662835249043, 1.0435227633251116, 0.8356178449614878
57.270564768797655, 86.0, 116.0, 36.48, 4180.801344107822, -47.48955292199915, False, True, -6.18984185281754, 0.013698465929148118, 0.6506881010447966, 1.5699167973902868, 0.7413793103448276, 0.665936799637182, 0.49371176524825566
95.23036833302912, 103.33333333333333, 116.66666666666667, 36.48, 4180.801344107822, 177.27368900609372, False, True, -5.456213970577553, 0.022778018014953345, 1.384315983284782, 2.6104815880764565, 0.8857142857142857, 0.9215842096744754, 0.8162602999973925
31.11689465006151, 73.33333333333333, 116.0, 36.48, 4180.801344107822, -92.2025981617658, False, True, -7.069937591437297, 0.007442806316046528, -0.2294076375749611, 0.8529850507144056, 0.632183908045977, 0.424321290682657, 0.2682490918108751
31.11689465006151, 89.33333333333333, 116.66666666666667, 36.48, 4180.801344107822, -92.2025981617658, False, True, -7.069937591437297, 0.007442806316046528, -0.2294076375749611, 0.8529850507144056, 0.7657142857142857, 0.3483234475753154, 0.26671623985767007
134.61649192526596, 104.0, 116.0, 36.48, 4180.801344107822, 64.9164059938091, False, True, -4.9568524225018935, 0.03219872958445792, 1.8836775313604424, 3.6901450637408435, 0.896551724137931, 1.2943893454352495, 1.160486999355741
30.267903204511526, 74.0, 116.0, 36.48, 4180.801344107822, -144.46232220802563, False, True, -7.109846946793207, 0.007239737244911038, -0.2693169929308716, 0.8297122588956011, 0.6379310344827587, 0.4090257189798855, 0.26093020003889245
39.111405808975206, 75.33333333333333, 116.66666666666667, 36.48, 4180.801344107822, -145.1755108430432, False, True, -6.740046290551947, 0.009355002208869968, 0.10048366331038867, 1.0721328346758556, 0.6457142857142857, 0.5191779532164851, 0.3352406212197875
40.74136322841517, 58.666666666666664, 116.0, 36.48, 4180.801344107822, 129.28940686250039, False, True, -6.681141428884215, 0.009744869434141776, 0.15938852497812192, 1.116813684989451, 0.5057471264367815, 0.694455055029804, 0.3512186485208204
108.98504664870656, 74.0, 116.0, 36.48, 4180.801344107822, -33.340707346477004, False, True, -5.261577385637483, 0.026067980197696725, 1.5789525682248533, 2.9875286910281407, 0.6379310344827587, 1.4727709006581968, 0.9395262642129876
38.25151019566276, 79.33333333333333, 116.0, 36.48, 4180.801344107822, -127.69424046668918, False, True, -6.772118975852941, 0.009149324985166352, 0.06841097800939501, 1.0485611347495276, 0.6839080459770115, 0.48216189322263986, 0.3297543982384721
71.09554484295286, 95.33333333333333, 116.66666666666667, 36.48, 4180.801344107822, 1.5911402711945875, False, True, -5.8778765262539086, 0.01700524349073672, 0.9626534276084275, 1.9488910318791905, 0.8171428571428571, 0.7457574633876175, 0.6093903843681674
62.39139452550906, 112.0, 116.0, 36.48, 4180.801344107822, 124.15969454566944, False, True, -6.066288627539036, 0.014923310004537732, 0.7742413263232999, 1.7102904201071563, 0.9655172413793104, 0.557066022549188, 0.5378568493578367
61.501890511772885, 76.66666666666667, 116.66666666666667, 36.48, 4180.801344107822, -120.37912601136838, False, True, -6.087004925107589, 0.014710550789132823, 0.7535250287547463, 1.6859070863972831, 0.6571428571428571, 0.8021985718926897, 0.5271590615294819
105.92543819998319, 80.66666666666667, 116.0, 36.48, 4180.801344107822, -100.30484646876603, False, True, -5.3026584915187085, 0.02533615675120951, 1.5378714623436271, 2.9036578453942763, 0.6954022988505748, 1.3131252669419402, 0.9131503293101999
39.75202242884298, 66.66666666666667, 116.66666666666667, 36.48, 4180.801344107822, -117.47443162627712, False, True, -6.716607422368269, 0.009508230398190808, 0.1239225314940668, 1.08969359728188, 0.5714285714285714, 0.5962803364326447, 0.3407316208186541
39.75202242884298, 70.66666666666667, 116.0, 36.48, 4180.801344107822, 62.52556837372287, False, True, -6.716607422368269, 0.009508230398190808, 0.1239225314940668, 1.08969359728188, 0.6091954022988506, 0.5625286192760798, 0.3426898485245084
25.45239759298623, 84.66666666666667, 116.66666666666667, 36.48, 4180.801344107822, -174.7528610983836, False, True, -7.359834120086061, 0.006087923222866678, -0.519304166223725, 0.6977082673515963, 0.7257142857142858, 0.3006188692084988, 0.21816340793988195
25.45239759298623, 68.0, 116.0, 36.48, 4180.801344107822, -174.7528610983836, False, True, -7.359834120086061, 0.006087923222866678, -0.519304166223725, 0.6977082673515963, 0.5862068965517241, 0.3742999646027387, 0.21941722062919164
193.70083326952988, 119.33333333333333, 116.0, 36.48, 4180.801344107822, 21.56201347203147, False, True, -4.4318774282833235, 0.04633103018456511, 2.408652525579012, 5.309781613748078, 1.028735632183908, 1.6231913402474571, 1.6698347695649127
60.0061611087573, 56.0, 116.0, 36.48, 4180.801344107822, -111.16125981682828, False, True, -6.122525046898532, 0.014352789374536172, 0.7180049069638037, 1.6449057321479523, 0.4827586206896552, 1.0715385912278088, 0.5172944923168733
59.100592153753425, 89.33333333333333, 116.66666666666667, 36.48, 4180.801344107822, 125.13419305691565, False, True, -6.144463097919819, 0.014136187608398652, 0.6960668559425173, 1.6200820217585918, 0.7657142857142857, 0.6615737927658966, 0.5065765041750293
178.24509548972134, 122.0, 174.0, 36.48, 4180.801344107822, -37.234833981574674, False, True, -4.551845207797256, 0.04263419397836962, 2.2886847460650794, 4.886104591275257, 0.7011494252873564, 1.4610253728665683, 1.0243971005156398
180.59078386784768, 131.33333333333334, 174.66666666666666, 36.48, 4180.801344107822, -173.6598082540901, False, True, -4.532983319177225, 0.04319525588613815, 2.3075466346851115, 4.950405259535299, 0.751908396946565, 1.375056729958231, 1.0339167015334791
103.44861656959957, 74.0, 116.0, 36.48, 4180.801344107822, -32.96940390346213, False, True, -5.336793236479546, 0.024743729265059203, 1.5037367173827894, 2.8357625156140234, 0.6379310344827587, 1.3979542779675618, 0.8917984187034446
10.274608186739258, 48.666666666666664, 116.0, 36.48, 4180.801344107822, 54.78240703180728, False, True, -8.668552304331616, 0.002457569097661072, -1.8280223504692803, 0.2816504437154402, 0.41954022988505746, 0.21112208602888888, 0.0885742085063729
22.454883535012513, 64.0, 116.0, 36.48, 4180.801344107822, -33.02386755579665, False, True, -7.540606443941588, 0.005370952046468105, -0.7000764900792511, 0.6155395705869658, 0.5517241379310345, 0.3508575552345705, 0.19357658219838372
25.832712281827753, 67.33333333333333, 116.66666666666667, 36.48, 4180.801344107822, -148.2405199151872, False, True, -7.338436557519819, 0.006178890158996642, -0.49790660365748385, 0.7081335603571205, 0.5771428571428571, 0.3836541427994221, 0.22142324812995215
25.832712281827753, 70.0, 116.0, 36.48, 4180.801344107822, 31.7594800848128, False, True, -7.338436557519819, 0.006178890158996642, -0.49790660365748385, 0.7081335603571205, 0.603448275862069, 0.3690387468832536, 0.22269579553299787
45.22629362155327, 84.66666666666667, 116.66666666666667, 36.48, 4180.801344107822, 66.03751102542182, False, True, -6.5304739140793755, 0.010817613634116477, 0.31005603978296054, 1.2397558558539823, 0.7257142857142858, 0.5341688223018102, 0.38765394532759945
43.315534829989076, 68.0, 116.0, 36.48, 4180.801344107822, -63.43494882292201, False, True, -6.592751152575946, 0.01036058192313669, 0.24777880128638988, 1.1873775995062796, 0.5862068965517241, 0.6369931592645453, 0.3734097830171472
33.77331251301068, 75.33333333333333, 116.66666666666667, 36.48, 4180.801344107822, 77.00538320808349, False, True, -6.951751996417459, 0.008078191172754195, -0.11122204255512297, 0.9258035228347227, 0.6457142857142857, 0.44831830769483205, 0.28948553582580583
37.040000000000006, 76.0, 116.0, 36.48, 4180.801344107822, -36.86989764584402, False, True, -6.8185515847668405, 0.008859545563484384, 0.021978369095495016, 1.0153508771929827, 0.6551724137931034, 0.4873684210526317, 0.31931034482758625
134.73207977195472, 88.0, 116.0, 36.48, 4180.801344107822, -164.35775354279127, False, True, -4.9556141904044235, 0.032226376879121096, 1.8849157634579123, 3.693313590239987, 0.7586206896551724, 1.5310463610449399, 1.1614834463099544
66.35259813814399, 87.33333333333333, 116.0, 36.48, 4180.801344107822, 50.826342029555775, False, True, -5.977482725717837, 0.01587078473165377, 0.863047228144499, 1.8188760454535087, 0.7528735632183907, 0.7597625741008854, 0.5720051563633103
66.1802170474087, 90.66666666666667, 116.66666666666667, 36.48, 4180.801344107822, -71.56505117707799, False, True, -5.981235660183764, 0.01582955314073443, 0.8592942936785722, 1.8141506866065984, 0.7771428571428571, 0.7299288644934783, 0.5672590032635032
80.19351775261318, 91.33333333333333, 116.0, 36.48, 4180.801344107822, 139.23639479905884, False, True, -5.704150058706214, 0.019181374849497036, 1.1363798951561215, 2.1982872190957563, 0.7873563218390804, 0.8780312162694873, 0.6913234289018377
159.59106965997813, 108.0, 116.66666666666667, 36.48, 4180.801344107822, -40.81508387488159, False, True, -4.711327664472059, 0.038172363746700494, 2.129202289390276, 4.374755199012559, 0.9257142857142857, 1.477695089444242, 1.367923454228384
37.963396990896385, 58.0, 116.66666666666667, 36.48, 4180.801344107822, -25.64100582430528, False, True, -6.783026591884547, 0.009080411592480898, 0.05750336197778947, 1.0406632947065897, 0.4971428571428571, 0.654541327429248, 0.3254005456362547
40.24777358467925, 77.33333333333333, 116.0, 36.48, 4180.801344107822, -147.99461679191648, False, True, -6.69872670453977, 0.009626808420687609, 0.1418032493225654, 1.103283267123883, 0.6666666666666666, 0.520445348077749, 0.346963565385166
27.040000000000006, 46.0, 116.0, 36.48, 4180.801344107822, -73.73979529168804, False, True, -7.272540531744893, 0.006467659612219703, -0.432010577882557, 0.7412280701754388, 0.39655172413793105, 0.5878260869565218, 0.23310344827586213
32.64303025955269, 66.66666666666667, 116.0, 36.48, 4180.801344107822, -24.623564786163612, False, True, -7.000860694146629, 0.0078078405484531994, -0.16033074028429423, 0.8948199084307207, 0.574712643678161, 0.4896454538932903, 0.28140543327200596
32.64303025955269, 67.33333333333333, 116.66666666666667, 36.48, 4180.801344107822, 155.3764352138364, False, True, -7.000860694146629, 0.0078078405484531994, -0.16033074028429423, 0.8948199084307207, 0.5771428571428571, 0.48479747910226767, 0.2797974022247373
68.9131828077456, 67.33333333333333, 116.66666666666667, 36.48, 4180.801344107822, -40.426078740099136, False, True, -5.9228556924218205, 0.016483247381478154, 0.9176742614405158, 1.889067511177237, 0.5771428571428571, 1.0234631110061227, 0.5906844240663909
55.10248474865698, 55.333333333333336, 116.0, 36.48, 4180.801344107822, 128.6598082540901, False, True, -6.2455183073318885, 0.013179885915008904, 0.5950116465304471, 1.5104847792943252, 0.4770114942528736, 0.9958280376263309, 0.4750214202470429
52.642547744860664, 56.666666666666664, 116.66666666666667, 36.48, 4180.801344107822, -127.23483398157467, False, True, -6.311406370394992, 0.01259149703897125, 0.5291235834673447, 1.443052295637628, 0.48571428571428565, 0.9289861366740118, 0.4512218378130914
70.14835055998655, 54.666666666666664, 116.66666666666667, 36.48, 4180.801344107822, -63.43494882292201, False, True, -5.8972265020701276, 0.016778685420882185, 0.9433034517922085, 1.9229262763154211, 0.4685714285714285, 1.2832015346339005, 0.6012715762284562
59.52396129343357, 76.0, 116.66666666666667, 36.48, 4180.801344107822, -151.1134182330893, False, True, -6.134165143003982, 0.014237452678138649, 0.7063648108583536, 1.6316875354559643, 0.6514285714285714, 0.7832100170188628, 0.5102053825151449
56.03612397277679, 96.66666666666667, 116.0, 36.48, 4180.801344107822, 82.87498365109819, False, True, -6.221278515580663, 0.013403201769381088, 0.6192514382816731, 1.5360779597800658, 0.8333333333333334, 0.5796840410976909, 0.4830700342480758
77.34635382444749, 80.0, 116.66666666666667, 36.48, 4180.801344107822, -64.79887635452492, False, True, -5.756302400008377, 0.01850036570942433, 1.0842275538539585, 2.1202399622929686, 0.6857142857142857, 0.9668294228055936, 0.6629687470666927
81.39025105259792, 96.0, 116.0, 36.48, 4180.801344107822, 148.78159723565363, False, True, -5.682779684946903, 0.01946761980626145, 1.1577502689154329, 2.2310924082400745, 0.8275862068965517, 0.8478151151312283, 0.7016400952810166
50.834184031399474, 66.0, 116.66666666666667, 36.48, 4180.801344107822, -46.636577041616725, False, True, -6.361836703160401, 0.012158957062870785, 0.4786932507019343, 1.3934809219133628, 0.5657142857142857, 0.7702149095666587, 0.43572157741199546
84.85318069160131, 99.33333333333333, 116.0, 36.48, 4180.801344107822, -160.76135548309156, False, True, -5.622666943667829, 0.020295913081636478, 1.217863010194507, 2.3260192075548605, 0.8563218390804598, 0.8542266512577313, 0.731492936996563
72.47727170158275, 72.0, 116.66666666666667, 36.48, 4180.801344107822, -58.49573328079582, False, True, -5.850107035054243, 0.01733573679690091, 0.9904229188080934, 1.9867673163811064, 0.6171428571428571, 1.0066287736330937, 0.6212337574421378
60.0061611087573, 74.0, 116.0, 36.48, 4180.801344107822, 74.29136217098426, False, True, -6.122525046898532, 0.014352789374536172, 0.7180049069638037, 1.6449057321479523, 0.6379310344827587, 0.8108940690372608, 0.5172944923168733
98.0604666114556, 75.33333333333333, 116.66666666666667, 36.48, 4180.801344107822, -79.21570213243741, False, True, -5.41396405679716, 0.02345494524624001, 1.4265658970651758, 2.688061036498235, 0.6457142857142857, 1.3016876098865788, 0.8405182852410479
68.46135623730952, 74.66666666666667, 116.66666666666667, 36.48, 4180.801344107822, -8.130102354155978, False, True, -5.93234581056939, 0.016375175618854737, 0.9081841432929467, 1.876681914399932, 0.64, 0.916893163892538, 0.5868116248912244
110.48754018519845, 77.33333333333333, 116.0, 36.48, 4180.801344107822, 131.6854141793565, False, True, -5.241823904169139, 0.02642735951587682, 1.598706049693197, 3.028715465603028, 0.6666666666666666, 1.42871819204998, 0.9524787946999866
68.46135623730952, 69.33333333333333, 116.66666666666667, 36.48, 4180.801344107822, -8.130102354155978, False, True, -5.93234581056939, 0.016375175618854737, 0.9081841432929467, 1.876681914399932, 0.5942857142857142, 0.9874234072688873, 0.5868116248912244
127.51942537826669, 94.66666666666667, 116.0, 36.48, 4180.801344107822, -118.61045966596521, False, True, -5.034990555023061, 0.03050119220756211, 1.8055393988392743, 3.4955982833954686, 0.8160919540229885, 1.3470361835732396, 1.0993053911919541
74.22695594379279, 80.66666666666667, 116.0, 36.48, 4180.801344107822, -42.797401838234194, False, True, -5.815692478403569, 0.01775424131271005, 1.0248374754587672, 2.034730151968004, 0.6954022988505748, 0.9201688753362742, 0.639887551239593
87.05562423713506, 97.33333333333333, 116.0, 36.48, 4180.801344107822, 83.54118362128135, False, True, -5.585698177023214, 0.020822712459138054, 1.2548317768391224, 2.386393208254799, 0.8390804597701149, 0.8944070983267302, 0.750479519285647
79.35546211727818, 86.0, 116.66666666666667, 36.48, 4180.801344107822, 150.0684881594922, False, True, -5.719306154717845, 0.01898092149944344, 1.121223799144491, 2.175314202776266, 0.7371428571428571, 0.9227379315962579, 0.6801896752909558
96.81926846349644, 86.66666666666667, 116.0, 36.48, 4180.801344107822, 13.626994859891541, False, True, -5.432341489683398, 0.023158064804956083, 1.4081884641789382, 2.654036964459881, 0.7471264367816093, 1.1171454053480359, 0.8346488660646245
52.32367810692661, 55.333333333333336, 116.0, 36.48, 4180.801344107822, 106.69924423399362, False, True, -6.320171724331144, 0.012515227058245319, 0.5203582295311922, 1.4343113516153128, 0.4770114942528736, 0.9456086404866254, 0.4510661905769535
16.4827190999916, 40.0, 116.66666666666667, 36.48, 4180.801344107822, -26.56505117707799, False, True, -7.986681424552147, 0.0039424784253911955, -1.1461514706898115, 0.45182892269713815, 0.34285714285714286, 0.41206797749978996, 0.1412804494284994
52.32367810692661, 65.33333333333333, 116.0, 36.48, 4180.801344107822, 106.69924423399362, False, True, -6.320171724331144, 0.012515227058245319, 0.5203582295311922, 1.4343113516153128, 0.5632183908045977, 0.8008726240856114, 0.4510661905769535
105.2533552795637, 87.33333333333333, 116.0, 36.48, 4180.801344107822, -99.03948280335514, False, True, -5.311841364040768, 0.02517540218166588, 1.528688589821569, 2.8852345197248828, 0.7528735632183907, 1.2051910909873707, 0.9073565110307216
39.111405808975206, 58.0, 116.0, 36.48, 4180.801344107822, 145.1755108430432, False, True, -6.740046290551947, 0.009355002208869968, 0.10048366331038867, 1.0721328346758556, 0.5, 0.6743345829133657, 0.33716729145668284
95.80018487783191, 61.333333333333336, 116.0, 36.48, 4180.801344107822, -58.57043438516149, False, True, -5.4476072432482745, 0.022914311633784542, 1.392922710614061, 2.626101559151094, 0.5287356321839081, 1.5619595360516072, 0.8258636627399303
123.20319736382767, 80.0, 116.66666666666667, 36.48, 4180.801344107822, -129.20720350496785, False, True, -5.084667891202267, 0.029468799692542933, 1.7558620626600687, 3.3772806294908904, 0.6857142857142857, 1.540039967047846, 1.0560274059756658
74.5527113166862, 84.0, 116.66666666666667, 36.48, 4180.801344107822, 77.47119229084849, False, True, -5.809374862284732, 0.01783215828270732, 1.0311550915776049, 2.0436598496898633, 0.72, 0.8875322775795976, 0.6390232398573102
122.0579478919825, 82.0, 116.0, 36.48, 4180.801344107822, -64.48612957246577, False, True, -5.098141348163809, 0.029194869080302957, 1.7423886056985276, 3.345886729495134, 0.7068965517241379, 1.4885115596583232, 1.052223688723987
83.04, 74.0, 116.0, 36.48, 4180.801344107822, -90.0, False, True, -5.6538292396691965, 0.019862220939301924, 1.1867007141931394, 2.2763157894736845, 0.6379310344827587, 1.1221621621621622, 0.7158620689655173
93.94116836020054, 90.66666666666667, 116.66666666666667, 36.48, 4180.801344107822, 45.97102193107917, False, True, -5.475878146646176, 0.022469656084615392, 1.3646518072161598, 2.5751416765405852, 0.7771428571428571, 1.0361158275022118, 0.8052100145160046
121.85273059017474, 91.33333333333333, 116.0, 36.48, 4180.801344107822, -160.8209919741893, False, True, -5.100569007791718, 0.029145783442187916, 1.7399609460706187, 3.340261255213124, 0.7873563218390804, 1.3341539845639572, 1.0504545740532305
104.66882648939615, 94.0, 116.66666666666667, 36.48, 4180.801344107822, 125.8376529542783, False, True, -5.319875760017626, 0.02503558956153473, 1.52065419384471, 2.869211252450553, 0.8057142857142857, 1.1134981541425122, 0.8971613699091099
108.14770276274835, 110.66666666666667, 116.0, 36.48, 4180.801344107822, 6.340191745909909, False, True, -5.2727045680967395, 0.025867697089976646, 1.5678253857655968, 2.9645751853823565, 0.9540229885057472, 0.9772382779766416, 0.9323077824374858
159.0744801963708, 112.0, 116.66666666666667, 36.48, 4180.801344107822, -144.1178627537958, False, True, -4.716005181138158, 0.03804880143864313, 2.1245247727241776, 4.360594303628586, 0.96, 1.420307858896168, 1.3634955445403212
113.14212250267325, 97.33333333333333, 116.66666666666667, 36.48, 4180.801344107822, -33.60467894610716, False, True, -5.207571447725722, 0.027062305331041182, 1.6329585061366134, 3.1014836212355608, 0.8342857142857142, 1.1624190668082868, 0.969789621451485
20.67759928575701, 68.66666666666667, 116.0, 36.48, 4180.801344107822, 70.01689347810003, False, True, -7.659566988020896, 0.004945845923748283, -0.8190370341585606, 0.5668201558595672, 0.5919540229885057, 0.30113008668578173, 0.17825516625652596
36.29200226998131, 84.66666666666667, 116.66666666666667, 36.48, 4180.801344107822, 113.74949449286677, False, True, -6.847984029267896, 0.008680633037283425, -0.007454075405559863, 0.9948465534534351, 0.7257142857142858, 0.4286456961021414, 0.3110743051712684
32.03523798725351, 85.33333333333333, 116.0, 36.48, 4180.801344107822, 72.25532837494306, False, True, -7.027975975155464, 0.007662463568713235, -0.1874460212931278, 0.8781589360540984, 0.735632183908046, 0.37541294516312707, 0.27616584471770267
208.4080863211036, 102.0, 116.0, 36.48, 4180.801344107822, -75.17352002964434, False, True, -4.326296332602917, 0.049848837380140495, 2.514233621259419, 5.712940962749551, 0.8793103448275862, 2.0432165325598395, 1.7966214338026174
91.96422502470644, 70.66666666666667, 116.0, 36.48, 4180.801344107822, 129.0938588862295, False, True, -5.506562935423607, 0.021996793785553925, 1.3339670184387298, 2.5209491508965582, 0.6091954022988506, 1.3013805428024494, 0.7927950433164348
115.84677953929516, 85.33333333333333, 116.66666666666667, 36.48, 4180.801344107822, -53.61564818416411, False, True, -5.173489649646213, 0.027709228447929692, 1.6670403042161224, 3.1756244391254156, 0.7314285714285713, 1.3575794477261152, 0.9929723960511013
119.08166214652486, 105.33333333333333, 116.0, 36.48, 4180.801344107822, 91.19348942398204, False, True, -5.1337563244543665, 0.028482975474152013, 1.7067736294079696, 3.2642999491920195, 0.9080459770114943, 1.1305221089859956, 1.0265660529872833
139.37935103979197, 72.0, 116.66666666666667, 36.48, 4180.801344107822, -86.76029970389789, False, True, -4.906690745772573, 0.03333795116484669, 1.9338392080897633, 3.82070589473114, 0.6171428571428571, 1.9358243199971108, 1.1946801517696455
99.73626515938322, 62.666666666666664, 116.0, 36.48, 4180.801344107822, -76.6075022462489, False, True, -5.3895175041931465, 0.023855777146633794, 1.4510124496691899, 2.7339984966936193, 0.5402298850574713, 1.5915361461603705, 0.8597953893050277
79.35546211727818, 75.33333333333333, 116.66666666666667, 36.48, 4180.801344107822, -119.9315118405078, False, True, -5.719306154717845, 0.01898092149944344, 1.121223799144491, 2.175314202776266, 0.6457142857142857, 1.0533910900523653, 0.6801896752909558
130.76530525194948, 90.0, 116.0, 36.48, 4180.801344107822, 133.40885972880542, False, True, -4.998727773792585, 0.03127756965449757, 1.8418021800697506, 3.5845752536170368, 0.7758620689655172, 1.4529478361327721, 1.1272871142409437
80.14127367203712, 64.66666666666667, 116.0, 36.48, 4180.801344107822, -56.725112015165074, False, True, -5.705090244899875, 0.019168878661260373, 1.1354397089624613, 2.196855089694, 0.5574712643678161, 1.2392980464748007, 0.6908730488968717
94.5631327309754, 98.66666666666667, 116.66666666666667, 36.48, 4180.801344107822, 123.31063082456079, False, True, -5.466357852792666, 0.02261842286867975, 1.3741721010696706, 2.5921911384587557, 0.8457142857142858, 0.958410129030156, 0.8105411376940748
112.33975715040752, 82.0, 116.0, 36.48, 4180.801344107822, -57.33908727832619, False, True, -5.217838999179831, 0.02687038868965459, 1.6226909546825048, 3.079488956973891, 0.7068965517241379, 1.3699970384196039, 0.9684461823310994
111.43088914585776, 84.66666666666667, 116.66666666666667, 36.48, 4180.801344107822, -49.39870535499554, False, True, -5.229558378776726, 0.026652997828490937, 1.6109715750856095, 3.054574812112329, 0.7257142857142858, 1.3161128639274537, 0.9551219069644951
109.86231811242304, 99.33333333333333, 116.0, 36.48, 4180.801344107822, 100.08059798754232, False, True, -5.250010950092111, 0.02627781352664761, 1.5905190037702253, 3.011576702643176, 0.8563218390804598, 1.1059964910646616, 0.9470889492450262
134.9245833629805, 83.33333333333333, 116.0, 36.48, 4180.801344107822, -120.01836742760909, False, True, -4.953554356094554, 0.03227242154261536, 1.8869755977677818, 3.698590552713282, 0.7183908045977011, 1.6190950003557663, 1.1631429600256942
78.7403625572464, 105.33333333333333, 116.0, 36.48, 4180.801344107822, 114.5377284765778, False, True, -5.730532328013869, 0.018833796699816528, 1.1099976258484678, 2.1584529209771492, 0.9080459770114943, 0.7475350875687949, 0.6787962289417793
55.60126943990558, 76.66666666666667, 116.0, 36.48, 4180.801344107822, -5.355825042855191, False, True, -6.232517861679702, 0.013299189524579246, 0.6080120921826334, 1.5241576052605696, 0.6609195402298851, 0.7252339492161597, 0.4793212882750481
58.06671483327359, 60.666666666666664, 116.0, 36.48, 4180.801344107822, 121.26373169437743, False, True, -6.169924268539341, 0.013888895944579965, 0.6706056853229949, 1.591741086438421, 0.5229885057471264, 0.9571436510979164, 0.5005751278730483
103.0854486773231, 76.66666666666667, 116.66666666666667, 36.48, 4180.801344107822, -88.69804732742112, False, True, -5.341866889163137, 0.024656863647110554, 1.4986630646991987, 2.8258072554090763, 0.6571428571428571, 1.344592808834649, 0.8835895600913408
97.2163790894612, 90.66666666666667, 116.0, 36.48, 4180.801344107822, 60.42216131873867, False, True, -5.426436282698282, 0.023253049137690388, 1.4140936711640535, 2.6649226724084762, 0.7816091954022989, 1.0722394752514102, 0.838072233529838
137.56315787105228, 109.33333333333333, 116.0, 36.48, 4180.801344107822, -38.829824904970394, False, True, -4.9256134489148335, 0.032903538472337554, 1.9149165049475028, 3.770919897781039, 0.9425287356321839, 1.2581996146742587, 1.18588929199183
116.10083676954359, 96.0, 116.0, 36.48, 4180.801344107822, 173.92754359279232, False, True, -5.170329218350629, 0.02776999603991454, 1.6702007355117066, 3.182588727235296, 0.8275862068965517, 1.2093837163494123, 1.0008692824960654
130.13603639657765, 97.33333333333333, 116.66666666666667, 36.48, 4180.801344107822, 32.12499844038753, False, True, -5.005687069683458, 0.031127055721024345, 1.834842884178878, 3.5673255591167123, 0.8342857142857142, 1.3370140725675788, 1.115451740542094
43.315534829989076, 64.66666666666667, 116.0, 36.48, 4180.801344107822, -130.8150838748816, False, True, -6.592751152575946, 0.01036058192313669, 0.24777880128638988, 1.1873775995062796, 0.5574712643678161, 0.6698278581957073, 0.3734097830171472
35.85176406988356, 84.66666666666667, 116.66666666666667, 36.48, 4180.801344107822, -53.9726266148964, False, True, -6.8655915755324095, 0.00857533308068104, -0.025061621670074016, 0.9827786203367204, 0.7257142857142858, 0.42344603232145933, 0.3073008348847162
103.44861656959957, 100.66666666666667, 116.0, 36.48, 4180.801344107822, 86.09950625761812, False, True, -5.336793236479546, 0.024743729265059203, 1.5037367173827894, 2.8357625156140234, 0.867816091954023, 1.0276352639364195, 0.8917984187034446
43.315534829989076, 54.0, 116.0, 36.48, 4180.801344107822, -139.18491612511843, False, True, -6.592751152575946, 0.01036058192313669, 0.24777880128638988, 1.1873775995062796, 0.46551724137931033, 0.8021395338886866, 0.3734097830171472
40.74136322841517, 73.33333333333333, 116.0, 36.48, 4180.801344107822, 140.71059313749964, False, True, -6.681141428884215, 0.009744869434141776, 0.15938852497812192, 1.116813684989451, 0.632183908045977, 0.5555640440238432, 0.3512186485208204
108.28017214734707, 90.66666666666667, 116.66666666666667, 36.48, 4180.801344107822, -22.03622694014545, False, True, -5.27093850216669, 0.025899382255976083, 1.5695914516956462, 2.968206473337365, 0.7771428571428571, 1.194266604566328, 0.9281157612629749
55.849937504836944, 76.0, 116.0, 36.48, 4180.801344107822, -126.15818543980834, False, True, -6.226080017007559, 0.013358668089682998, 0.614449936854776, 1.5309741640580303, 0.6551724137931034, 0.7348675987478546, 0.48146497848997366
56.03612397277679, 110.0, 116.0, 36.48, 4180.801344107822, 60.25511870305779, False, True, -6.221278515580663, 0.013403201769381088, 0.6192514382816731, 1.5360779597800658, 0.9482758620689655, 0.5094193088434253, 0.4830700342480758
224.36137494637012, 194.0, 232.66666666666666, 36.48, 4180.801344107822, -42.27368900609373, False, True, -4.219883259098049, 0.05366468207406506, 2.620646694764287, 6.150256988661462, 0.833810888252149, 1.156501932713248, 0.9643039037809604
54.85236246936367, 86.66666666666667, 116.0, 36.48, 4180.801344107822, -69.86369657175186, False, True, -6.252081925098662, 0.013120059518414908, 0.5884480287636734, 1.5036283571645743, 0.7471264367816093, 0.6329118746465039, 0.47286519370141095
54.85236246936367, 88.0, 116.0, 36.48, 4180.801344107822, -110.13630342824814, False, True, -6.252081925098662, 0.013120059518414908, 0.5884480287636734, 1.5036283571645743, 0.7586206896551724, 0.6233223007882235, 0.47286519370141095
58.61507362718821, 89.33333333333333, 116.66666666666667, 36.48, 4180.801344107822, -19.53665493812839, False, True, -6.1563639632441465, 0.014020057114121647, 0.6841659906181892, 1.606772851622484, 0.7657142857142857, 0.6561388838864353, 0.5024149168044704
104.57872816937719, 92.0, 116.0, 36.48, 4180.801344107822, 112.5205656028969, False, True, -5.321118158359904, 0.025014039070946136, 1.519411795502432, 2.8667414520114365, 0.7931034482758621, 1.1367253061888825, 0.9015407600808378
111.21383093154141, 92.66666666666667, 116.66666666666667, 36.48, 4180.801344107822, -92.48955292199915, False, True, -5.23237137078013, 0.026601079979147946, 1.608158583082206, 3.0486247514128677, 0.7942857142857143, 1.2001492546569217, 0.9532614079846407
99.73626515938322, 77.33333333333333, 116.0, 36.48, 4180.801344107822, 103.3924977537511, False, True, -5.3895175041931465, 0.023855777146633794, 1.4510124496691899, 2.7339984966936193, 0.6666666666666666, 1.2896930839575418, 0.8597953893050277
40.177084989847614, 81.33333333333333, 116.66666666666667, 36.48, 4180.801344107822, 81.86989764584403, False, True, -6.7012627888619605, 0.009609900514998364, 0.13926716500037561, 1.1013455315199456, 0.6971428571428571, 0.49398055315386413, 0.3443750141986938
84.62172482873767, 64.66666666666667, 116.0, 36.48, 4180.801344107822, -66.03751102542182, False, True, -5.6266075911887405, 0.02024055147896434, 1.2139223626735958, 2.319674474471976, 0.5574712643678161, 1.3085833736402732, 0.7294976278339455
106.68409258308496, 86.0, 116.66666666666667, 36.48, 4180.801344107822, 78.43986920578224, False, True, -5.292362513181164, 0.02551761822729016, 1.5481674406811716, 2.9244542922994783, 0.7371428571428571, 1.2405127044544764, 0.9144350792835854
94.08490414256882, 104.66666666666667, 116.0, 36.48, 4180.801344107822, -163.30075576600638, False, True, -5.473672421258688, 0.022504036044469468, 1.366857532603648, 2.5790818021537505, 0.9022988505747127, 0.8989003580500206, 0.8110767598497312
97.1223330037544, 101.33333333333333, 116.0, 36.48, 4180.801344107822, -48.81407483429035, False, True, -5.427832605958783, 0.023230554386573034, 1.4126973479035532, 2.66234465470818, 0.8735632183908045, 0.9584440756949448, 0.8372614914116759
109.46806801586207, 122.66666666666667, 116.66666666666667, 36.48, 4180.801344107822, 74.74488129694222, False, True, -5.255197493387017, 0.02618351339992272, 1.5853324604753192, 3.000769408329553, 1.0514285714285714, 0.8924027283901799, 0.9382977258502463
84.82466338652817, 105.33333333333333, 116.0, 36.48, 4180.801344107822, -149.53445508054014, False, True, -5.623151883528061, 0.02028909206749924, 1.2173780703342745, 2.3252374831833382, 0.9080459770114943, 0.8052974372138751, 0.7312470981597257
100.1064612222715, 76.66666666666667, 116.66666666666667, 36.48, 4180.801344107822, -56.309932474020215, False, True, -5.384172494698335, 0.023944323822837392, 1.4563574591640007, 2.744146415084197, 0.6571428571428571, 1.3057364507252804, 0.8580553819051843
58.61507362718821, 80.0, 116.66666666666667, 36.48, 4180.801344107822, -70.46334506187162, False, True, -6.1563639632441465, 0.014020057114121647, 0.6841659906181892, 1.606772851622484, 0.6857142857142857, 0.7326884203398526, 0.5024149168044704
58.06671483327359, 66.0, 116.0, 36.48, 4180.801344107822, 12.339087278326195, False, True, -6.169924268539341, 0.013888895944579965, 0.6706056853229949, 1.591741086438421, 0.5689655172413793, 0.8797987095950545, 0.5005751278730483
60.0061611087573, 81.33333333333333, 116.66666666666667, 36.48, 4180.801344107822, 136.21887523513132, False, True, -6.122525046898532, 0.014352789374536172, 0.7180049069638037, 1.6449057321479523, 0.6971428571428571, 0.7377806693699668, 0.5143385237893482
96.839882214329, 73.33333333333333, 116.0, 36.48, 4180.801344107822, -74.98163936884933, False, True, -5.4320343587669555, 0.02316299537905801, 1.4084955950953806, 2.654602034384019, 0.632183908045977, 1.3205438483772136, 0.834826570813181
62.39139452550906, 86.66666666666667, 116.0, 36.48, 4180.801344107822, -55.84030545433057, False, True, -6.066288627539036, 0.014923310004537732, 0.7742413263232999, 1.7102904201071563, 0.7471264367816093, 0.719900706063566, 0.5378568493578367
73.02630072715728, 84.0, 116.66666666666667, 36.48, 4180.801344107822, -80.53767779197439, False, True, -5.83921953313961, 0.017467058278211735, 1.001310420722726, 2.001817454143566, 0.72, 0.8693607229423486, 0.6259397205184909
48.958005233025375, 88.0, 116.0, 36.48, 4180.801344107822, 131.0090869015702, False, True, -6.416090905952261, 0.01171019649188162, 0.4244390479100746, 1.3420505820456519, 0.7586206896551724, 0.5563409685571066, 0.42205176925021876
47.10664815842908, 92.0, 116.0, 36.48, 4180.801344107822, 1.9091524329963763, False, True, -6.47170500169344, 0.011267372994131483, 0.36882495216889666, 1.2913006622376395, 0.7931034482758621, 0.5120287843307508, 0.4060917944692162
65.19932831336435, 75.33333333333333, 116.66666666666667, 36.48, 4180.801344107822, -112.10944834375168, False, True, -6.002778581546211, 0.01559493574246298, 0.8377513723161245, 1.787262289291786, 0.6457142857142857, 0.8654778094694383, 0.558851385543123
111.43088914585776, 109.33333333333333, 116.0, 36.48, 4180.801344107822, 93.73139699916047, False, True, -5.229558378776726, 0.026652997828490937, 1.6109715750856095, 3.054574812112329, 0.9425287356321839, 1.0191849616999187, 0.9606111133263601
73.02630072715728, 110.0, 116.0, 36.48, 4180.801344107822, 9.462322208025617, False, True, -5.83921953313961, 0.017467058278211735, 1.001310420722726, 2.001817454143566, 0.9482758620689655, 0.6638754611559753, 0.6295370752341145
89.12639671483849, 77.33333333333333, 116.0, 36.48, 4180.801344107822, -105.75117366345305, False, True, -5.5517829029132955, 0.021318017618906494, 1.2887470509490406, 2.443157804683073, 0.6666666666666666, 1.1524965092436013, 0.7683310061624008
47.372871651930595, 72.66666666666667, 116.0, 36.48, 4180.801344107822, -111.44773632710537, False, True, -6.463574555409605, 0.011331050617531771, 0.37695539845273046, 1.2985984553709047, 0.6264367816091955, 0.651920252090788, 0.4083868245856086
163.07389587091086, 174.66666666666666, 232.66666666666666, 36.48, 4180.801344107822, -90.97102193107916, False, True, -4.680181728019907, 0.03900541605516314, 2.1603482258424296, 4.470227408742074, 0.7507163323782234, 0.9336291748334592, 0.7008906699322817
166.30554285981088, 161.33333333333334, 232.66666666666666, 36.48, 4180.801344107822, 141.7889745744388, False, True, -4.651871334927021, 0.03977838915838282, 2.1886586189353157, 4.558814223130781, 0.6934097421203439, 1.0308194805360178, 0.714780270171107
51.10449935416659, 78.66666666666667, 116.0, 36.48, 4180.801344107822, 1.8476102659945959, False, True, -6.354185368519408, 0.01222361340516461, 0.48634458534292835, 1.4008908814190404, 0.67816091954023, 0.6496334663665244, 0.4405560289152292
52.57883861180173, 94.0, 116.66666666666667, 36.48, 4180.801344107822, -120.65066795705286, False, True, -6.3131534080408125, 0.012576258540938159, 0.5273765458215238, 1.4413058829989511, 0.8057142857142857, 0.5593493469340609, 0.4506757595297291
30.267903204511526, 66.66666666666667, 116.66666666666667, 36.48, 4180.801344107822, -54.46232220802562, False, True, -7.109846946793207, 0.007239737244911038, -0.2693169929308716, 0.8297122588956011, 0.5714285714285714, 0.4540185480676729, 0.2594391703243845
71.09554484295286, 117.33333333333333, 116.66666666666667, 36.48, 4180.801344107822, 1.5911402711945875, False, True, -5.8778765262539086, 0.01700524349073672, 0.9626534276084275, 1.9488910318791905, 1.0057142857142856, 0.6059279390024391, 0.6093903843681674
187.16304780622573, 164.0, 232.66666666666666, 36.48, 4180.801344107822, -178.23760897633952, False, True, -4.481411961296784, 0.04476726646435914, 2.3591179925655514, 5.130566003460135, 0.7048710601719198, 1.1412380963794253, 0.8044257069035491
208.77746644704536, 200.66666666666666, 232.66666666666666, 36.48, 4180.801344107822, 51.34019174590991, False, True, -4.323741579632112, 0.04993718889353214, 2.5167883742302237, 5.723066514447516, 0.8624641833810888, 1.0404192680085318, 0.8973243543569285
36.218752511649456, 86.0, 116.0, 36.48, 4180.801344107822, -118.44292862436335, False, True, -6.8508988271997975, 0.008663112530494677, -0.010368873337461572, 0.9928386105167066, 0.7413793103448276, 0.4211482850191797, 0.3122306251004263
34.743296142690085, 82.66666666666667, 116.0, 36.48, 4180.801344107822, 121.32869286780416, False, True, -6.9109010524274, 0.008310200194432883, -0.07037109856506454, 0.9523929863676011, 0.7126436781609196, 0.4202818081777026, 0.29951117364388
177.3837636531016, 154.0, 232.66666666666666, 36.48, 4180.801344107822, -77.07400087529405, False, True, -4.558833626015375, 0.042428173226430846, 2.2816963278469613, 4.862493521192478, 0.66189111747851, 1.1518426211240362, 0.7623943996551645
177.3837636531016, 153.33333333333334, 232.66666666666666, 36.48, 4180.801344107822, 102.92599912470597, False, True, -4.558833626015375, 0.042428173226430846, 2.2816963278469613, 4.862493521192478, 0.6590257879656161, 1.1568506325202277, 0.7623943996551645
204.74487932335654, 151.33333333333334, 232.66666666666666, 36.48, 4180.801344107822, -131.49646835521554, False, True, -4.351880218013935, 0.04897264004469192, 2.488649735848401, 5.612524104258678, 0.6504297994269341, 1.352939731211607, 0.8799923180086958
35.040000000000006, 88.0, 116.0, 36.48, 4180.801344107822, 0.0, False, True, -6.8986329084259035, 0.008381168373231449, -0.05810295456356795, 0.9605263157894739, 0.7586206896551724, 0.39818181818181825, 0.30206896551724144
95.04, 70.66666666666667, 116.66666666666667, 36.48, 4180.801344107822, -90.0, False, True, -5.459100847226312, 0.022732484080819543, 1.3814291066360243, 2.605263157894737, 0.6057142857142858, 1.3449056603773586, 0.8146285714285715
44.68352935882194, 75.33333333333333, 116.66666666666667, 36.48, 4180.801344107822, -107.81888891452279, False, True, -6.547892540798564, 0.010687790612628919, 0.2926374130637716, 1.2248774495291104, 0.6457142857142857, 0.5931441950286099, 0.3830016802184738
61.144436913921695, 91.33333333333333, 116.0, 36.48, 4180.801344107822, 17.354024636261325, False, True, -6.095414438934362, 0.014625051965239895, 0.7451155149279749, 1.6761084680351344, 0.7873563218390804, 0.6694646377436683, 0.5271072147751871
190.25094202179366, 162.66666666666666, 232.66666666666666, 36.48, 4180.801344107822, 106.78264414527071, False, True, -4.457803991270198, 0.04550585554367999, 2.382725962592138, 5.215212226474607, 0.6991404011461317, 1.1695754632487316, 0.8176974585463911
201.87813418083016, 180.0, 232.66666666666666, 36.48, 4180.801344107822, -21.336859291805656, False, True, -4.3722229304937725, 0.04828694730146541, 2.4683070233685633, 5.5339400817113535, 0.7736389684813754, 1.121545189893501, 0.8676710638144564
52.642547744860664, 78.0, 116.0, 36.48, 4180.801344107822, 99.16234704572172, False, True, -6.311406370394992, 0.01259149703897125, 0.5291235834673447, 1.443052295637628, 0.6724137931034483, 0.6749044582674444, 0.4538150667660402
52.32367810692661, 99.33333333333333, 116.66666666666667, 36.48, 4180.801344107822, -16.69924423399362, False, True, -6.320171724331144, 0.012515227058245319, 0.5203582295311922, 1.4343113516153128, 0.8514285714285713, 0.5267484373180531, 0.4484886694879423
164.2572000509238, 164.66666666666666, 232.66666666666666, 36.48, 4180.801344107822, -95.80672690553159, False, True, -4.669750977442375, 0.039288448919587715, 2.1707789764199608, 4.502664475080149, 0.7077363896848138, 0.9975133606331407, 0.7059765045168646
6.9712204335702666, 68.0, 116.0, 36.48, 4180.801344107822, -46.520769661143774, False, True, -9.22815253115022, 0.0016674364218226007, -2.387622577287885, 0.1910970513588341, 0.5862068965517241, 0.10251794755250392, 0.06009672787560574
98.55093259614678, 101.33333333333333, 116.0, 36.48, 4180.801344107822, 31.651272886712622, False, True, -5.406766159681516, 0.023572259116075613, 1.4337637941808201, 2.701505827745252, 0.8735632183908045, 0.9725420979882906, 0.8495770051391964
81.44207252495026, 74.66666666666667, 116.0, 36.48, 4180.801344107822, -106.55707137563667, False, True, -5.681861408009551, 0.01948001491143079, 1.158668545852785, 2.2325129529865753, 0.6436781609195402, 1.0907420427448695, 0.7020868321116402
6.160161779409933, 77.33333333333333, 116.0, 36.48, 4180.801344107822, 106.14433878028349, False, True, -9.406595538486783, 0.0014734404417688265, -2.566065584624447, 0.16886408386540386, 0.6666666666666666, 0.07965726438892155, 0.05310484292594769
102.01714136423651, 80.0, 116.66666666666667, 36.48, 4180.801344107822, -110.40274584087715, False, True, -5.356896008011636, 0.02440133672173004, 1.4836339458507006, 2.79652251546701, 0.6857142857142857, 1.2752142670529563, 0.8744326402648843
7.817472107017565, 83.33333333333333, 116.0, 36.48, 4180.801344107822, -164.9315118405078, False, True, -9.062861611673412, 0.001869850170717883, -2.2223316578110763, 0.21429473977570082, 0.7183908045977011, 0.09380966528421078, 0.06739200092256521
66.6000229292042, 100.0, 116.66666666666667, 36.48, 4180.801344107822, -16.227361043515497, False, True, -5.972113009374106, 0.015929965919826924, 0.8684169444882297, 1.825658523278624, 0.8571428571428571, 0.6660002292920421, 0.5708573393931788
65.14141201305655, 88.0, 116.0, 36.48, 4180.801344107822, 100.00797980144135, False, True, -6.004060691261571, 0.015581082823957437, 0.8364692626007648, 1.7856746714105416, 0.7586206896551724, 0.7402433183301881, 0.5615638966642806
65.14141201305655, 89.33333333333333, 116.0, 36.48, 4180.801344107822, 10.007979801441339, False, True, -6.004060691261571, 0.015581082823957437, 0.8364692626007648, 1.7856746714105416, 0.7701149425287356, 0.7291949105939166, 0.5615638966642806
44.68352935882194, 71.33333333333333, 116.66666666666667, 36.48, 4180.801344107822, -162.18111108547723, False, True, -6.547892540798564, 0.010687790612628919, 0.2926374130637716, 1.2248774495291104, 0.6114285714285713, 0.6264046171797469, 0.3830016802184738
53.961235417876395, 91.33333333333333, 116.0, 36.48, 4180.801344107822, 73.99259570390015, False, True, -6.275712304855668, 0.012906912090890475, 0.5648176490066674, 1.4792005322882784, 0.7873563218390804, 0.5908164461811285, 0.4651830639472103
85.42244852255568, 89.33333333333333, 116.66666666666667, 36.48, 4180.801344107822, -76.49019604671862, False, True, -5.613020431829313, 0.020432075454373144, 1.2275095220330228, 2.341624137131461, 0.7657142857142857, 0.9562214386853248, 0.7321924159076201
85.42244852255568, 90.0, 116.66666666666667, 36.48, 4180.801344107822, -76.49019604671862, False, True, -5.613020431829313, 0.020432075454373144, 1.2275095220330228, 2.341624137131461, 0.7714285714285714, 0.9491383169172853, 0.7321924159076201
57.270564768797655, 80.0, 116.66666666666667, 36.48, 4180.801344107822, -137.48955292199915, False, True, -6.18984185281754, 0.013698465929148118, 0.6506881010447966, 1.5699167973902868, 0.6857142857142857, 0.7158820596099706, 0.49089055516112273
96.2085549976709, 94.66666666666667, 116.0, 36.48, 4180.801344107822, 99.18391925084435, False, True, -5.441470497228787, 0.023011989109040457, 1.3990594566335492, 2.63729591550633, 0.8160919540229885, 1.016287552792298, 0.8293840948075077
89.86505949638097, 63.333333333333336, 116.0, 36.48, 4180.801344107822, -62.17590361574674, False, True, -5.539875393984666, 0.021494697331895844, 1.3006545598776706, 2.463406236194654, 0.5459770114942529, 1.4189219920481204, 0.7746987887619049
87.2398751560063, 88.66666666666667, 116.66666666666667, 36.48, 4180.801344107822, -92.86240522611176, False, True, -5.582647977943176, 0.020866783177573626, 1.2578819759191606, 2.391443946162454, 0.76, 0.9839083664211237, 0.747770358480054
54.09904139414873, 90.0, 116.0, 36.48, 4180.801344107822, -28.178590109959174, False, True, -6.27203265286485, 0.012939873708755085, 0.5684973009974857, 1.482978108392235, 0.7758620689655172, 0.6011004599349858, 0.46637104650128214
85.83546593023367, 92.66666666666667, 116.0, 36.48, 4180.801344107822, -139.08561677997488, False, True, -5.606061812451453, 0.02053086450787842, 1.2344681414108827, 2.3529458862454407, 0.7988505747126438, 0.9262820064413705, 0.7399609131916696
123.81398201998151, 108.66666666666667, 116.66666666666667, 36.48, 4180.801344107822, 63.43494882292201, False, True, -5.077533344588861, 0.029614892416373176, 1.7629966092734748, 3.394023629933704, 0.9314285714285714, 1.139392472576517, 1.061262703028413
71.26205101855957, 78.66666666666667, 116.0, 36.48, 4180.801344107822, -70.55996517182382, False, True, -5.874501676574631, 0.01704506986895997, 0.9660282772877037, 1.9534553459034973, 0.67816091954023, 0.9058735298969437, 0.6143280260220653
87.68868502418563, 93.33333333333333, 116.66666666666667, 36.48, 4180.801344107822, 108.88608736970929, False, True, -5.5752449879315105, 0.020974133379422336, 1.2652849659308254, 2.403746848250703, 0.7999999999999999, 0.9395216252591319, 0.7516173002073053
97.92007490635062, 77.33333333333333, 116.0, 36.48, 4180.801344107822, -69.44395478041653, False, True, -5.416031021709229, 0.02342136515152854, 1.4244989321531067, 2.6842125796696994, 0.6666666666666666, 1.266207865168327, 0.8441385767788847
87.68868502418563, 66.66666666666667, 116.66666666666667, 36.48, 4180.801344107822, -18.88608736970929, False, True, -5.5752449879315105, 0.020974133379422336, 1.2652849659308254, 2.403746848250703, 0.5714285714285714, 1.3153302753627845, 0.7516173002073053
116.56572384771415, 113.33333333333333, 116.0, 36.48, 4180.801344107822, 134.1449026037333, False, True, -5.164563962071317, 0.027881191727034602, 1.675965991791019, 3.195332342316726, 0.9770114942528735, 1.0285210927739485, 1.0048769297216738
24.533589532850826, 41.333333333333336, 116.66666666666667, 36.48, 4180.801344107822, -116.82787401031452, False, True, -7.412877351940675, 0.005868154813772015, -0.5723473980783391, 0.6725216428961301, 0.3542857142857143, 0.5935545854721974, 0.2102879102815785
37.384913793069785, 67.33333333333333, 116.0, 36.48, 4180.801344107822, -46.46880071438582, False, True, -6.80517947706991, 0.008942045009088486, 0.03535047679242636, 1.0248057509065183, 0.5804597701149425, 0.555221491976284, 0.32228373959542916
67.95131963046829, 102.0, 116.0, 36.48, 4180.801344107822, -145.40771131249005, False, True, -5.943134114626247, 0.016253180679401312, 0.8973958392360892, 1.86270064776503, 0.8793103448275862, 0.666189408141846, 0.5857872381936922
147.6210508633958, 104.66666666666667, 116.66666666666667, 36.48, 4180.801344107822, 4.159642293712642, False, True, -4.823809123104151, 0.03530927176710855, 2.016720830758185, 4.046629683755367, 0.8971428571428571, 1.4103922057012337, 1.265323293114821
70.42758663147937, 72.66666666666667, 116.0, 36.48, 4180.801344107822, 112.98871680208065, False, True, -5.891495037162674, 0.016845475504531186, 0.9490349166996618, 1.9305807738892373, 0.6264367816091955, 0.9691869719928353, 0.6071343675127532
91.96422502470644, 62.0, 116.0, 36.48, 4180.801344107822, -67.16634582208245, False, True, -5.506562935423607, 0.021996793785553925, 1.3339670184387298, 2.5209491508965582, 0.5344827586206896, 1.4832939520113941, 0.7927950433164348
104.17271860387625, 90.66666666666667, 116.66666666666667, 36.48, 4180.801344107822, 83.51692630710276, False, True, -5.326730083300755, 0.02491692621336606, 1.5137998705615807, 2.8556118038343272, 0.7771428571428571, 1.1489638081309879, 0.8929090166046535
123.40700333813724, 91.33333333333333, 116.0, 36.48, 4180.801344107822, -93.50353164478446, False, True, -5.082283318832248, 0.029517547757216423, 1.7582466350300878, 3.382867416067359, 0.7873563218390804, 1.3511715693956634, 1.0638534770529073
133.22438350175798, 98.66666666666667, 116.66666666666667, 36.48, 4180.801344107822, -108.08344538304868, False, True, -4.971849431461605, 0.031865753126375324, 1.868680522400731, 3.651984196868366, 0.8457142857142858, 1.3502471300853849, 1.1419232871579255
130.6867529817257, 100.66666666666667, 116.0, 36.48, 4180.801344107822, 45.0, False, True, -4.999594678225298, 0.031258780847338755, 1.8409352756370378, 3.582421956735902, 0.867816091954023, 1.2982127779641626, 1.1266099394976354
95.27792675850473, 84.66666666666667, 116.66666666666667, 36.48, 4180.801344107822, -161.99583839408663, False, True, -5.45549366277176, 0.022789393447929282, 1.385036291090576, 2.6117852729853275, 0.7257142857142858, 1.1253298436043866, 0.8166679436443263
91.47843832875573, 86.66666666666667, 116.0, 36.48, 4180.801344107822, -48.94518622903757, False, True, -5.514203946327589, 0.021880599148218348, 1.3263260075347465, 2.5076326296259794, 0.7471264367816093, 1.0555204422548738, 0.7886072269720321
112.1237648201484, 101.33333333333333, 116.0, 36.48, 4180.801344107822, -173.79655209830818, False, True, -5.220615496288827, 0.026818725787621817, 1.6199144575735087, 3.0735681145874016, 0.8735632183908045, 1.1064845212514645, 0.9665841794840379
128.9508714259834, 104.66666666666667, 116.66666666666667, 36.48, 4180.801344107822, 33.690067525979785, False, True, -5.018886065853047, 0.030843577776714804, 1.8216438880092893, 3.5348374842648957, 0.8971428571428571, 1.2320146951527076, 1.1052931836512863
77.90417732516887, 56.666666666666664, 116.0, 36.48, 4180.801344107822, -104.58891873287466, False, True, -5.745934993785041, 0.018633790728890404, 1.0945949600772953, 2.1355311766767784, 0.48850574712643674, 1.3747795998559214, 0.6715877355618006
120.38942461771124, 108.0, 116.66666666666667, 36.48, 4180.801344107822, 50.87739260664314, False, True, -5.117998921643114, 0.0287957773423942, 1.722531032219222, 3.3001487011434008, 0.9257142857142857, 1.1147168946084374, 1.0319093538660964
22.11891459203771, 61.333333333333336, 116.0, 36.48, 4180.801344107822, 104.62087398863167, False, True, -7.562355091241952, 0.005290592106991838, -0.7218251373796157, 0.6063298956150689, 0.5287356321839081, 0.3606344770440931, 0.19068029820722165
102.76706109191038, 76.0, 116.66666666666667, 36.48, 4180.801344107822, -131.30861401354872, False, True, -5.346329662605616, 0.024580708967849977, 1.494200291256721, 2.817079525545789, 0.6514285714285714, 1.3521981722619787, 0.880860523644946
100.7063467687393, 96.0, 116.0, 36.48, 4180.801344107822, -14.676393137450017, False, True, -5.375552979976542, 0.024087809603933696, 1.4649769738857947, 2.7605906460728975, 0.8275862068965517, 1.049024445507701, 0.8681581617994767
110.56111595127139, 112.66666666666667, 116.66666666666667, 36.48, 4180.801344107822, 106.46001481204004, False, True, -5.240863505688385, 0.02644495799999916, 1.5996664481739504, 3.030732345155466, 0.9657142857142857, 0.9813116800408703, 0.9476667081537548
120.53418595916519, 99.33333333333333, 116.66666666666667, 36.48, 4180.801344107822, -97.12501634890181, False, True, -5.116265206179849, 0.028830402604285193, 1.724264747682488, 3.3041169396700987, 0.8514285714285713, 1.2134314022734751, 1.033150165364273
107.7497119692243, 98.66666666666667, 116.66666666666667, 36.48, 4180.801344107822, 117.699472808055, False, True, -5.278023575693437, 0.025772502231200357, 1.562506378168899, 2.953665350033561, 0.8457142857142858, 1.092057891579976, 0.9235689597362082
153.987130407062, 113.33333333333333, 116.0, 36.48, 4180.801344107822, -32.21947199971869, False, True, -4.762897806867579, 0.03683196538962142, 2.0776321469947567, 4.221138443176042, 0.9770114942528735, 1.358709974179959, 1.327475262129845
99.36527382830413, 70.66666666666667, 116.66666666666667, 36.48, 4180.801344107822, -111.80140948635182, False, True, -5.394893936497161, 0.023767040251348886, 1.4456360173651743, 2.7238287781881616, 0.6057142857142858, 1.4061123654948695, 0.8517023470997496
43.315534829989076, 72.0, 116.0, 36.48, 4180.801344107822, 86.05481377096244, False, True, -6.592751152575946, 0.01036058192313669, 0.24777880128638988, 1.1873775995062796, 0.6206896551724138, 0.6016046504165149, 0.3734097830171472
43.315534829989076, 70.0, 116.66666666666667, 36.48, 4180.801344107822, -93.94518622903759, False, True, -6.592751152575946, 0.01036058192313669, 0.24777880128638988, 1.1873775995062796, 0.6, 0.6187933547141297, 0.3712760128284778
43.315534829989076, 90.0, 116.0, 36.48, 4180.801344107822, 86.05481377096244, False, True, -6.592751152575946, 0.01036058192313669, 0.24777880128638988, 1.1873775995062796, 0.7758620689655172, 0.481283720333212, 0.3734097830171472
98.85385275931624, 74.0, 116.0, 36.48, 4180.801344107822, -12.094757077012103, False, True, -5.402338488291222, 0.023644714164339595, 1.438191465571114, 2.7098095602882744, 0.6379310344827587, 1.3358628751258952, 0.8521883858561745
63.27509092741123, 60.666666666666664, 116.0, 36.48, 4180.801344107822, -49.76364169072618, False, True, -6.045998007849561, 0.015134680105427028, 0.7945319460127757, 1.734514553931229, 0.5229885057471264, 1.0429960042979873, 0.5454749217880278
76.44214188558344, 65.33333333333333, 116.0, 36.48, 4180.801344107822, -36.5630958685941, False, True, -5.773267480606695, 0.018284088526070857, 1.0672624732556417, 2.09545345081095, 0.5632183908045977, 1.1700327839630118, 0.658983981772271
100.89051049680585, 93.33333333333333, 116.66666666666667, 36.48, 4180.801344107822, 113.02549200852806, False, True, -5.372917103855194, 0.024131859467323186, 1.4676128500071417, 2.7656389938817396, 0.7999999999999999, 1.0809697553229198, 0.8647758042583358
182.28889813670105, 196.0, 232.66666666666666, 36.48, 4180.801344107822, -147.80426606528675, False, True, -4.519480888268119, 0.043601425452469394, 2.321049065594216, 4.996954444536762, 0.8424068767908309, 0.930045398656638, 0.7834766395560218
49.48182292011174, 90.66666666666667, 116.66666666666667, 36.48, 4180.801344107822, 141.6325146151385, False, True, -6.400737032901937, 0.011835487708558202, 0.43979292096039946, 1.356409619520607, 0.7771428571428571, 0.5457553998541735, 0.4241299107438149
60.0061611087573, 91.33333333333333, 116.0, 36.48, 4180.801344107822, 6.911227119024681, False, True, -6.122525046898532, 0.014352789374536172, 0.7180049069638037, 1.6449057321479523, 0.7873563218390804, 0.6570017639644959, 0.5172944923168733
60.0061611087573, 106.66666666666667, 116.66666666666667, 36.48, 4180.801344107822, -173.0887728809753, False, True, -6.122525046898532, 0.014352789374536172, 0.7180049069638037, 1.6449057321479523, 0.9142857142857143, 0.5625577603945996, 0.5143385237893482
60.0061611087573, 126.66666666666667, 116.0, 36.48, 4180.801344107822, 6.911227119024681, False, True, -6.122525046898532, 0.014352789374536172, 0.7180049069638037, 1.6449057321479523, 1.0919540229885059, 0.4737328508586102, 0.5172944923168733
57.63862173851608, 80.0, 116.0, 36.48, 4180.801344107822, -27.34987578006988, False, True, -6.180599845332921, 0.013786500958661572, 0.6599301085294149, 1.5800060783584453, 0.6896551724137931, 0.720482771731451, 0.49688467015962134
101.44183485273312, 98.66666666666667, 116.66666666666667, 36.48, 4180.801344107822, -126.6070748126075, False, True, -5.365054842570258, 0.024263729965476436, 1.4754751112920788, 2.7807520518841318, 0.8457142857142858, 1.0281267045885114, 0.8695014415948553
48.695250605964404, 95.33333333333333, 116.0, 36.48, 4180.801344107822, 99.46232220802563, False, True, -6.423854614575978, 0.011647348581771926, 0.4166753392863586, 1.3348478784529718, 0.82183908045977, 0.5107893420206057, 0.4197866431548655
110.25571984958059, 98.66666666666667, 116.66666666666667, 36.48, 4180.801344107822, -36.119340849479755, False, True, -5.2448540865762645, 0.026371910735478638, 1.5956758672860718, 3.0223607414906963, 0.8457142857142858, 1.1174566200971006, 0.9450490272821193
66.75399357258384, 107.33333333333333, 116.66666666666667, 36.48, 4180.801344107822, -156.3706222693432, False, True, -5.968781534429713, 0.015966793941707618, 0.8717484194326227, 1.8298792097747765, 0.9199999999999999, 0.6219316171358743, 0.5721770877650043
55.60126943990558, 100.0, 116.0, 36.48, 4180.801344107822, 84.64417495714481, False, True, -6.232517861679702, 0.013299189524579246, 0.6080120921826334, 1.5241576052605696, 0.8620689655172413, 0.5560126943990558, 0.4793212882750481
84.87535725559088, 88.66666666666667, 116.0, 36.48, 4180.801344107822, -8.74616226255521, False, True, -5.6222899414328396, 0.020301217462821874, 1.2182400124294965, 2.3266271177519435, 0.764367816091954, 0.9572408713036565, 0.7316841142723353
103.50529403823292, 104.66666666666667, 116.66666666666667, 36.48, 4180.801344107822, 144.68878656036682, False, True, -5.336003028604455, 0.024757285869156938, 1.5045269252578817, 2.8373161742936657, 0.8971428571428571, 0.9889040831678304, 0.887188234613425
84.87535725559088, 104.66666666666667, 116.0, 36.48, 4180.801344107822, -8.74616226255521, False, True, -5.6222899414328396, 0.020301217462821874, 1.2182400124294965, 2.3266271177519435, 0.9022988505747127, 0.8109110565820785, 0.7316841142723353
84.87535725559088, 89.33333333333333, 116.0, 36.48, 4180.801344107822, 81.2538377374448, False, True, -5.6222899414328396, 0.020301217462821874, 1.2182400124294965, 2.3266271177519435, 0.7701149425287356, 0.9500972827118384, 0.7316841142723353
115.21013578142522, 91.33333333333333, 116.0, 36.48, 4180.801344107822, 2.436648246810131, False, True, -5.181439942892317, 0.027556950521888748, 1.6590900109700184, 3.1581725817276656, 0.7873563218390804, 1.261424844322174, 0.9931908257019416
131.00078054371141, 94.66666666666667, 116.66666666666667, 36.48, 4180.801344107822, 154.4400348281762, False, True, -4.996132180660041, 0.03133389265872111, 1.844397773202295, 3.591030168413142, 0.8114285714285714, 1.3838110620814585, 1.1228638332318122
139.07773249117713, 108.66666666666667, 116.0, 36.48, 4180.801344107822, -54.21102654081667, False, True, -4.909816137656952, 0.03326580744793942, 1.9307138162053843, 3.8124378424116543, 0.9367816091954023, 1.2798564339678877, 1.198945969751527
87.2398751560063, 64.66666666666667, 116.0, 36.48, 4180.801344107822, -92.86240522611176, False, True, -5.582647977943176, 0.020866783177573626, 1.2578819759191606, 2.391443946162454, 0.5574712643678161, 1.3490702343712315, 0.7520678892759164
53.53110640673518, 81.33333333333333, 116.66666666666667, 36.48, 4180.801344107822, -161.56505117707798, False, True, -6.287258212086746, 0.01280403013699247, 0.5532717417755904, 1.4674097150969074, 0.6971428571428571, 0.6581693410664161, 0.45883805491487295
77.61224179774969, 114.66666666666667, 116.0, 36.48, 4180.801344107822, 73.00917670801384, False, True, -5.751351456365208, 0.018563963080219504, 1.0891784974971277, 2.127528558052349, 0.9885057471264368, 0.6768509459106077, 0.6690710499806007
55.849937504836944, 84.66666666666667, 116.66666666666667, 36.48, 4180.801344107822, -53.84181456019167, False, True, -6.226080017007559, 0.013358668089682998, 0.614449936854776, 1.5309741640580303, 0.7257142857142858, 0.6596449311594914, 0.4787137500414595
79.35546211727818, 86.0, 116.66666666666667, 36.48, 4180.801344107822, -150.0684881594922, False, True, -5.719306154717845, 0.01898092149944344, 1.121223799144491, 2.175314202776266, 0.7371428571428571, 0.9227379315962579, 0.6801896752909558
59.047575540193904, 68.0, 116.0, 36.48, 4180.801344107822, -40.083433993989985, False, True, -6.1457578587628126, 0.014123506639082989, 0.6947720950995234, 1.6186287154658419, 0.5862068965517241, 0.8683466991204986, 0.5090308236223613
59.047575540193904, 69.33333333333333, 116.0, 36.48, 4180.801344107822, -40.083433993989985, False, True, -6.1457578587628126, 0.014123506639082989, 0.6947720950995234, 1.6186287154658419, 0.5977011494252873, 0.8516477241374122, 0.5090308236223613
83.24499351813309, 76.66666666666667, 116.66666666666667, 36.48, 4180.801344107822, -103.32453126189078, False, True, -5.650272174469419, 0.019911253050914207, 1.1902577793929177, 2.281935129334789, 0.6571428571428571, 1.0858042632799967, 0.7135285158697121
55.671255921723784, 95.33333333333333, 116.0, 36.48, 4180.801344107822, 30.352624727637004, False, True, -6.230703053159188, 0.013315929492843187, 0.6098269007031482, 1.5260760943454985, 0.82183908045977, 0.5839642229551446, 0.4799246200148602
56.90531484580477, 93.33333333333333, 116.66666666666667, 36.48, 4180.801344107822, -29.52598731124174, False, True, -6.199072279627504, 0.013611102313197398, 0.6414576742348312, 1.5599044639749116, 0.7999999999999999, 0.6096998019193368, 0.4877598415354694
79.0926224699857, 68.0, 116.0, 36.48, 4180.801344107822, -54.63753811293095, False, True, -5.7240925527926985, 0.018918053253464014, 1.1164374010696378, 2.1681091685851346, 0.5862068965517241, 1.1631268010292015, 0.6818329523274629
107.04, 83.33333333333333, 116.0, 36.48, 4180.801344107822, 180.0, False, True, -5.287557567385616, 0.02560274722233716, 1.5529723864767195, 2.93421052631579, 0.7183908045977011, 1.28448, 0.9227586206896552
134.50083967823906, 104.0, 116.66666666666667, 36.48, 4180.801344107822, 33.9964591482505, False, True, -4.9580924090351335, 0.03217106688596834, 1.8824375448272028, 3.6869747718815535, 0.8914285714285713, 1.2932773045984525, 1.1528643400991918
104.71385851610249, 87.33333333333333, 116.0, 36.48, 4180.801344107822, -58.81502534126161, False, True, -5.319255197886518, 0.025046360708738315, 1.5212747559758184, 2.870445683007196, 0.7528735632183907, 1.1990136471309447, 0.9027056768629526
55.60126943990558, 88.66666666666667, 116.66666666666667, 36.48, 4180.801344107822, -84.64417495714481, False, True, -6.232517861679702, 0.013299189524579246, 0.6080120921826334, 1.5241576052605696, 0.76, 0.6270819861643486, 0.47658230948490493
60.0061611087573, 91.33333333333333, 116.0, 36.48, 4180.801344107822, -158.83874018317172, False, True, -6.122525046898532, 0.014352789374536172, 0.7180049069638037, 1.6449057321479523, 0.7873563218390804, 0.6570017639644959, 0.5172944923168733
135.65447696648476, 125.33333333333333, 116.66666666666667, 36.48, 4180.801344107822, 57.528807709151515, False, True, -4.945770927214178, 0.032447003768229336, 1.8947590266481587, 3.7185986010549557, 1.0742857142857143, 1.0823495502645062, 1.1627526597127265
120.24455481173315, 96.0, 116.0, 36.48, 4180.801344107822, -27.0955524937518, False, True, -5.119736024411438, 0.02876112613702606, 1.7207939294508983, 3.2961774893567206, 0.8275862068965517, 1.2525474459555537, 1.0365909897563204
36.218752511649456, 80.0, 116.66666666666667, 36.48, 4180.801344107822, 61.55707137563665, False, True, -6.8508988271997975, 0.008663112530494677, -0.010368873337461572, 0.9928386105167066, 0.6857142857142857, 0.4527344063956182, 0.31044645009985244
127.51942537826669, 94.66666666666667, 116.0, 36.48, 4180.801344107822, -151.3895403340348, False, True, -5.034990555023061, 0.03050119220756211, 1.8055393988392743, 3.4955982833954686, 0.8160919540229885, 1.3470361835732396, 1.0993053911919541
65.89243966167827, 86.0, 116.66666666666667, 36.48, 4180.801344107822, 101.63363399894045, False, True, -5.987522739957409, 0.0157607200721324, 0.8530072139049265, 1.8062620521293387, 0.7371428571428571, 0.7661911588567241, 0.5647923399572423
96.839882214329, 86.66666666666667, 116.0, 36.48, 4180.801344107822, 15.018360631150669, False, True, -5.4320343587669555, 0.02316299537905801, 1.4084955950953806, 2.654602034384019, 0.7471264367816093, 1.1173832563191806, 0.834826570813181
80.35014317389441, 88.66666666666667, 116.0, 36.48, 4180.801344107822, -82.50414236027014, False, True, -5.70133508876041, 0.019218837863974384, 1.1391948651019266, 2.202580679108948, 0.764367816091954, 0.906204622261967, 0.6926736480508139
140.3941656495134, 122.0, 116.66666666666667, 36.48, 4180.801344107822, 149.58891873287462, False, True, -4.896224605565978, 0.03358068324565978, 1.944305348296358, 3.8485242776730653, 1.0457142857142856, 1.1507718495861754, 1.203378562710115
70.26011031974527, 104.0, 116.0, 36.48, 4180.801344107822, 35.90972307917768, False, True, -5.894929841538205, 0.016805417080810542, 0.9456001123241321, 1.9259898662210875, 0.896551724137931, 0.6755779838437045, 0.6056906062047006
155.60071403458647, 126.66666666666667, 174.66666666666666, 36.48, 4180.801344107822, -4.0141756954110255, False, True, -4.747858907769247, 0.03721791619060807, 2.0926710460930886, 4.265370450509498, 0.7251908396946566, 1.2284266897467353, 0.8908437826407622
176.198584038359, 170.0, 174.66666666666666, 36.48, 4180.801344107822, 174.47245984834382, False, True, -4.568505257914226, 0.042144691779408036, 2.2720246959481103, 4.830005044911157, 0.9732824427480916, 1.0364622590491706, 1.008770519303582
156.29967809451358, 182.66666666666666, 232.66666666666666, 36.48, 4180.801344107822, 96.00900595749454, False, True, -4.741392781425573, 0.03738510042214593, 2.099137172436763, 4.284530649520658, 0.7851002865329513, 0.8556551720502569, 0.6717751207500584
12.081166501877206, 62.666666666666664, 116.0, 36.48, 4180.801344107822, -41.185925165709655, False, True, -8.434875921978161, 0.0028896772430729574, -1.5943459681158245, 0.33117232735409013, 0.5402298850574713, 0.19278457183846606, 0.10414798708514833
176.61563983690394, 165.33333333333334, 232.66666666666666, 36.48, 4180.801344107822, -96.44160009933505, False, True, -4.56509448492455, 0.04224444676995135, 2.2754354689377867, 4.841437495529165, 0.7106017191977078, 1.068239757078048, 0.7590930078950027
10.274608186739258, 82.66666666666667, 116.0, 36.48, 4180.801344107822, 54.78240703180728, False, True, -8.668552304331616, 0.002457569097661072, -1.8280223504692803, 0.2816504437154402, 0.7126436781609196, 0.12428961516216844, 0.0885742085063729
9.502112512353222, 66.66666666666667, 116.66666666666667, 36.48, 4180.801344107822, -67.16634582208245, False, True, -8.781315488778588, 0.0022727969425634024, -1.9407855349162524, 0.2604745754482791, 0.5714285714285714, 0.1425316876852983, 0.08144667867731333
9.502112512353222, 100.0, 116.0, 36.48, 4180.801344107822, -67.16634582208245, False, True, -8.781315488778588, 0.0022727969425634024, -1.9407855349162524, 0.2604745754482791, 0.8620689655172413, 0.09502112512353221, 0.08191476303752777
15.85441324469808, 103.33333333333333, 116.66666666666667, 36.48, 4180.801344107822, 54.16234704572172, False, True, -8.042751197574347, 0.0037921948305538046, -1.20222124371201, 0.4346056262252763, 0.8857142857142857, 0.1534298055938524, 0.13589497066884068
172.64130292814002, 172.66666666666666, 232.66666666666666, 36.48, 4180.801344107822, -163.9264258352536, False, True, -4.597929930443179, 0.04129383070818484, 2.2426000234191577, 4.7324918565827865, 0.7421203438395415, 0.9998531057614287, 0.742011330636705
20.07762679690407, 90.66666666666667, 116.66666666666667, 36.48, 4180.801344107822, 115.46334506187162, False, True, -7.702046932536414, 0.0048023393470250164, -0.8615169786740781, 0.5503735415818002, 0.7771428571428571, 0.22144441320114783, 0.17209394397346345
3.98153624668538, 55.333333333333336, 116.0, 36.48, 4180.801344107822, -8.972626614896393, False, True, -10.036238586719321, 0.0009523380612897872, -3.1957086328569857, 0.10914298921834924, 0.4770114942528736, 0.07195547433768759, 0.03432358833349465
3.1451903617617916, 89.33333333333333, 116.66666666666667, 36.48, 4180.801344107822, 86.98721249581665, False, True, -10.376416439793744, 0.0007522936640351113, -3.5358864859314076, 0.08621684105706666, 0.7657142857142857, 0.03520735479584095, 0.026958774529386782
77.34635382444749, 72.0, 116.0, 36.48, 4180.801344107822, -25.201123645475075, False, True, -5.756302400008377, 0.01850036570942433, 1.0842275538539585, 2.1202399622929686, 0.6206896551724138, 1.0742549142284374, 0.6667789122797197
123.20319736382767, 144.0, 232.66666666666666, 36.48, 4180.801344107822, -140.79279649503218, False, True, -5.084667891202267, 0.029468799692542933, 1.7558620626600687, 3.3772806294908904, 0.6189111747851003, 0.8555777594710254, 0.5295266362342164
8.033826925266354, 61.333333333333336, 116.0, 36.48, 4180.801344107822, -32.9052429229879, False, True, -9.023476396872647, 0.001921599775743653, -2.1829464430103123, 0.22022551878471366, 0.5287356321839081, 0.13098630856412533, 0.06925712866608925
7.934993664626745, 81.33333333333333, 116.66666666666667, 36.48, 4180.801344107822, 98.53076560994813, False, True, -9.041334707052668, 0.0018979599869794969, -2.2008047531903316, 0.21751627370139107, 0.6971428571428571, 0.0975613975159026, 0.06801423141108638
148.9228519737386, 144.0, 232.0, 36.48, 4180.801344107822, -152.04903097210982, False, True, -4.8111424383213395, 0.035620647745825525, 2.029387515540996, 4.08231502120994, 0.6206896551724138, 1.0341864720398515, 0.6419088447143906
11.420092438915958, 82.0, 116.66666666666667, 36.48, 4180.801344107822, 58.57043438516149, False, True, -8.516061354851109, 0.0027315558666787102, -1.6755314009887732, 0.3130507795755471, 0.7028571428571428, 0.13926941998677997, 0.09788650661927964
146.71248348393573, 183.33333333333334, 232.66666666666666, 36.48, 4180.801344107822, -33.11134196037203, False, True, -4.8327159560884585, 0.03509195281203776, 2.0078139977738783, 4.021723779713151, 0.7879656160458454, 0.8002499099123767, 0.6305694132547381
8.624312217484558, 81.33333333333333, 116.0, 36.48, 4180.801344107822, 101.30993247402021, False, True, -8.921154370748294, 0.002062837123232167, -2.0806244168859584, 0.23641206736525655, 0.7011494252873562, 0.10603662562481014, 0.0743475191162462
16.4827190999916, 86.66666666666667, 116.0, 36.48, 4180.801344107822, 63.43494882292201, False, True, -7.986681424552147, 0.0039424784253911955, -1.1461514706898115, 0.45182892269713815, 0.7471264367816093, 0.19018522038451843, 0.14209240603441034
11.420092438915958, 101.33333333333333, 116.0, 36.48, 4180.801344107822, 95.44033203100552, False, True, -8.516061354851109, 0.0027315558666787102, -1.6755314009887732, 0.3130507795755471, 0.8735632183908045, 0.11269828064719696, 0.0984490727492755
63.09881081355961, 65.33333333333333, 116.0, 36.48, 4180.801344107822, -155.6954507340633, False, True, -6.050022867531919, 0.015092515912646124, 0.7905070863304169, 1.7296823139681912, 0.5632183908045977, 0.965798124697341, 0.5439552656341345
71.26205101855957, 98.66666666666667, 116.66666666666667, 36.48, 4180.801344107822, -33.690067525979785, False, True, -5.874501676574631, 0.01704506986895997, 0.9660282772877037, 1.9534553459034973, 0.8457142857142858, 0.7222505170799957, 0.610817580159082
87.83800993793425, 98.66666666666667, 116.66666666666667, 36.48, 4180.801344107822, 174.28940686250036, False, True, -5.572790314418013, 0.021009850195759246, 1.2677396394443228, 2.407840184702145, 0.8457142857142858, 0.8902501007223065, 0.7528972280394364
65.89243966167827, 68.66666666666667, 116.0, 36.48, 4180.801344107822, 131.49646835521554, False, True, -5.987522739957409, 0.0157607200721324, 0.8530072139049265, 1.8062620521293387, 0.5919540229885057, 0.9595986358496834, 0.5680382729455024
65.89243966167827, 70.66666666666667, 116.0, 36.48, 4180.801344107822, -48.50353164478446, False, True, -5.987522739957409, 0.0157607200721324, 0.8530072139049265, 1.8062620521293387, 0.6091954022988506, 0.9324401838916735, 0.5680382729455024
74.11821048680189, 74.0, 116.0, 36.48, 4180.801344107822, -45.0, False, True, -5.817807634069197, 0.01772823063962601, 1.0227223197931383, 2.031749190975929, 0.6379310344827587, 1.0015974390108362, 0.6389500904034645
102.49369759569048, 76.66666666666667, 116.66666666666667, 36.48, 4180.801344107822, -136.8476102659946, False, True, -5.350172388278493, 0.02451532353723028, 1.4903575655838435, 2.8095860086537963, 0.6571428571428571, 1.336874316465528, 0.8785174079630612
38.46710621747296, 92.0, 116.0, 36.48, 4180.801344107822, 111.03751102542182, False, True, -6.764010379925647, 0.009200893094737988, 0.07651957393668883, 1.0544711134175702, 0.7931034482758621, 0.41812071975514087, 0.33161298463338756
75.25605850919125, 77.33333333333333, 116.0, 36.48, 4180.801344107822, 86.9059419410829, False, True, -5.795827952265746, 0.018000390909568748, 1.0447020015965893, 2.062940200361602, 0.6666666666666666, 0.9731386876188524, 0.6487591250792349
75.04, 72.0, 116.0, 36.48, 4180.801344107822, -90.0, False, True, -5.7999758555117005, 0.017948712178290176, 1.0405540983506352, 2.0570175438596494, 0.6206896551724138, 1.0422222222222224, 0.646896551724138
101.44183485273312, 107.33333333333333, 116.66666666666667, 36.48, 4180.801344107822, 53.39292518739251, False, True, -5.365054842570258, 0.024263729965476436, 1.4754751112920788, 2.7807520518841318, 0.9199999999999999, 0.9451102626031037, 0.8695014415948553
16.92882021697693, 105.33333333333333, 116.0, 36.48, 4180.801344107822, 122.27564431457763, False, True, -7.94815424919963, 0.004049180724847265, -1.1076242953372946, 0.4640575717373063, 0.9080459770114943, 0.16071664762952784, 0.14593810531876664
102.6759872008012, 114.66666666666667, 116.0, 36.48, 4180.801344107822, -59.93141717813755, False, True, -5.347608769986046, 0.02455892513178287, 1.4929211838762901, 2.8145829824781035, 0.9885057471264368, 0.8954301209372197, 0.8851378206965621
91.96422502470644, 94.0, 116.66666666666667, 36.48, 4180.801344107822, -75.96375653207353, False, True, -5.506562935423607, 0.021996793785553925, 1.3339670184387298, 2.5209491508965582, 0.8057142857142857, 0.9783428194117706, 0.7882647859260551
74.5527113166862, 95.33333333333333, 116.66666666666667, 36.48, 4180.801344107822, 12.528807709151511, False, True, -5.809374862284732, 0.01783215828270732, 1.0311550915776049, 2.0436598496898633, 0.8171428571428571, 0.7820214473778273, 0.6390232398573102
79.8797853963424, 96.66666666666667, 116.0, 36.48, 4180.801344107822, 132.87890360333853, False, True, -5.709805226497583, 0.01910633364795491, 1.1307247273647534, 2.1896870996804387, 0.8333333333333334, 0.8263426075483696, 0.6886188396236413
10.562452071284412, 62.666666666666664, 116.66666666666667, 36.48, 4180.801344107822, -73.30075576600638, False, True, -8.628690888401144, 0.0025264180720211728, -1.7881609345388076, 0.28954090107687536, 0.5371428571428571, 0.16854976709496403, 0.0905353034681521
77.61224179774969, 114.0, 116.0, 36.48, 4180.801344107822, 39.61068824002659, False, True, -5.751351456365208, 0.018563963080219504, 1.0891784974971277, 2.127528558052349, 0.9827586206896551, 0.6808091385767516, 0.6690710499806007
94.18065932620944, 64.66666666666667, 116.0, 36.48, 4180.801344107822, -111.03751102542182, False, True, -5.472204860883388, 0.022526939592320543, 1.3683250929789479, 2.5817066701263554, 0.5574712643678161, 1.4564019483434447, 0.811902235570771
102.49369759569048, 84.66666666666667, 116.66666666666667, 36.48, 4180.801344107822, -114.22774531795419, False, True, -5.350172388278493, 0.02451532353723028, 1.4903575655838435, 2.8095860086537963, 0.7257142857142858, 1.210555483413667, 0.8785174079630612
94.08490414256882, 98.66666666666667, 116.0, 36.48, 4180.801344107822, 106.69924423399362, False, True, -5.473672421258688, 0.022504036044469468, 1.366857532603648, 2.5790818021537505, 0.8505747126436782, 0.9535632176611704, 0.8110767598497312
23.206522241370465, 52.0, 116.0, 36.48, 4180.801344107822, -45.0, False, True, -7.493105348578428, 0.00555073545268454, -0.6525753947160924, 0.6361437017919536, 0.4482758620689655, 0.44627927387250893, 0.20005622621871091
54.3506437027164, 104.0, 116.66666666666667, 36.48, 4180.801344107822, 133.7269699799433, False, True, -6.265338561429473, 0.013000054111471962, 0.5751913924328628, 1.4898751014999014, 0.8914285714285713, 0.5226023432953499, 0.46586266030899764
93.50921637347851, 104.66666666666667, 116.66666666666667, 36.48, 4180.801344107822, 35.21759296819272, False, True, -5.482527117711924, 0.022366338095749266, 1.3580028361504115, 2.5633008874308802, 0.8971428571428571, 0.893400156434508, 0.80150756891553
82.68061166674975, 86.66666666666667, 116.0, 36.48, 4180.801344107822, -154.09349200048564, False, True, -5.660086621581281, 0.019776259348766954, 1.1804433322810541, 2.266464135601693, 0.7471264367816093, 0.9540070576932663, 0.7127638936788772
53.34122723077556, 70.66666666666667, 116.0, 36.48, 4180.801344107822, -100.95406264339836, False, True, -6.292384665761745, 0.012758613203650918, 0.548145288100591, 1.4622046938260844, 0.6091954022988506, 0.7548286872279559, 0.45983816578254794
77.66536307010186, 104.66666666666667, 116.66666666666667, 36.48, 4180.801344107822, 79.28687697720898, False, True, -5.750364349444759, 0.01857666908272475, 1.0901656044175776, 2.128984733281301, 0.8971428571428571, 0.7420257618162598, 0.6657031120294445
101.99142182903232, 88.0, 116.0, 36.48, 4180.801344107822, -100.53918372862825, False, True, -5.357259771625366, 0.024395184902237244, 1.4832701822369696, 2.7958174843484738, 0.7586206896551724, 1.1589934298753672, 0.8792363950778648
116.2277374461675, 76.0, 116.66666666666667, 36.48, 4180.801344107822, -76.55138494831348, False, True, -5.168753183240219, 0.027800349234476808, 1.6717767706221174, 3.186067364204153, 0.6514285714285714, 1.5293123348179933, 0.9962377495385785
102.35685600648902, 110.0, 116.0, 36.48, 4180.801344107822, 145.22216863363613, False, True, -5.352099849132486, 0.024482592589754312, 1.4884301047298498, 2.805834868598932, 0.9482758620689655, 0.9305168727862638, 0.8823866897111123
170.02148077579903, 125.33333333333333, 116.66666666666667, 36.48, 4180.801344107822, -20.224859431168078, False, True, -4.619990558285464, 0.040667199128085196, 2.2205393955768726, 4.660676556354141, 1.0742857142857143, 1.3565543678920136, 1.4573269780782774
58.06671483327359, 58.0, 116.0, 36.48, 4180.801344107822, -31.263731694377427, False, True, -6.169924268539341, 0.013888895944579965, 0.6706056853229949, 1.591741086438421, 0.5, 1.0011502557460965, 0.5005751278730483
106.72861956172962, 92.66666666666667, 116.0, 36.48, 4180.801344107822, 106.82140989004084, False, True, -5.291760497944462, 0.025528268572757404, 1.548769455917874, 2.9256748783368867, 0.7988505747126438, 1.15174769311219, 0.9200743065666346
35.704621657649, 62.666666666666664, 116.0, 36.48, 4180.801344107822, -173.6598082540901, False, True, -6.871524852499476, 0.008540138293815136, -0.030994898637140902, 0.9787451112294134, 0.5402298850574713, 0.5697546009199309, 0.3077984625659397
95.84758276807354, 66.0, 116.0, 36.48, 4180.801344107822, 36.32682595212024, False, True, -5.4468936351177515, 0.022925648668563395, 1.3936363187445844, 2.6274008434230685, 0.5689655172413793, 1.4522361025465687, 0.8262722652420132
47.10664815842908, 68.0, 116.66666666666667, 36.48, 4180.801344107822, -60.01836063115067, False, True, -6.47170500169344, 0.011267372994131483, 0.36882495216889666, 1.2913006622376395, 0.5828571428571429, 0.6927448258592512, 0.4037712699293921
121.2357775030137, 101.33333333333333, 116.0, 36.48, 4180.801344107822, 147.61932229343077, False, True, -5.107892077708813, 0.028998215300010927, 1.7326378761535226, 3.323349164008051, 0.8735632183908045, 1.1964056990428984, 1.0451360129570146
108.63295140505868, 82.66666666666667, 116.0, 36.48, 4180.801344107822, -172.40535663140858, False, True, -5.26624580929472, 0.02598376303101788, 1.5742841445676163, 2.9778769573755124, 0.7126436781609196, 1.3141082831257098, 0.9364909603884368
58.24975573485382, 66.66666666666667, 116.66666666666667, 36.48, 4180.801344107822, -37.568592028827496, False, True, -6.16538368339814, 0.013932677240679621, 0.675146270464196, 1.5967586550124404, 0.5714285714285714, 0.8737463360228073, 0.4992836205844613
108.63295140505868, 87.33333333333333, 116.0, 36.48, 4180.801344107822, 97.59464336859145, False, True, -5.26624580929472, 0.02598376303101788, 1.5742841445676163, 2.9778769573755124, 0.7528735632183907, 1.2438887565464736, 0.9364909603884368
129.5838224187546, 70.66666666666667, 116.66666666666667, 36.48, 4180.801344107822, -80.90972307917767, False, True, -5.011821968812545, 0.030994972435459654, 1.828707985049791, 3.5521881145491947, 0.6057142857142858, 1.8337333361144519, 1.1107184778750394
106.72861956172962, 77.33333333333333, 116.0, 36.48, 4180.801344107822, 106.82140989004084, False, True, -5.291760497944462, 0.025528268572757404, 1.548769455917874, 2.9256748783368867, 0.6666666666666666, 1.380111459849952, 0.9200743065666346
131.8228117787233, 80.0, 116.66666666666667, 36.48, 4180.801344107822, -102.40741852740074, False, True, -4.987107539889496, 0.031530513154973676, 1.8534224139728401, 3.6135639193728974, 0.6857142857142857, 1.6477851472340412, 1.1299098152461995
96.74562748477142, 94.66666666666667, 116.0, 36.48, 4180.801344107822, 45.0, False, True, -5.433439224677319, 0.023140450722711106, 1.407090729185017, 2.6520182972799184, 0.8160919540229885, 1.021960853712374, 0.834014030041133
70.42758663147937, 83.33333333333333, 116.0, 36.48, 4180.801344107822, 112.98871680208065, False, True, -5.891495037162674, 0.016845475504531186, 0.9490349166996618, 1.9305807738892373, 0.7183908045977011, 0.8451310395777525, 0.6071343675127532
74.11821048680189, 81.33333333333333, 116.66666666666667, 36.48, 4180.801344107822, -22.380135051959574, False, True, -5.817807634069197, 0.01772823063962601, 1.0227223197931383, 2.031749190975929, 0.6971428571428571, 0.9112894731983839, 0.6352989470297304
146.1655347968374, 100.66666666666667, 116.0, 36.48, 4180.801344107822, -158.58703052512826, False, True, -4.838104418359874, 0.03496112892396444, 2.002425535502462, 4.006730668772955, 0.867816091954023, 1.4519755112268615, 1.2600477137658397
71.92616221019868, 103.33333333333333, 116.66666666666667, 36.48, 4180.801344107822, -173.6598082540901, False, True, -5.861119055598642, 0.01720391769189589, 0.979410898263695, 1.971660148305885, 0.8857142857142857, 0.6960596342922454, 0.6165099618017029
125.63506539690256, 100.66666666666667, 116.0, 36.48, 4180.801344107822, -27.597295868643723, False, True, -5.056468404393145, 0.030050474790907087, 1.7840615494691907, 3.4439436786431625, 0.867816091954023, 1.2480304509626081, 1.0830609085939875
29.568044943810378, 72.0, 116.66666666666667, 36.48, 4180.801344107822, -110.55604521958348, False, True, -7.143596828581612, 0.007072339130746276, -0.30306687471927574, 0.8105275478018197, 0.6171428571428571, 0.41066729088625525, 0.2534403852326604
75.8486019019062, 91.33333333333333, 116.0, 36.48, 4180.801344107822, 36.25383773744479, False, True, -5.784513095480371, 0.018142120531223712, 1.0560168583819658, 2.0791831661706746, 0.7873563218390804, 0.8304591449113818, 0.6538672577750535
40.24777358467925, 108.0, 116.66666666666667, 36.48, 4180.801344107822, 122.00538320808353, False, True, -6.69872670453977, 0.009626808420687609, 0.1418032493225654, 1.103283267123883, 0.9257142857142857, 0.37266457022851157, 0.34498091644010787
106.68409258308496, 70.0, 116.0, 36.48, 4180.801344107822, -78.43986920578224, False, True, -5.292362513181164, 0.02551761822729016, 1.5481674406811716, 2.9244542922994783, 0.603448275862069, 1.5240584654726423, 0.9196904533024566
110.56111595127139, 91.33333333333333, 116.0, 36.48, 4180.801344107822, 16.460014812040036, False, True, -5.240863505688385, 0.02644495799999916, 1.5996664481739504, 3.030732345155466, 0.7873563218390804, 1.2105231673496868, 0.953113068545443
134.73207977195472, 94.66666666666667, 116.0, 36.48, 4180.801344107822, 164.35775354279127, False, True, -4.9556141904044235, 0.032226376879121096, 1.8849157634579123, 3.693313590239987, 0.8160919540229885, 1.4232261947741696, 1.1614834463099544
150.9328315065045, 112.0, 116.0, 36.48, 4180.801344107822, -41.378515295882664, False, True, -4.791800927744631, 0.03610141192650075, 2.048729026117705, 4.1374131443669, 0.9655172413793104, 1.3476145670223616, 1.3011450991940043
113.79384868858794, 80.66666666666667, 116.66666666666667, 36.48, 4180.801344107822, -75.74052735178951, False, True, -5.199285015950239, 0.02721819080185725, 1.6412449379120966, 3.119348922384538, 0.6914285714285714, 1.4106675457262967, 0.9753758459021823
87.93748288895013, 81.33333333333333, 116.0, 36.48, 4180.801344107822, 124.87532834460217, False, True, -5.5711574457382556, 0.02103364299116582, 1.26937250812408, 2.4105669651576243, 0.7011494252873562, 1.0811985601100427, 0.7580817490426736
142.07488089144982, 80.0, 116.66666666666667, 36.48, 4180.801344107822, -99.63753811293095, False, True, -4.879056082572015, 0.03398269116318619, 1.9614738712903208, 3.8945965156647433, 0.6857142857142857, 1.7759360111431228, 1.217784693355284
62.80450198781712, 85.33333333333333, 116.66666666666667, 36.48, 4180.801344107822, -135.0, False, True, -6.056767704459818, 0.015022120598083458, 0.783762249402518, 1.7216146378239343, 0.7314285714285713, 0.7359902576697319, 0.5383243027527181
117.19782918407542, 105.33333333333333, 116.0, 36.48, 4180.801344107822, -14.620873988631656, False, True, -5.156761741024411, 0.028032384114410797, 1.6837682128379252, 3.212659791230138, 0.9080459770114943, 1.112637618836159, 1.0103261136558226
139.07773249117713, 122.66666666666667, 116.66666666666667, 36.48, 4180.801344107822, 144.21102654081668, False, True, -4.909816137656952, 0.03326580744793942, 1.9307138162053843, 3.8124378424116543, 1.0514285714285714, 1.1337858626998134, 1.1920948499243753
71.26205101855957, 92.0, 116.0, 36.48, 4180.801344107822, 56.309932474020215, False, True, -5.874501676574631, 0.01704506986895997, 0.9660282772877037, 1.9534553459034973, 0.7931034482758621, 0.7745875110712998, 0.6143280260220653
77.82461459976612, 68.0, 116.66666666666667, 36.48, 4180.801344107822, -68.19859051364818, False, True, -5.747409156114903, 0.018614760232376886, 1.0931207977474326, 2.1333501809146416, 0.5828571428571429, 1.1444796264671488, 0.6670681251408525
118.24669444347391, 91.33333333333333, 116.0, 36.48, 4180.801344107822, 142.6506509553594, False, True, -5.143907734525336, 0.028283260722283283, 1.6966222193369995, 3.2414115801390877, 0.7873563218390804, 1.2946718369723422, 1.019368055547189
117.19782918407542, 94.66666666666667, 116.0, 36.48, 4180.801344107822, -157.75097634278762, False, True, -5.156761741024411, 0.028032384114410797, 1.6837682128379252, 3.212659791230138, 0.8160919540229885, 1.2380052378599515, 1.0103261136558226
45.49674315968679, 80.0, 116.66666666666667, 36.48, 4180.801344107822, -78.31063082456082, False, True, -6.521872408285264, 0.010882302079195235, 0.3186575455770711, 1.247169494508958, 0.6857142857142857, 0.5687092894960848, 0.38997208422588675
87.93748288895013, 82.0, 116.0, 36.48, 4180.801344107822, -145.12467165539783, False, True, -5.5711574457382556, 0.02103364299116582, 1.26937250812408, 2.4105669651576243, 0.7068965517241379, 1.072408327914026, 0.7580817490426736
75.68723340849637, 97.33333333333333, 116.0, 36.48, 4180.801344107822, 66.19405648154229, False, True, -5.787585710122583, 0.018103523027987338, 1.0529442437397527, 2.074759687732905, 0.8390804597701149, 0.7776085624160586, 0.6524761500732446
103.85628884240275, 81.33333333333333, 116.66666666666667, 36.48, 4180.801344107822, -37.64762064010764, False, True, -5.331119009685098, 0.02484123982326301, 1.5094109441772376, 2.8469377423904265, 0.6971428571428571, 1.2769215841279027, 0.8901967615063092
99.45809649801846, 68.66666666666667, 116.0, 36.48, 4180.801344107822, -3.9909130984297803, False, True, -5.393546863315689, 0.023789242375313747, 1.4469830905466463, 2.7263732592658574, 0.5919540229885057, 1.4484188810391037, 0.8573973836036074
116.77665961010275, 102.0, 116.0, 36.48, 4180.801344107822, 145.30484646876602, False, True, -5.161955639856317, 0.02793164515570226, 1.6785743140060185, 3.201114572645361, 0.8793103448275862, 1.1448692118637525, 1.006695341466403
127.51942537826669, 66.66666666666667, 116.66666666666667, 36.48, 4180.801344107822, -61.38954033403479, False, True, -5.034990555023061, 0.03050119220756211, 1.8055393988392743, 3.4955982833954686, 0.5714285714285714, 1.9127913806740002, 1.0930236460994287
158.24553626589483, 119.33333333333333, 116.0, 36.48, 4180.801344107822, 120.11373315098245, False, True, -4.723542783281404, 0.037850527504473964, 2.1169871705809316, 4.337871059920363, 1.028735632183908, 1.326079912842694, 1.3641856574646105
121.07092537015846, 138.66666666666666, 116.0, 36.48, 4180.801344107822, 104.32271997820357, False, True, -5.109855138477872, 0.028958784549949684, 1.730674815384464, 3.3188301910679407, 1.1954022988505746, 0.8731076348809506, 1.0437148738806763
87.83800993793425, 90.0, 116.0, 36.48, 4180.801344107822, -5.710593137499643, False, True, -5.572790314418013, 0.021009850195759246, 1.2677396394443228, 2.407840184702145, 0.7758620689655172, 0.9759778881992693, 0.7572242236028814
134.4622745994268, 106.66666666666667, 116.0, 36.48, 4180.801344107822, 140.47736872882888, False, True, -4.958506128577938, 0.03216184255894629, 1.8820238252843975, 3.685917615115866, 0.9195402298850575, 1.2605838243696261, 1.159157539650231
87.83800993793425, 80.0, 116.66666666666667, 36.48, 4180.801344107822, -95.71059313749964, False, True, -5.572790314418013, 0.021009850195759246, 1.2677396394443228, 2.407840184702145, 0.6857142857142857, 1.097975124224178, 0.7528972280394364
89.47152403397563, 96.0, 116.0, 36.48, 4180.801344107822, 127.99873244250468, False, True, -5.5462070922936695, 0.021400568137510668, 1.2943228615686668, 2.452618531633104, 0.8275862068965517, 0.9319950420205795, 0.7713062416722036
116.77665961010275, 97.33333333333333, 116.66666666666667, 36.48, 4180.801344107822, -55.30484646876604, False, True, -5.161955639856317, 0.02793164515570226, 1.6785743140060185, 3.201114572645361, 0.8342857142857142, 1.1997602014736586, 1.0009427966580235
99.36527382830413, 82.0, 116.0, 36.48, 4180.801344107822, -21.80140948635181, False, True, -5.394893936497161, 0.023767040251348886, 1.4456360173651743, 2.7238287781881616, 0.7068965517241379, 1.2117716320524894, 0.8565971881750356
123.81398201998151, 115.33333333333333, 116.0, 36.48, 4180.801344107822, 116.56505117707799, False, True, -5.077533344588861, 0.029614892416373176, 1.7629966092734748, 3.394023629933704, 0.9942528735632183, 1.0735316360114004, 1.0673619139653578
119.08166214652486, 81.33333333333333, 116.66666666666667, 36.48, 4180.801344107822, -91.19348942398204, False, True, -5.1337563244543665, 0.028482975474152013, 1.7067736294079696, 3.2642999491920195, 0.6971428571428571, 1.4641187968835025, 1.0206999612559273
139.28985276791127, 86.0, 116.66666666666667, 36.48, 4180.801344107822, 105.01836063115067, False, True, -4.907617426695226, 0.0333165441989293, 1.9329125271671102, 3.8182525429800243, 0.7371428571428571, 1.619649450789666, 1.1939130237249538
51.10449935416659, 56.666666666666664, 116.0, 36.48, 4180.801344107822, -69.22774531795417, False, True, -6.354185368519408, 0.01222361340516461, 0.48634458534292835, 1.4008908814190404, 0.48850574712643674, 0.9018441062499987, 0.4405560289152292
60.5465541462291, 72.0, 116.66666666666667, 36.48, 4180.801344107822, 171.38435181583588, False, True, -6.109590828443061, 0.014482045225985177, 0.7309391254192756, 1.659719137780403, 0.6171428571428571, 0.8409243631420709, 0.5189704641105352
105.43282496782207, 91.33333333333333, 116.0, 36.48, 4180.801344107822, 19.653824058053306, False, True, -5.3093834895701955, 0.025218329284268183, 1.531146464292141, 2.890154193196877, 0.7873563218390804, 1.154373995998052, 0.9089036635157075
111.95078930121953, 75.33333333333333, 116.66666666666667, 36.48, 4180.801344107822, -128.85337434035333, False, True, -5.222842888630655, 0.02677735201625795, 1.6176870652316806, 3.068826461107992, 0.6457142857142857, 1.4860724243524717, 0.9595781940104531
63.5683853270081, 76.66666666666667, 116.66666666666667, 36.48, 4180.801344107822, -84.95754893082909, False, True, -6.039326239739522, 0.015204832780825064, 0.801203714122813, 1.742554422341231, 0.6571428571428571, 0.82915285209141, 0.544871874231498
57.63862173851608, 91.33333333333333, 116.0, 36.48, 4180.801344107822, 40.0302592718897, False, True, -6.180599845332921, 0.013786500958661572, 0.6599301085294149, 1.5800060783584453, 0.7873563218390804, 0.6310798000567455, 0.49688467015962134
146.0194510907359, 112.0, 116.66666666666667, 36.48, 4180.801344107822, -170.5376777919744, False, True, -4.839547026748993, 0.03492618736753116, 2.000982927113343, 4.0027261812153485, 0.96, 1.3037450990244277, 1.2515952950634506
52.57883861180173, 108.0, 116.0, 36.48, 4180.801344107822, -22.479434397103113, False, True, -6.3131534080408125, 0.012576258540938159, 0.5273765458215238, 1.4413058829989511, 0.9310344827586207, 0.4868410982574234, 0.45326585010173903
99.78258305351348, 170.0, 232.66666666666666, 36.48, 4180.801344107822, -132.1844433157888, False, True, -5.3888476667520715, 0.023866855858660024, 1.4516822871102646, 2.735268175809032, 0.7306590257879656, 0.5869563709030204, 0.42886497014404074
67.49639892863551, 150.66666666666666, 232.66666666666666, 36.48, 4180.801344107822, 19.98310652189998, False, True, -5.9528251498887155, 0.016144368835835983, 0.887704803973621, 1.8502302337893508, 0.6475644699140402, 0.44798494864138616, 0.2900991357964277
125.63506539690256, 178.66666666666666, 232.66666666666666, 36.48, 4180.801344107822, 108.79988515865267, False, True, -5.056468404393145, 0.030050474790907087, 1.7840615494691907, 3.4439436786431625, 0.7679083094555874, 0.7031813361766934, 0.5399787911041658
135.65447696648476, 177.33333333333334, 232.0, 36.48, 4180.801344107822, -94.39870535499553, False, True, -4.945770927214178, 0.032447003768229336, 1.8947590266481587, 3.7185986010549557, 0.764367816091954, 0.7649688550741621, 0.5847175731313998
