79.8797853963424, 56.666666666666664, 144.66666666666666, 36.48, 4180.801344107822, 47.12109639666145, False, True, -5.709805226497583, 0.01910633364795491, 1.1307247273647534, 2.1896870996804387, 0.391705069124424, 1.4096432717001601, 0.5521644151820904
57.63862173851608, 95.33333333333333, 145.33333333333334, 36.48, 4180.801344107822, 27.34987578006988, False, True, -6.180599845332921, 0.013786500958661572, 0.6599301085294149, 1.5800060783584453, 0.6559633027522935, 0.6046009273270918, 0.3965960211365785
57.82226179417454, 88.0, 145.33333333333334, 36.48, 4180.801344107822, -113.42869280874541, False, True, -6.176010640523421, 0.013830425565583466, 0.6645193133389156, 1.5850400711122408, 0.6055045871559632, 0.6570711567519834, 0.3978595995012009
72.03655168313487, 110.0, 144.66666666666666, 36.48, 4180.801344107822, 155.55604521958347, False, True, -5.858906560820271, 0.01723032159484425, 0.9816233930420644, 1.9746861755245306, 0.7603686635944701, 0.6548777425739534, 0.49794851393872036
57.63862173851608, 132.66666666666666, 144.66666666666666, 36.48, 4180.801344107822, 62.650124219930134, False, True, -6.180599845332921, 0.013786500958661572, 0.6599301085294149, 1.5800060783584453, 0.9170506912442397, 0.43446197290338756, 0.39842365257038764
59.52396129343357, 104.66666666666667, 145.33333333333334, 36.48, 4180.801344107822, -61.11341823308929, False, True, -6.134165143003982, 0.014237452678138649, 0.7063648108583536, 1.6316875354559643, 0.7201834862385321, 0.5687002671347157, 0.409568541009864
58.06671483327359, 125.33333333333333, 144.66666666666666, 36.48, 4180.801344107822, 148.73626830562256, False, True, -6.169924268539341, 0.013888895944579965, 0.6706056853229949, 1.591741086438421, 0.8663594470046083, 0.4632982566484595, 0.4013828214281585
27.040000000000006, 114.66666666666667, 145.33333333333334, 36.48, 4180.801344107822, 0.0, False, True, -7.272540531744893, 0.006467659612219703, -0.432010577882557, 0.7412280701754388, 0.7889908256880733, 0.23581395348837214, 0.18605504587155966
43.315534829989076, 101.33333333333333, 144.66666666666666, 36.48, 4180.801344107822, -116.56505117707799, False, True, -6.592751152575946, 0.01036058192313669, 0.24777880128638988, 1.1873775995062796, 0.7004608294930875, 0.42745593582226066, 0.2994161393778047
91.23500601419035, 124.66666666666667, 144.66666666666666, 36.48, 4180.801344107822, 34.07719528013074, False, True, -5.518048204226393, 0.02182237291488907, 1.3224817496359427, 2.5009595946872354, 0.8617511520737328, 0.7318315990443076, 0.6306567236003942
52.32367810692661, 89.33333333333333, 145.33333333333334, 36.48, 4180.801344107822, 16.69924423399362, False, True, -6.320171724331144, 0.012515227058245319, 0.5203582295311922, 1.4343113516153128, 0.6146788990825688, 0.5857128146297755, 0.36002530807518307
57.63862173851608, 105.33333333333333, 145.33333333333334, 36.48, 4180.801344107822, 152.65012421993012, False, True, -6.180599845332921, 0.013786500958661572, 0.6599301085294149, 1.5800060783584453, 0.7247706422018347, 0.5472021051124945, 0.3965960211365785
36.87624174196786, 88.66666666666667, 145.33333333333334, 36.48, 4180.801344107822, -10.4914770123316, False, True, -6.82494405299117, 0.008820376455805318, 0.015585900871165572, 1.010861889856575, 0.6100917431192661, 0.4158974632552766, 0.2537356083162926
36.29200226998131, 70.66666666666667, 145.33333333333334, 36.48, 4180.801344107822, 66.25050550713325, False, True, -6.847984029267896, 0.008680633037283425, -0.007454075405559863, 0.9948465534534351, 0.48623853211009177, 0.5135660698582261, 0.24971561194941266
47.040000000000006, 69.33333333333333, 144.66666666666666, 36.48, 4180.801344107822, -53.13010235415598, False, True, -6.473747623190713, 0.011251431514749067, 0.366782330671623, 1.2894736842105265, 0.4792626728110599, 0.6784615384615386, 0.32516129032258073
48.892369693822545, 92.0, 144.66666666666666, 36.48, 4180.801344107822, -156.80140948635182, False, True, -6.418026352417064, 0.011694497219469326, 0.4225036014452723, 1.3402513622210128, 0.6359447004608295, 0.5314388010198102, 0.3379656891278056
52.259806739988235, 95.33333333333333, 145.33333333333334, 36.48, 4180.801344107822, -153.43494882292202, False, True, -6.321933893873076, 0.012499949755718522, 0.518596059989261, 1.4325604917759933, 0.6559633027522935, 0.5481797909788976, 0.35958582619257956
87.04, 66.0, 144.66666666666666, 36.48, 4180.801344107822, 180.0, False, True, -5.585957126776738, 0.020818975319807795, 1.254572827085598, 2.385964912280702, 0.45622119815668205, 1.3187878787878788, 0.6016589861751153
56.839845916703624, 93.33333333333333, 144.66666666666666, 36.48, 4180.801344107822, 33.690067525979785, False, True, -6.200733039683468, 0.013595442892021262, 0.639796914178868, 1.5581098113131477, 0.6451612903225806, 0.6089983491075388, 0.3929021607145412
57.270564768797655, 90.66666666666667, 144.66666666666666, 36.48, 4180.801344107822, -42.51044707800085, False, True, -6.18984185281754, 0.013698465929148118, 0.6506881010447966, 1.5699167973902868, 0.6267281105990784, 0.6316606408323271, 0.3958794799686474
61.977022347464, 96.66666666666667, 145.33333333333334, 36.48, 4180.801344107822, -101.97613244420336, False, True, -6.075902240279218, 0.014824196905411641, 0.7646277135831183, 1.6989315336475879, 0.6651376146788991, 0.6411416104910068, 0.4264474014733761
39.111405808975206, 80.66666666666667, 144.66666666666666, 36.48, 4180.801344107822, -34.824489156956794, False, True, -6.740046290551947, 0.009355002208869968, 0.10048366331038867, 1.0721328346758556, 0.5576036866359447, 0.48485213812779177, 0.270355339693377
45.63595271340418, 82.0, 144.66666666666666, 36.48, 4180.801344107822, -61.27386933469564, False, True, -6.517464833438945, 0.010915599416777081, 0.32306512042339164, 1.2509855458718253, 0.5668202764976958, 0.5565360087000509, 0.315455894332287
47.040000000000006, 94.0, 144.66666666666666, 36.48, 4180.801344107822, 53.13010235415598, False, True, -6.473747623190713, 0.011251431514749067, 0.366782330671623, 1.2894736842105265, 0.6497695852534563, 0.5004255319148937, 0.32516129032258073
57.270564768797655, 82.66666666666667, 144.66666666666666, 36.48, 4180.801344107822, -47.48955292199915, False, True, -6.18984185281754, 0.013698465929148118, 0.6506881010447966, 1.5699167973902868, 0.5714285714285715, 0.6927890899451329, 0.3958794799686474
88.48348856488452, 90.66666666666667, 144.66666666666666, 36.48, 4180.801344107822, 131.98721249581666, False, True, -5.562227416734021, 0.021164241321723645, 1.2783025371283148, 2.4255342260110893, 0.6267281105990784, 0.9759208297597557, 0.6116370177296165
113.11525359380813, 113.33333333333333, 145.33333333333334, 36.48, 4180.801344107822, 115.46334506187162, False, True, -5.207914098581353, 0.027055878594477153, 1.6326158552809837, 3.1007470831636006, 0.7798165137614678, 0.9980757670041894, 0.77831596509501
243.34365157550747, 104.66666666666667, 145.33333333333334, 36.48, 4180.801344107822, 147.91781284393397, False, True, -4.102712450844986, 0.05820502615329041, 2.73781750301735, 6.670604483977727, 0.7201834862385321, 2.32493934626281, 1.6743829236846843
163.41258724310654, 126.0, 144.66666666666666, 36.48, 4180.801344107822, -23.962488974578182, False, True, -4.677188473697832, 0.03908642716866008, 2.1633414801645037, 4.479511711707965, 0.8709677419354839, 1.2969252955802106, 1.129580096150506
40.881995766061664, 80.66666666666667, 145.33333333333334, 36.48, 4180.801344107822, 18.43494882292201, False, True, -6.676170056279309, 0.009778507133250512, 0.16435989758302644, 1.1206687435872167, 0.555045871559633, 0.5068016004057231, 0.2812981360050114
69.08224723651763, 111.33333333333333, 144.66666666666666, 36.48, 4180.801344107822, -32.34744349944203, False, True, -5.919320669052772, 0.016523685664681993, 0.9212092848095643, 1.8937019527554178, 0.7695852534562212, 0.6204992266753081, 0.47752705463030626
123.20319736382767, 86.0, 144.66666666666666, 36.48, 4180.801344107822, 177.6626941408762, False, True, -5.084667891202267, 0.029468799692542933, 1.7558620626600687, 3.3772806294908904, 0.5944700460829494, 1.4325953181840427, 0.8516350048190854
68.40477637657834, 106.66666666666667, 145.33333333333334, 36.48, 4180.801344107822, -154.88516511385544, False, True, -5.933538618279845, 0.016361642361453994, 0.9069913355824918, 1.875130931375503, 0.7339449541284403, 0.6412947785304219, 0.4706750668113188
63.5683853270081, 78.0, 144.66666666666666, 36.48, 4180.801344107822, -31.827446576673115, False, True, -6.039326239739522, 0.015204832780825064, 0.801203714122813, 1.742554422341231, 0.5391705069124424, 0.8149792990642064, 0.4394128017995952
70.42758663147937, 98.66666666666667, 144.66666666666666, 36.48, 4180.801344107822, 22.98871680208064, False, True, -5.891495037162674, 0.016845475504531186, 0.9490349166996618, 1.9305807738892373, 0.6820276497695853, 0.7137931077514801, 0.48682663570147033
27.040000000000006, 88.0, 145.33333333333334, 36.48, 4180.801344107822, 0.0, False, True, -7.272540531744893, 0.006467659612219703, -0.432010577882557, 0.7412280701754388, 0.6055045871559632, 0.30727272727272736, 0.18605504587155966
27.040000000000006, 102.66666666666667, 144.66666666666666, 36.48, 4180.801344107822, 180.0, False, True, -7.272540531744893, 0.006467659612219703, -0.432010577882557, 0.7412280701754388, 0.7096774193548387, 0.26337662337662343, 0.1869124423963134
95.04, 82.0, 145.33333333333334, 36.48, 4180.801344107822, 180.0, False, True, -5.459100847226312, 0.022732484080819543, 1.3814291066360243, 2.605263157894737, 0.5642201834862385, 1.1590243902439026, 0.6539449541284403
109.81855454073381, 103.33333333333333, 144.66666666666666, 36.48, 4180.801344107822, -23.19859051364819, False, True, -5.250585761070603, 0.02626734577941755, 1.589944192791733, 3.0103770433315193, 0.7142857142857143, 1.062760205232908, 0.7591144323092199
115.84677953929516, 125.33333333333333, 144.66666666666666, 36.48, 4180.801344107822, 126.38435181583588, False, True, -5.173489649646213, 0.027709228447929692, 1.6670403042161224, 3.1756244391254156, 0.8663594470046083, 0.9243094112177805, 0.8007841903637914
95.04, 98.66666666666667, 145.33333333333334, 36.48, 4180.801344107822, 0.0, False, True, -5.459100847226312, 0.022732484080819543, 1.3814291066360243, 2.605263157894737, 0.6788990825688074, 0.9632432432432433, 0.6539449541284403
180.02221281347033, 119.33333333333333, 144.66666666666666, 36.48, 4180.801344107822, -145.30484646876602, False, True, -4.537532657818954, 0.043059260174412056, 2.302997296043382, 4.934819430193814, 0.8248847926267281, 1.5085660291631593, 1.2443931761299794
124.9490700296477, 90.0, 144.66666666666666, 36.48, 4180.801344107822, -14.036243467926477, False, True, -5.064367424696935, 0.02988639252275013, 1.7761625291654008, 3.4251389810758694, 0.6221198156682028, 1.388323000329419, 0.8637032490528643
119.70551326067674, 84.0, 144.66666666666666, 36.48, 4180.801344107822, 85.23635830927383, False, True, -5.126217988655131, 0.028632193545714082, 1.7143119652072054, 3.281401131049253, 0.5806451612903226, 1.4250656340556755, 0.8274574649355535
77.61224179774969, 106.66666666666667, 145.33333333333334, 36.48, 4180.801344107822, -163.00917670801385, False, True, -5.751351456365208, 0.018563963080219504, 1.0891784974971277, 2.127528558052349, 0.7339449541284403, 0.7276147668539034, 0.5340291866817639
75.90235252742717, 88.66666666666667, 145.33333333333334, 36.48, 4180.801344107822, 30.699722550814414, False, True, -5.783491081952767, 0.018154977067829238, 1.0570388719095687, 2.08065659340535, 0.6100917431192661, 0.8560415698582011, 0.5222638935373429
115.08254837669055, 106.66666666666667, 145.33333333333334, 36.48, 4180.801344107822, -1.2188752351312977, False, True, -5.183038515036252, 0.02752643306979443, 1.6574914388260846, 3.1546751199750704, 0.7339449541284403, 1.0788988910314739, 0.7918523970873202
68.9131828077456, 100.0, 144.66666666666666, 36.48, 4180.801344107822, -139.57392125990086, False, True, -5.9228556924218205, 0.016483247381478154, 0.9176742614405158, 1.889067511177237, 0.6912442396313364, 0.689131828077456, 0.47635840650515393
64.96751719653334, 104.66666666666667, 145.33333333333334, 36.48, 4180.801344107822, -73.14160123226172, False, True, -6.007917111268112, 0.015539489167093475, 0.8326128425942239, 1.7809078178874271, 0.7201834862385321, 0.6207087630242039, 0.44702420089357797
75.52568954616468, 109.33333333333333, 144.66666666666666, 36.48, 4180.801344107822, -27.25532837494307, False, True, -5.7906682326105035, 0.018064883578504918, 1.0498617212518324, 2.0703314020330232, 0.7557603686635945, 0.6907837458490673, 0.5220669784297098
85.28032355881986, 84.66666666666667, 144.66666666666666, 36.48, 4180.801344107822, 16.144338780283483, False, True, -5.615422771583341, 0.020398080783964774, 1.225107182278995, 2.3377281677308077, 0.5852534562211982, 1.0072479160490535, 0.5894953241393078
57.63862173851608, 92.66666666666667, 144.66666666666666, 36.48, 4180.801344107822, -152.65012421993012, False, True, -6.180599845332921, 0.013786500958661572, 0.6599301085294149, 1.5800060783584453, 0.6405529953917052, 0.6219995151638426, 0.39842365257038764
48.892369693822545, 82.0, 144.66666666666666, 36.48, 4180.801344107822, 113.1985905136482, False, True, -6.418026352417064, 0.011694497219469326, 0.4225036014452723, 1.3402513622210128, 0.5668202764976958, 0.5962484109002749, 0.3379656891278056
55.60126943990558, 83.33333333333333, 145.33333333333334, 36.48, 4180.801344107822, -84.64417495714481, False, True, -6.232517861679702, 0.013299189524579246, 0.6080120921826334, 1.5241576052605696, 0.5733944954128439, 0.667215233278867, 0.3825775420176989
85.68425612041553, 99.33333333333333, 144.66666666666666, 36.48, 4180.801344107822, 56.309932474020215, False, True, -5.6086055397460814, 0.020494696845898677, 1.231924414116255, 2.348800880493847, 0.6866359447004609, 0.8625931824202906, 0.5922874847033331
74.5527113166862, 84.66666666666667, 144.66666666666666, 36.48, 4180.801344107822, 130.6012946450045, False, True, -5.809374862284732, 0.01783215828270732, 1.0311550915776049, 2.0436598496898633, 0.5852534562211982, 0.8805438344490496, 0.5153413224655728
135.04000000000002, 114.66666666666667, 145.33333333333334, 36.48, 4180.801344107822, -67.38013505195958, False, True, -4.952320779319892, 0.032300027885878276, 1.8882091745424439, 3.701754385964913, 0.7889908256880733, 1.1776744186046513, 0.9291743119266056
79.0926224699857, 130.66666666666666, 145.33333333333334, 36.48, 4180.801344107822, -178.49256424122504, False, True, -5.7240925527926985, 0.018918053253464014, 1.1164374010696378, 2.1681091685851346, 0.8990825688073393, 0.6053006821682579, 0.5442152922246722
108.14770276274835, 110.66666666666667, 144.66666666666666, 36.48, 4180.801344107822, 83.6598082540901, False, True, -5.2727045680967395, 0.025867697089976646, 1.5678253857655968, 2.9645751853823565, 0.7649769585253458, 0.9772382779766416, 0.7475647656411177
155.04000000000002, 93.33333333333333, 144.66666666666666, 36.48, 4180.801344107822, 0.0, False, True, -4.753067112611996, 0.03708379978840764, 2.0874628412503395, 4.250000000000001, 0.6451612903225806, 1.6611428571428575, 1.071705069124424
158.9710242291876, 99.33333333333333, 145.33333333333334, 36.48, 4180.801344107822, 122.3196165081802, False, True, -4.716943760140175, 0.038024055951195124, 2.1235861937221605, 4.357758339615889, 0.68348623853211, 1.6003794385488685, 1.0938373226778964
100.7063467687393, 103.33333333333333, 144.66666666666666, 36.48, 4180.801344107822, -104.67639313745003, False, True, -5.375552979976542, 0.024087809603933696, 1.4649769738857947, 2.7605906460728975, 0.7142857142857143, 0.9745775493748965, 0.6961268209820689
43.315534829989076, 91.33333333333333, 144.66666666666666, 36.48, 4180.801344107822, 3.945186229037563, False, True, -6.592751152575946, 0.01036058192313669, 0.24777880128638988, 1.1873775995062796, 0.631336405529954, 0.47425768062031837, 0.2994161393778047
47.040000000000006, 81.33333333333333, 145.33333333333334, 36.48, 4180.801344107822, 126.86989764584402, False, True, -6.473747623190713, 0.011251431514749067, 0.366782330671623, 1.2894736842105265, 0.5596330275229358, 0.578360655737705, 0.3236697247706422
184.81703543954416, 130.0, 144.66666666666666, 36.48, 4180.801344107822, -175.55015293334407, False, True, -4.499609845731072, 0.04420612706222326, 2.3409201081312636, 5.066256453934873, 0.8986175115207374, 1.4216695033811089, 1.2775371113332545
143.55789764358974, 77.33333333333333, 144.66666666666666, 36.48, 4180.801344107822, -78.27488798483493, False, True, -4.864074887832735, 0.03433741185667955, 1.9764550660296014, 3.9352493871598067, 0.5345622119815668, 1.8563521247015915, 0.9923356979971641
35.72302535354821, 60.666666666666664, 145.33333333333334, 36.48, 4180.801344107822, -77.24246783912334, False, True, -6.870781417078982, 0.008544540247982402, -0.030251463216646297, 0.9792495985073523, 0.4174311926605504, 0.5888410772562892, 0.2458006331666161
90.48418007380992, 116.0, 145.33333333333334, 36.48, 4180.801344107822, -54.46232220802562, False, True, -5.529970104695329, 0.021642783913024967, 1.3105598491670067, 2.4803777432513687, 0.7981651376146789, 0.7800360351190511, 0.6225975693152058
48.958005233025375, 101.33333333333333, 144.66666666666666, 36.48, 4180.801344107822, 138.99091309842981, False, True, -6.416090905952261, 0.01171019649188162, 0.4244390479100746, 1.3420505820456519, 0.7004608294930875, 0.48313820953643466, 0.33841939101169616
30.267903204511526, 110.66666666666667, 144.66666666666666, 36.48, 4180.801344107822, 125.53767779197439, False, True, -7.109846946793207, 0.007239737244911038, -0.2693169929308716, 0.8297122588956011, 0.7649769585253458, 0.27350514943835713, 0.2092251373583746
76.49233353815525, 91.33333333333333, 145.33333333333334, 36.48, 4180.801344107822, 105.52411099675426, False, True, -5.772320522758785, 0.018296093796936582, 1.0682094311035504, 2.096829318480133, 0.628440366972477, 0.8375073015126487, 0.526323395904738
86.28823389915506, 112.0, 144.66666666666666, 36.48, 4180.801344107822, 11.592175410291071, False, True, -5.5984718337245996, 0.02063916144228299, 1.2420581201377363, 2.365357288902277, 0.7741935483870969, 0.7704306598138845, 0.5964624463075235
77.61224179774969, 101.33333333333333, 144.66666666666666, 36.48, 4180.801344107822, -73.00917670801384, False, True, -5.751351456365208, 0.018563963080219504, 1.0891784974971277, 2.127528558052349, 0.7004608294930875, 0.7659102808988456, 0.5364901506756892
78.45994584598161, 88.66666666666667, 145.33333333333334, 36.48, 4180.801344107822, -77.79953127261922, False, True, -5.735679343715477, 0.018766724220599117, 1.104850610146859, 2.150766059374496, 0.6100917431192661, 0.8848866072855068, 0.5398620127017083
56.16009913255179, 64.66666666666667, 145.33333333333334, 36.48, 4180.801344107822, -106.18920625702695, False, True, -6.218090201107228, 0.013432855213678251, 0.6224397527551082, 1.5394764016598628, 0.44495412844036697, 0.8684551412250276, 0.386422700453338
71.59448799674122, 89.33333333333333, 145.33333333333334, 36.48, 4180.801344107822, -165.57922687248902, False, True, -5.867787163555255, 0.017124585002739327, 0.9727427903070807, 1.9625682016650556, 0.6146788990825688, 0.8014308357844168, 0.4926226238307882
68.8003611733548, 110.0, 144.66666666666666, 36.48, 4180.801344107822, 163.6104596659652, False, True, -5.925219544867265, 0.016456261733248347, 0.9153104089950704, 1.8859748128660858, 0.7603686635944701, 0.6254578288486801, 0.47557853345636963
81.44207252495026, 98.66666666666667, 145.33333333333334, 36.48, 4180.801344107822, 36.57303097851933, False, True, -5.681861408009551, 0.01948001491143079, 1.158668545852785, 2.2325129529865753, 0.6788990825688074, 0.8254264107258472, 0.5603812329698412
77.39956903370002, 102.66666666666667, 144.66666666666666, 36.48, 4180.801344107822, -28.610459665965216, False, True, -5.7553101500014385, 0.0185130941805648, 1.0852198038608973, 2.1216987125466016, 0.7096774193548387, 0.7538919061724028, 0.535020062444931
88.87942659315128, 94.66666666666667, 144.66666666666666, 36.48, 4180.801344107822, -140.0131137550358, False, True, -5.555786174174952, 0.021258945182461915, 1.2847437796873842, 2.4363877903824367, 0.6543778801843319, 0.9388671823220205, 0.6143739165425204
112.59861607589123, 105.33333333333333, 145.33333333333334, 36.48, 4180.801344107822, 7.431407971172507, False, True, -5.214518492788779, 0.026932304792376984, 1.6260114610735574, 3.0865848705014045, 0.7247706422018347, 1.0689742032521319, 0.7747611197882424
76.97331851193051, 109.33333333333333, 144.66666666666666, 36.48, 4180.801344107822, 133.91907581333933, False, True, -5.76327723653492, 0.01841113991709083, 1.0772527173274162, 2.1100142135945865, 0.7557603686635945, 0.7040242546822914, 0.5320736302668009
119.88190415985837, 116.0, 144.66666666666666, 36.48, 4180.801344107822, -5.355825042855191, False, True, -5.124093684096691, 0.02867438423708243, 1.7164362697656455, 3.2862364078908546, 0.8018433179723503, 1.0334646910332617, 0.8286767568653804
88.03689437998487, 104.0, 144.66666666666666, 36.48, 4180.801344107822, 153.43494882292202, False, True, -5.569527430248434, 0.021057421086045847, 1.2710025236139015, 2.4132920608548485, 0.7188940092165899, 0.8465085998075469, 0.6085499611519692
63.5683853270081, 110.0, 144.66666666666666, 36.48, 4180.801344107822, -58.172553423326896, False, True, -6.039326239739522, 0.015204832780825064, 0.801203714122813, 1.742554422341231, 0.7603686635944701, 0.5778944120637101, 0.4394128017995952
106.81764043395385, 114.66666666666667, 145.33333333333334, 36.48, 4180.801344107822, 69.14554196042165, False, True, -5.290557667435179, 0.025549561350121652, 1.5499722864271568, 2.9281151434746127, 0.7889908256880733, 0.9315491898309929, 0.7349837644538109
257.5184410517576, 148.0, 145.33333333333334, 36.48, 4180.801344107822, -141.88172363063694, False, True, -4.021031840215546, 0.061595474134328115, 2.81949811364679, 7.059167791988969, 1.018348623853211, 1.7399894665659297, 1.771915878796497
200.0381684920249, 268.0, 434.6666666666667, 36.48, 4180.801344107822, 10.980650010173544, False, True, -4.38543228727556, 0.04784684849327918, 2.4550976665867768, 5.483502425768227, 0.6165644171779141, 0.7464110764627795, 0.4602105103344131
30.80897416858278, 95.33333333333333, 144.66666666666666, 36.48, 4180.801344107822, 152.44718842328223, False, True, -7.084285036902589, 0.0073691552486709645, -0.24375508304025323, 0.8445442480422911, 0.6589861751152074, 0.3231710577124068, 0.2129652592298349
30.267903204511526, 93.33333333333333, 144.66666666666666, 36.48, 4180.801344107822, -35.53767779197438, False, True, -7.109846946793207, 0.007239737244911038, -0.2693169929308716, 0.8297122588956011, 0.6451612903225806, 0.32429896290548066, 0.2092251373583746
23.040000000000006, 68.0, 144.66666666666666, 36.48, 4180.801344107822, 180.0, False, True, -7.503494966584764, 0.0055109052317138295, -0.6629650127224289, 0.6315789473684212, 0.4700460829493088, 0.3388235294117648, 0.15926267281105996
23.787092979582596, 70.66666666666667, 145.33333333333334, 36.48, 4180.801344107822, 97.12501634890181, False, True, -7.457456712577161, 0.005689601351929036, -0.6169267587148249, 0.6520584698350493, 0.48623853211009177, 0.33660980631484805, 0.163672658116394
31.11689465006151, 78.66666666666667, 144.66666666666666, 36.48, 4180.801344107822, 2.2025981617658057, False, True, -7.069937591437297, 0.007442806316046528, -0.2294076375749611, 0.8529850507144056, 0.5437788018433181, 0.39555374555162937, 0.2150937418207017
29.020390271855703, 104.66666666666667, 145.33333333333334, 36.48, 4180.801344107822, -154.4400348281762, False, True, -7.1705687621862175, 0.006941346379146991, -0.33003880832388105, 0.7955150842065709, 0.7201834862385321, 0.27726487520881243, 0.1996815844393741
32.26357150372725, 93.33333333333333, 144.66666666666666, 36.48, 4180.801344107822, -98.74616226255522, False, True, -7.017729532983174, 0.007717078341738875, -0.17719957912083853, 0.8844180785012953, 0.6451612903225806, 0.34568112325422057, 0.22302007951885197
31.347238483242393, 80.0, 145.33333333333334, 36.48, 4180.801344107822, -57.528807709151515, False, True, -7.059297328121142, 0.007497901933901109, -0.21876737425880535, 0.8592993005274779, 0.5504587155963302, 0.39184048104052993, 0.2156920079122183
61.44238093129154, 104.0, 144.66666666666666, 36.48, 4180.801344107822, 36.52885536698516, False, True, -6.088401560873422, 0.014696316776180924, 0.7521283929889138, 1.6842757930726848, 0.7188940092165899, 0.5907921243393417, 0.42471691887989543
49.41646832622685, 72.66666666666667, 145.33333333333334, 36.48, 4180.801344107822, 11.309932474020213, False, True, -6.402643774889762, 0.011819855635061815, 0.4378861789725742, 1.3546181010478853, 0.5, 0.6800431421040392, 0.3400215710520196
28.311911209377314, 69.33333333333333, 144.66666666666666, 36.48, 4180.801344107822, 170.90972307917767, False, True, -7.206226541001497, 0.006771886267516268, -0.3656965871391614, 0.7760940572745975, 0.4792626728110599, 0.40834487321217283, 0.19570445536435932
88.48348856488452, 81.33333333333333, 145.33333333333334, 36.48, 4180.801344107822, 138.01278750418336, False, True, -5.562227416734021, 0.021164241321723645, 1.2783025371283148, 2.4255342260110893, 0.5596330275229358, 1.0879117446502196, 0.6088313433363614
131.6664889988586, 104.0, 144.66666666666666, 36.48, 4180.801344107822, 4.484606009544625, False, True, -4.988819382648071, 0.03149312252887157, 1.8517105712142652, 3.609278755451168, 0.7188940092165899, 1.2660239326813327, 0.9101370207294374
147.33071700822984, 108.66666666666667, 144.66666666666666, 36.48, 4180.801344107822, -150.64224645720873, False, True, -4.826649338989996, 0.035239827220173756, 2.0138806148723405, 4.038670970620336, 0.751152073732719, 1.3558041442475137, 1.0184150945269344
179.07174403237383, 114.66666666666667, 145.33333333333334, 36.48, 4180.801344107822, 54.03948280335513, False, True, -4.545169877956446, 0.04283191888195002, 2.29536007590589, 4.908764913168143, 0.7889908256880733, 1.5616721863288414, 1.2321450277456913
74.03659860010369, 101.33333333333333, 144.66666666666666, 36.48, 4180.801344107822, -123.90627698844216, False, True, -5.819397067133867, 0.017708710007101044, 1.0211328867284688, 2.029512023029158, 0.7004608294930875, 0.730624328290497, 0.5117737230421914
77.98369811290566, 82.66666666666667, 144.66666666666666, 36.48, 4180.801344107822, -122.00538320808353, False, True, -5.744463112078472, 0.018652811194392514, 1.0960668417838635, 2.137711022831844, 0.5714285714285715, 0.9433511868496651, 0.5390578210569515
72.47727170158275, 86.0, 144.66666666666666, 36.48, 4180.801344107822, 31.504266719204193, False, True, -5.850107035054243, 0.01733573679690091, 0.9904229188080934, 1.9867673163811064, 0.5944700460829494, 0.842758973274218, 0.5009949656791435
76.38523762075577, 72.66666666666667, 145.33333333333334, 36.48, 4180.801344107822, -69.62356478616363, False, True, -5.774341836585726, 0.01827047767491002, 1.0661881172766101, 2.093893575130367, 0.5, 1.0511729947810426, 0.5255864973905213
96.839882214329, 112.66666666666667, 144.66666666666666, 36.48, 4180.801344107822, 136.90915243299636, False, True, -5.4320343587669555, 0.02316299537905801, 1.4084955950953806, 2.654602034384019, 0.7788018433179724, 0.8595255817839851, 0.6694001074723203
96.74562748477142, 100.66666666666667, 144.66666666666666, 36.48, 4180.801344107822, 45.0, False, True, -5.433439224677319, 0.023140450722711106, 1.407090729185017, 2.6520182972799184, 0.6958525345622121, 0.9610492796500472, 0.6687485770836734
98.24747647226157, 106.66666666666667, 145.33333333333334, 36.48, 4180.801344107822, -37.40535663140856, False, True, -5.411215331746516, 0.023499675872120984, 1.4293146221158202, 2.693187403296644, 0.7339449541284403, 0.9210700919274522, 0.6760147463687722
36.29200226998131, 88.66666666666667, 144.66666666666666, 36.48, 4180.801344107822, -156.25050550713325, False, True, -6.847984029267896, 0.008680633037283425, -0.007454075405559863, 0.9948465534534351, 0.6129032258064517, 0.4093082962779847, 0.25086637513811966
68.46135623730952, 103.33333333333333, 144.66666666666666, 36.48, 4180.801344107822, 98.130102354156, False, True, -5.93234581056939, 0.016375175618854737, 0.9081841432929467, 1.876681914399932, 0.7142857142857143, 0.662529253909447, 0.4732351813638907
77.66536307010186, 108.66666666666667, 144.66666666666666, 36.48, 4180.801344107822, 10.713123022791038, False, True, -5.750364349444759, 0.01857666908272475, 1.0901656044175776, 2.128984733281301, 0.751152073732719, 0.7147119300929619, 0.5368573484108424
125.67534428696219, 92.0, 144.66666666666666, 36.48, 4180.801344107822, 154.9831065219, False, True, -5.056005947183257, 0.0300601090420337, 1.784524006679079, 3.445047814883832, 0.6359447004608295, 1.3660363509452411, 0.868723578020476
127.39967658189111, 112.66666666666667, 144.66666666666666, 36.48, 4180.801344107822, -3.4336303624505224, False, True, -5.036345973319004, 0.03047254966118895, 1.8041839805433322, 3.4923156957755244, 0.7788018433179724, 1.1307663601942999, 0.880642925681275
77.34635382444749, 112.66666666666667, 144.66666666666666, 36.48, 4180.801344107822, -154.79887635452494, False, True, -5.756302400008377, 0.01850036570942433, 1.0842275538539585, 2.1202399622929686, 0.7788018433179724, 0.6865060990335575, 0.5346522153763652
79.04, 121.33333333333333, 144.66666666666666, 36.48, 4180.801344107822, 180.0, False, True, -5.7250527364424, 0.01890546655879605, 1.1154772174199363, 2.166666666666667, 0.8387096774193549, 0.6514285714285715, 0.5463594470046084
215.04000000000002, 126.66666666666667, 144.66666666666666, 36.48, 4180.801344107822, 0.0, False, True, -4.281102545248317, 0.051435115495995734, 2.559427408614019, 5.894736842105265, 0.8755760368663595, 1.697684210526316, 1.4864516129032261
127.04, 130.66666666666666, 145.33333333333334, 36.48, 4180.801344107822, 180.0, False, True, -5.04042477088412, 0.030386519124866524, 1.8001051829782164, 3.4824561403508776, 0.8990825688073393, 0.9722448979591838, 0.8741284403669725
49.48182292011174, 66.0, 144.66666666666666, 36.48, 4180.801344107822, -51.63251461513847, False, True, -6.400737032901937, 0.011835487708558202, 0.43979292096039946, 1.356409619520607, 0.45622119815668205, 0.7497245896986627, 0.34204025059985077
147.91100307645638, 110.66666666666667, 144.66666666666666, 36.48, 4180.801344107822, 54.58294472353258, False, True, -4.820978210189477, 0.03537862502960432, 2.0195517436728596, 4.054577935209879, 0.7649769585253458, 1.3365452085221963, 1.0224262885469335
50.26337440599491, 104.66666666666667, 144.66666666666666, 36.48, 4180.801344107822, -76.86597769360368, False, True, -6.37812815429967, 0.012022425910485602, 0.4624017995626664, 1.3778337282345097, 0.7235023041474655, 0.4802233223502698, 0.3474426802257713
105.92543819998319, 110.0, 144.66666666666666, 36.48, 4180.801344107822, -116.56505117707799, False, True, -5.3026584915187085, 0.02533615675120951, 1.5378714623436271, 2.9036578453942763, 0.7603686635944701, 0.9629585290907563, 0.732203489861635
134.50083967823906, 142.0, 145.33333333333334, 36.48, 4180.801344107822, 56.003540851749506, False, True, -4.9580924090351335, 0.03217106688596834, 1.8824375448272028, 3.6869747718815535, 0.9770642201834862, 0.947189011818585, 0.9254644931988926
97.2163790894612, 113.33333333333333, 144.66666666666666, 36.48, 4180.801344107822, -23.552263672894654, False, True, -5.426436282698282, 0.023253049137690388, 1.4140936711640535, 2.6649226724084762, 0.783410138248848, 0.8577915802011282, 0.6720026204340637
98.24747647226157, 118.0, 144.66666666666666, 36.48, 4180.801344107822, 37.40535663140856, False, True, -5.411215331746516, 0.023499675872120984, 1.4293146221158202, 2.693187403296644, 0.815668202764977, 0.832605732815776, 0.6791300216976607
87.04, 98.66666666666667, 144.66666666666666, 36.48, 4180.801344107822, 36.86989764584402, False, True, -5.585957126776738, 0.020818975319807795, 1.254572827085598, 2.385964912280702, 0.6820276497695853, 0.8821621621621621, 0.6016589861751153
95.08761230080005, 98.66666666666667, 145.33333333333334, 36.48, 4180.801344107822, 51.766174822553054, False, True, -5.4583782795692075, 0.022743872400158644, 1.3821516742931277, 2.6065683196491243, 0.6788990825688074, 0.9637258003459463, 0.6542725617027526
91.77008225579202, 96.0, 144.66666666666666, 36.48, 4180.801344107822, -60.94539590092286, False, True, -5.509611782623931, 0.021950357049403322, 1.3309181712384055, 2.5156272548188605, 0.663594470046083, 0.9559383568311669, 0.6343554072981016
43.040000000000006, 64.66666666666667, 145.33333333333334, 36.48, 4180.801344107822, 0.0, False, True, -6.601957605470453, 0.010294677134243193, 0.23857234839188277, 1.179824561403509, 0.44495412844036697, 0.6655670103092785, 0.2961467889908257
48.10196760337246, 96.0, 144.66666666666666, 36.48, 4180.801344107822, -7.594643368591445, False, True, -6.441539774950343, 0.011505442053869545, 0.39899017891199323, 1.3185846382503417, 0.663594470046083, 0.5010621625351298, 0.3325020802076437
47.10664815842908, 118.0, 144.66666666666666, 36.48, 4180.801344107822, -60.01836063115067, False, True, -6.47170500169344, 0.011267372994131483, 0.36882495216889666, 1.2913006622376395, 0.815668202764977, 0.39920888269855154, 0.32562199187854207
50.26337440599491, 99.33333333333333, 145.33333333333334, 36.48, 4180.801344107822, -125.75388725443676, False, True, -6.37812815429967, 0.012022425910485602, 0.4624017995626664, 1.3778337282345097, 0.68348623853211, 0.5060071248925663, 0.3458489064632677
75.52568954616468, 128.0, 144.66666666666666, 36.48, 4180.801344107822, -152.74467162505695, False, True, -5.7906682326105035, 0.018064883578504918, 1.0498617212518324, 2.0703314020330232, 0.8847926267281107, 0.5900444495794116, 0.5220669784297098
60.186535816745916, 90.66666666666667, 145.33333333333334, 36.48, 4180.801344107822, 122.73522627210761, False, True, -6.118194902077283, 0.014395932947536319, 0.7223350517850539, 1.6498502142748335, 0.6238532110091743, 0.6638220862141093, 0.41412754002348107
60.0061611087573, 95.33333333333333, 144.66666666666666, 36.48, 4180.801344107822, 15.708637829015746, False, True, -6.122525046898532, 0.014352789374536172, 0.7180049069638037, 1.6449057321479523, 0.6589861751152074, 0.6294352563855661, 0.41478913208818413
55.10248474865698, 100.0, 144.66666666666666, 36.48, 4180.801344107822, -51.34019174590991, False, True, -6.2455183073318885, 0.013179885915008904, 0.5950116465304471, 1.5104847792943252, 0.6912442396313364, 0.5510248474865698, 0.380892751718827
58.24975573485382, 124.0, 145.33333333333334, 36.48, 4180.801344107822, -127.5685920288275, False, True, -6.16538368339814, 0.013932677240679621, 0.675146270464196, 1.5967586550124404, 0.8532110091743119, 0.4697560946359179, 0.4008010715700951
55.10248474865698, 128.66666666666666, 144.66666666666666, 36.48, 4180.801344107822, 165.52970589993413, False, True, -6.2455183073318885, 0.013179885915008904, 0.5950116465304471, 1.5104847792943252, 0.8894009216589862, 0.42825765348697137, 0.380892751718827
57.270564768797655, 134.0, 144.66666666666666, 36.48, 4180.801344107822, -100.61965527615514, False, True, -6.18984185281754, 0.013698465929148118, 0.6506881010447966, 1.5699167973902868, 0.9262672811059909, 0.42739227439401234, 0.3958794799686474
57.270564768797655, 139.33333333333334, 145.33333333333334, 36.48, 4180.801344107822, -10.619655276155134, False, True, -6.18984185281754, 0.013698465929148118, 0.6506881010447966, 1.5699167973902868, 0.9587155963302753, 0.4110327614985477, 0.39406351905136
96.79276139138356, 191.33333333333334, 290.0, 36.48, 4180.801344107822, 124.4389893088036, False, True, -5.432736523212599, 0.02315172461561649, 1.407793430649737, 2.6533103451585407, 0.6597701149425288, 0.5058855124985203, 0.33376814272890887
127.04, 119.33333333333333, 144.66666666666666, 36.48, 4180.801344107822, -16.26020470831196, False, True, -5.04042477088412, 0.030386519124866524, 1.8001051829782164, 3.4824561403508776, 0.8248847926267281, 1.0645810055865923, 0.8781566820276498
127.04, 124.66666666666667, 145.33333333333334, 36.48, 4180.801344107822, -143.13010235415598, False, True, -5.04042477088412, 0.030386519124866524, 1.8001051829782164, 3.4824561403508776, 0.8577981651376146, 1.0190374331550802, 0.8741284403669725
135.330662296705, 116.66666666666667, 144.66666666666666, 36.48, 4180.801344107822, -3.027245182279991, False, True, -4.949218836142958, 0.03236955099228337, 1.8913111177193787, 3.7097221024316065, 0.8064516129032259, 1.1599771054003285, 0.9354654075809101
145.3975050232989, 97.33333333333333, 144.66666666666666, 36.48, 4180.801344107822, -171.57303097851934, False, True, -4.84570507521322, 0.03477742496141647, 1.9948248786491154, 3.985677221033413, 0.6728110599078341, 1.4938099831160845, 1.0050518780412367
158.18713928578046, 116.66666666666667, 144.66666666666666, 36.48, 4180.801344107822, 5.710593137499643, False, True, -4.724075275916202, 0.03783655961284078, 2.116454677946134, 4.3362702655093335, 0.8064516129032259, 1.3558897653066897, 1.0934594881505562
174.98555854057963, 122.66666666666667, 145.33333333333334, 36.48, 4180.801344107822, -172.81765922849155, False, True, -4.5784717263148815, 0.04185454991474161, 2.2620582275474543, 4.796753249467644, 0.8440366972477064, 1.4265127054938556, 1.204029072526924
194.944833849634, 127.33333333333333, 144.66666666666666, 36.48, 4180.801344107822, 4.710359828051007, False, True, -4.422641665484933, 0.04662858093565672, 2.4178882883774024, 5.343882506843038, 0.8801843317972351, 1.5309803705468639, 1.3475449344444748
211.62566372886744, 117.33333333333333, 144.66666666666666, 36.48, 4180.801344107822, -173.94884155460707, False, True, -4.304192995575405, 0.050618445200014184, 2.536336958286931, 5.801142097830796, 0.8110599078341014, 1.8036278158710293, 1.4628502101073786
113.11525359380813, 122.66666666666667, 145.33333333333334, 36.48, 4180.801344107822, -25.463345061871614, False, True, -5.207914098581353, 0.027055878594477153, 1.6326158552809837, 3.1007470831636006, 0.8440366972477064, 0.9221352195147402, 0.77831596509501
69.08224723651763, 67.33333333333333, 144.66666666666666, 36.48, 4180.801344107822, -170.27242144859844, False, True, -5.919320669052772, 0.016523685664681993, 0.9212092848095643, 1.8937019527554178, 0.46543778801843316, 1.025973968859173, 0.47752705463030626
176.00586111352698, 122.0, 144.66666666666666, 36.48, 4180.801344107822, -46.30195267257888, False, True, -4.570084116100135, 0.0420985946537688, 2.270445837762201, 4.824722069997999, 0.8433179723502304, 1.4426709927338277, 1.2166303763607855
48.695250605964404, 126.66666666666667, 144.66666666666666, 36.48, 4180.801344107822, 133.66778014613035, False, True, -6.423854614575978, 0.011647348581771926, 0.4166753392863586, 1.3348478784529718, 0.8755760368663595, 0.3844361889944558, 0.3366031147877724
97.59204484262274, 118.66666666666667, 144.66666666666666, 36.48, 4180.801344107822, 39.28940686250036, False, True, -5.420872131210537, 0.023342904101426223, 1.419657822651799, 2.6752205274841763, 0.8202764976958526, 0.8224048722692927, 0.6745993883130604
97.59204484262274, 114.66666666666667, 144.66666666666666, 36.48, 4180.801344107822, -140.71059313749964, False, True, -5.420872131210537, 0.023342904101426223, 1.419657822651799, 2.6752205274841763, 0.7926267281105992, 0.8510934143251982, 0.6745993883130604
58.06671483327359, 104.66666666666667, 144.66666666666666, 36.48, 4180.801344107822, 167.6609127216738, False, True, -6.169924268539341, 0.013888895944579965, 0.6706056853229949, 1.591741086438421, 0.7235023041474655, 0.5547775302542063, 0.4013828214281585
57.63862173851608, 108.66666666666667, 145.33333333333334, 36.48, 4180.801344107822, -130.03025927188972, False, True, -6.180599845332921, 0.013786500958661572, 0.6599301085294149, 1.5800060783584453, 0.7477064220183486, 0.5304167644648718, 0.3965960211365785
55.18444974324875, 113.33333333333333, 144.66666666666666, 36.48, 4180.801344107822, -42.15338308418389, False, True, -6.243373891702959, 0.013199491006914858, 0.5971560621593779, 1.5127316267337927, 0.783410138248848, 0.4869216153816066, 0.3814593300224568
87.04, 111.33333333333333, 144.66666666666666, 36.48, 4180.801344107822, 53.13010235415598, False, True, -5.585957126776738, 0.020818975319807795, 1.254572827085598, 2.385964912280702, 0.7695852534562212, 0.7817964071856288, 0.6016589861751153
88.28515496597099, 117.33333333333333, 145.33333333333334, 36.48, 4180.801344107822, 136.00508600525419, False, True, -5.56546481239366, 0.02111680218683314, 1.275065141468676, 2.4200974497250822, 0.8073394495412843, 0.7524302980054346, 0.6074666626098921
66.58210834009928, 110.0, 144.66666666666666, 36.48, 4180.801344107822, -117.29957221133282, False, True, -5.972501128842849, 0.01592568095442665, 0.8680288250194875, 1.8251674435334235, 0.7603686635944701, 0.6052918940009026, 0.4602449885260319
131.00078054371141, 149.33333333333334, 145.33333333333334, 36.48, 4180.801344107822, -25.559965171823812, False, True, -4.996132180660041, 0.03133389265872111, 1.844397773202295, 3.591030168413142, 1.0275229357798166, 0.8772373697123531, 0.9013815175026014
104.381478509682, 76.0, 144.66666666666666, 36.48, 4180.801344107822, 58.37133196989192, False, True, -5.323841846232393, 0.02496685920195447, 1.5166881076299426, 2.8613343889715463, 0.5253456221198157, 1.373440506706342, 0.7215309574401982
88.87942659315128, 102.0, 144.66666666666666, 36.48, 4180.801344107822, 129.98688624496418, False, True, -5.555786174174952, 0.021258945182461915, 1.2847437796873842, 2.4363877903824367, 0.7050691244239632, 0.871366927383836, 0.6143739165425204
61.44238093129154, 88.66666666666667, 145.33333333333334, 36.48, 4180.801344107822, -53.47114463301484, False, True, -6.088401560873422, 0.014696316776180924, 0.7521283929889138, 1.6842757930726848, 0.6100917431192661, 0.6929591834356188, 0.42276867613273994
93.41307474468339, 128.66666666666666, 144.66666666666666, 36.48, 4180.801344107822, -62.81888891452277, False, True, -5.484011189648846, 0.02234334211462459, 1.3565187642134895, 2.5606654261152246, 0.8894009216589862, 0.7260083529379538, 0.6457124982351387
122.42679586911702, 107.33333333333333, 145.33333333333334, 36.48, 4180.801344107822, 22.890551656248327, False, True, -5.0937882294947325, 0.029283093309769002, 1.7467417243676036, 3.3559976937806204, 0.738532110091743, 1.1406223217619598, 0.8423862101086033
118.74811146114816, 129.33333333333334, 144.66666666666666, 36.48, 4180.801344107822, -23.355564859286005, False, True, -5.137803019095529, 0.02840319395431329, 1.702726934766807, 3.2551565641762106, 0.8940092165898619, 0.9181555009882588, 0.8208394801461855
195.75546289709496, 322.6666666666667, 435.3333333333333, 36.48, 4180.801344107822, -135.60309119438054, False, True, -4.416655019481996, 0.04682247415868762, 2.4238749343803403, 5.366103697837033, 0.7411944869831547, 0.6066801536066992, 0.44966798521537893
75.8486019019062, 104.66666666666667, 144.66666666666666, 36.48, 4180.801344107822, 126.2538377374448, False, True, -5.784513095480371, 0.018142120531223712, 1.0560168583819658, 2.0791831661706746, 0.7235023041474655, 0.7246681710373204, 0.5242990914878309
215.17885541523208, 142.66666666666666, 144.66666666666666, 36.48, 4180.801344107822, 13.65041913475699, False, True, -4.28017127027796, 0.05146832812769079, 2.560358683584376, 5.898543185724564, 0.9861751152073732, 1.508263005246954, 1.4874114429624339
91.18627622946555, 110.0, 144.66666666666666, 36.48, 4180.801344107822, 43.02506598911803, False, True, -5.518818971974252, 0.02181071730613993, 1.321710981888084, 2.4996238001498234, 0.7603686635944701, 0.8289661475405959, 0.6303198817704992
158.9710242291876, 106.66666666666667, 145.33333333333334, 36.48, 4180.801344107822, -32.31961650818018, False, True, -4.716943760140175, 0.038024055951195124, 2.1235861937221605, 4.357758339615889, 0.7339449541284403, 1.4903533521486338, 1.0938373226778964
266.75752972138486, 134.0, 145.33333333333334, 36.48, 4180.801344107822, 167.76388849058367, False, True, -3.970178594135015, 0.06380535877346513, 2.8703513597273207, 7.312432284029191, 0.9220183486238531, 1.990727833741678, 1.8354875898260425
134.9245833629805, 93.33333333333333, 144.66666666666666, 36.48, 4180.801344107822, -11.093723011557849, False, True, -4.953554356094554, 0.03227242154261536, 1.8869755977677818, 3.698590552713282, 0.6451612903225806, 1.445620536031934, 0.9326584103431833
86.28823389915506, 104.0, 144.66666666666666, 36.48, 4180.801344107822, 64.72227776444704, False, True, -5.5984718337245996, 0.02063916144228299, 1.2420581201377363, 2.365357288902277, 0.7188940092165899, 0.8296945567226448, 0.5964624463075235
39.75202242884298, 109.33333333333333, 145.33333333333334, 36.48, 4180.801344107822, 152.52556837372285, False, True, -6.716607422368269, 0.009508230398190808, 0.1239225314940668, 1.08969359728188, 0.7522935779816513, 0.36358557099551503, 0.2735230901067177
75.52568954616468, 76.66666666666667, 144.66666666666666, 36.48, 4180.801344107822, -27.25532837494307, False, True, -5.7906682326105035, 0.018064883578504918, 1.0498617212518324, 2.0703314020330232, 0.5299539170506913, 0.9851176897325827, 0.5220669784297098
43.315534829989076, 58.0, 145.33333333333334, 36.48, 4180.801344107822, -63.43494882292201, False, True, -6.592751152575946, 0.01036058192313669, 0.24777880128638988, 1.1873775995062796, 0.39908256880733944, 0.7468195660342944, 0.2980426708485487
47.9697316626478, 63.333333333333336, 144.66666666666666, 36.48, 4180.801344107822, -145.78429786756263, False, True, -6.445511314078874, 0.011473812724982388, 0.39501863978346174, 1.3149597495243368, 0.43778801843317977, 0.7574168157260179, 0.3315880068846623
109.81855454073381, 108.66666666666667, 145.33333333333334, 36.48, 4180.801344107822, -156.80140948635182, False, True, -5.250585761070603, 0.02626734577941755, 1.589944192791733, 3.0103770433315193, 0.7477064220183486, 1.0106001951601271, 0.7556322560142235
135.04000000000002, 113.33333333333333, 144.66666666666666, 36.48, 4180.801344107822, 180.0, False, True, -4.952320779319892, 0.032300027885878276, 1.8882091745424439, 3.701754385964913, 0.783410138248848, 1.1915294117647062, 0.9334562211981569
58.979380019765145, 79.33333333333333, 144.66666666666666, 36.48, 4180.801344107822, 75.96375653207353, False, True, -6.147425026226639, 0.014107195048357715, 0.6931049276356971, 1.6167593207172464, 0.5483870967741935, 0.7434375632743506, 0.40769156695690195
63.040000000000006, 84.0, 145.33333333333334, 36.48, 4180.801344107822, 0.0, False, True, -6.051368148570702, 0.015078449036772558, 0.7891618052916348, 1.7280701754385968, 0.5779816513761468, 0.7504761904761905, 0.43376146788990827
98.0604666114556, 89.33333333333333, 144.66666666666666, 36.48, 4180.801344107822, 169.21570213243743, False, True, -5.41396405679716, 0.02345494524624001, 1.4265658970651758, 2.688061036498235, 0.6175115207373272, 1.0976917904267418, 0.6778373268072968
127.04, 110.0, 144.66666666666666, 36.48, 4180.801344107822, 0.0, False, True, -5.04042477088412, 0.030386519124866524, 1.8001051829782164, 3.4824561403508776, 0.7603686635944701, 1.1549090909090909, 0.8781566820276498
161.23649869287118, 99.33333333333333, 145.33333333333334, 36.48, 4180.801344107822, 172.14668669802177, False, True, -4.696529228464739, 0.03856593160545849, 2.1440007253975972, 4.41986016153704, 0.68348623853211, 1.6231862284517233, 1.1094254497215905
191.04000000000002, 104.66666666666667, 144.66666666666666, 36.48, 4180.801344107822, 0.0, False, True, -4.451832846762272, 0.0456945892129605, 2.3886971071000636, 5.236842105263159, 0.7235023041474655, 1.8252229299363059, 1.3205529953917052
280.3330794680247, 110.0, 145.33333333333334, 36.48, 4180.801344107822, -164.23281745752433, False, True, -3.898565595200128, 0.06705247544543341, 2.941964358662208, 7.684569064364713, 0.756880733944954, 2.5484825406184064, 1.9288973357891608
80.71498169838837, 75.33333333333333, 145.33333333333334, 36.48, 4180.801344107822, 51.34019174590991, False, True, -5.694799202973087, 0.019306103078096108, 1.1457307508892491, 2.21258173515319, 0.5183486238532109, 1.071437810155598, 0.5553783144384521
73.02630072715728, 80.66666666666667, 144.66666666666666, 36.48, 4180.801344107822, 170.5376777919744, False, True, -5.83921953313961, 0.017467058278211735, 1.001310420722726, 2.001817454143566, 0.5576036866359447, 0.9052847197581481, 0.5047900971923315
78.82932768808222, 100.66666666666667, 144.66666666666666, 36.48, 4180.801344107822, -71.56505117707799, False, True, -5.728903213093257, 0.018855076144476388, 1.1116267407690794, 2.160891658116289, 0.6958525345622121, 0.7830727916034657, 0.5449031867839785
71.04, 90.66666666666667, 145.33333333333334, 36.48, 4180.801344107822, 0.0, False, True, -5.879004101676971, 0.016991957797784306, 0.9615258521853645, 1.9473684210526319, 0.6238532110091743, 0.7835294117647059, 0.4888073394495413
60.186535816745916, 95.33333333333333, 144.66666666666666, 36.48, 4180.801344107822, 32.7352262721076, False, True, -6.118194902077283, 0.014395932947536319, 0.7223350517850539, 1.6498502142748335, 0.6589861751152074, 0.6313272987770551, 0.4160359618669073
135.846130178211, 93.33333333333333, 144.66666666666666, 36.48, 4180.801344107822, -143.56914187983764, False, True, -4.943734120100102, 0.032492845030693614, 1.896795833762234, 3.723852252692188, 0.6451612903225806, 1.4554942519094038, 0.9390285496189702
135.846130178211, 116.0, 145.33333333333334, 36.48, 4180.801344107822, 36.43085812016236, False, True, -4.943734120100102, 0.032492845030693614, 1.896795833762234, 3.723852252692188, 0.7981651376146789, 1.1710873291225088, 0.9347210792078738
135.846130178211, 120.66666666666667, 144.66666666666666, 36.48, 4180.801344107822, -143.56914187983764, False, True, -4.943734120100102, 0.032492845030693614, 1.896795833762234, 3.723852252692188, 0.8341013824884793, 1.1257966589354504, 0.9390285496189702
89.47152403397563, 108.0, 145.33333333333334, 36.48, 4180.801344107822, -9.926245506651705, False, True, -5.5462070922936695, 0.021400568137510668, 1.2943228615686668, 2.452618531633104, 0.7431192660550459, 0.8284400373516262, 0.6156297525273552
159.04000000000002, 113.33333333333333, 144.66666666666666, 36.48, 4180.801344107822, 136.39718102729637, False, True, -4.716317926464791, 0.03804055416891351, 2.1242120273975447, 4.359649122807019, 0.783410138248848, 1.403294117647059, 1.0993548387096777
159.04000000000002, 136.0, 144.66666666666666, 36.48, 4180.801344107822, -43.602818972703616, False, True, -4.716317926464791, 0.03804055416891351, 2.1242120273975447, 4.359649122807019, 0.9400921658986175, 1.1694117647058826, 1.0993548387096777
159.04000000000002, 141.33333333333334, 145.33333333333334, 36.48, 4180.801344107822, 136.39718102729637, False, True, -4.716317926464791, 0.03804055416891351, 2.1242120273975447, 4.359649122807019, 0.9724770642201835, 1.1252830188679246, 1.0943119266055046
71.26205101855957, 112.66666666666667, 144.66666666666666, 36.48, 4180.801344107822, -123.6900675259798, False, True, -5.874501676574631, 0.01704506986895997, 0.9660282772877037, 1.9534553459034973, 0.7788018433179724, 0.6325034114073335, 0.4925948227089372
73.90047800548656, 88.66666666666667, 144.66666666666666, 36.48, 4180.801344107822, -29.357753542791272, False, True, -5.822051987276181, 0.017676151513306794, 1.0184779665861556, 2.0257806470802238, 0.6129032258064517, 0.8334640376558634, 0.5108327972729486
77.34635382444749, 94.0, 144.66666666666666, 36.48, 4180.801344107822, 115.20112364547509, False, True, -5.756302400008377, 0.01850036570942433, 1.0842275538539585, 2.1202399622929686, 0.6497695852534563, 0.8228335513239095, 0.5346522153763652
77.34635382444749, 116.66666666666667, 145.33333333333334, 36.48, 4180.801344107822, 25.201123645475075, False, True, -5.756302400008377, 0.01850036570942433, 1.0842275538539585, 2.1202399622929686, 0.8027522935779816, 0.6629687470666927, 0.5321996822783084
70.42758663147937, 104.0, 144.66666666666666, 36.48, 4180.801344107822, -59.858614447924666, False, True, -5.891495037162674, 0.016845475504531186, 0.9490349166996618, 1.9305807738892373, 0.7188940092165899, 0.6771883329949939, 0.48682663570147033
75.68723340849637, 109.33333333333333, 145.33333333333334, 36.48, 4180.801344107822, 156.1940564815423, False, True, -5.787585710122583, 0.018103523027987338, 1.0529442437397527, 2.074759687732905, 0.7522935779816513, 0.6922612811752716, 0.520783716113507
78.82932768808222, 114.0, 144.66666666666666, 36.48, 4180.801344107822, 71.56505117707799, False, True, -5.728903213093257, 0.018855076144476388, 1.1116267407690794, 2.160891658116289, 0.7880184331797235, 0.6914853305972124, 0.5449031867839785
74.11821048680189, 119.33333333333333, 144.66666666666666, 36.48, 4180.801344107822, -22.380135051959574, False, True, -5.817807634069197, 0.01772823063962601, 1.0227223197931383, 2.031749190975929, 0.8248847926267281, 0.6211023225150997, 0.5123378605078471
65.71948658687772, 124.66666666666667, 145.33333333333334, 36.48, 4180.801344107822, -56.768288932020646, False, True, -5.99131447364089, 0.015719351669148056, 0.8492154802214456, 1.8015210138946745, 0.8577981651376146, 0.5271616571139924, 0.45219830220328705
87.13996876951602, 93.33333333333333, 144.66666666666666, 36.48, 4180.801344107822, 77.00538320808349, False, True, -5.58430108716576, 0.02084288670934485, 1.2562288666965769, 2.388705284252084, 0.6451612903225806, 0.9336425225305288, 0.602350014535825
77.98369811290566, 109.33333333333333, 145.33333333333334, 36.48, 4180.801344107822, 147.99461679191648, False, True, -5.744463112078472, 0.018652811194392514, 1.0960668417838635, 2.137711022831844, 0.7522935779816513, 0.7132655315204786, 0.5365850787585251
90.25764610482533, 122.66666666666667, 144.66666666666666, 36.48, 4180.801344107822, 143.9726266148964, False, True, -5.53358652942325, 0.021588599571235118, 1.3069434244390858, 2.4741679305050805, 0.8479262672811061, 0.7357960280284673, 0.6239007795264424
77.61224179774969, 94.66666666666667, 144.66666666666666, 36.48, 4180.801344107822, -73.00917670801384, False, True, -5.751351456365208, 0.018563963080219504, 1.0891784974971277, 2.127528558052349, 0.6543778801843319, 0.8198476246241164, 0.5364901506756892
103.44861656959957, 113.33333333333333, 144.66666666666666, 36.48, 4180.801344107822, -176.09950625761812, False, True, -5.336793236479546, 0.024743729265059203, 1.5037367173827894, 2.8357625156140234, 0.783410138248848, 0.9127819109082315, 0.7150826030156653
66.75399357258384, 84.66666666666667, 145.33333333333334, 36.48, 4180.801344107822, -23.62937773065682, False, True, -5.968781534429713, 0.015966793941707618, 0.8717484194326227, 1.8298792097747765, 0.5825688073394495, 0.7884329949517775, 0.4593164695361273
59.28220203853233, 76.0, 145.33333333333334, 36.48, 4180.801344107822, -3.468229258917148, False, True, -6.14003664579096, 0.0141796266216, 0.7004933080713767, 1.6250603628983644, 0.5229357798165137, 0.7800289741912149, 0.40790505989815823
58.979380019765145, 97.33333333333333, 144.66666666666666, 36.48, 4180.801344107822, 14.036243467926477, False, True, -6.147425026226639, 0.014107195048357715, 0.6931049276356971, 1.6167593207172464, 0.6728110599078341, 0.6059525344496419, 0.40769156695690195
109.81855454073381, 136.0, 144.66666666666666, 36.48, 4180.801344107822, -23.19859051364819, False, True, -5.250585761070603, 0.02626734577941755, 1.589944192791733, 3.0103770433315193, 0.9400921658986175, 0.8074893716230428, 0.7591144323092199
49.154700179789984, 108.0, 145.33333333333334, 36.48, 4180.801344107822, 148.39249775375112, False, True, -6.410306309487489, 0.01175724367986672, 0.43022364437484695, 1.3474424391389799, 0.7431192660550459, 0.45513611277583316, 0.33822041408112374
128.9508714259834, 109.33333333333333, 145.33333333333334, 36.48, 4180.801344107822, -33.690067525979785, False, True, -5.018886065853047, 0.030843577776714804, 1.8216438880092893, 3.5348374842648957, 0.7522935779816513, 1.1794287020669214, 0.8872766382521793
31.347238483242393, 113.33333333333333, 144.66666666666666, 36.48, 4180.801344107822, 147.52880770915152, False, True, -7.059297328121142, 0.007497901933901109, -0.21876737425880535, 0.8592993005274779, 0.783410138248848, 0.2765932807344917, 0.21668598029891056
131.00078054371141, 102.66666666666667, 144.66666666666666, 36.48, 4180.801344107822, 48.179830119864235, False, True, -4.996132180660041, 0.03133389265872111, 1.844397773202295, 3.591030168413142, 0.7096774193548387, 1.2759816286725136, 0.9055353493804937
111.21383093154141, 106.66666666666667, 145.33333333333334, 36.48, 4180.801344107822, 177.51044707800085, False, True, -5.23237137078013, 0.026601079979147946, 1.608158583082206, 3.0486247514128677, 0.7339449541284403, 1.0426296649832008, 0.7652327816390463
114.4859922217597, 134.0, 145.33333333333334, 36.48, 4180.801344107822, -39.8055710922652, False, True, -5.190536498351655, 0.027383743641182474, 1.6499934555106808, 3.1383221552017466, 0.9220183486238531, 0.8543730762817888, 0.7877476529020162
113.11525359380813, 127.33333333333333, 144.66666666666666, 36.48, 4180.801344107822, -154.5366549381284, False, True, -5.207914098581353, 0.027055878594477153, 1.6326158552809837, 3.1007470831636006, 0.8801843317972351, 0.888339687909488, 0.781902674611577
56.28395537122809, 106.66666666666667, 145.33333333333334, 36.48, 4180.801344107822, -68.19859051364818, False, True, -6.214911965417025, 0.013462480213404883, 0.6256179884453109, 1.542871583641121, 0.7339449541284403, 0.5276620816052633, 0.3872749222790923
75.8486019019062, 112.0, 144.66666666666666, 36.48, 4180.801344107822, -143.7461622625552, False, True, -5.784513095480371, 0.018142120531223712, 1.0560168583819658, 2.0791831661706746, 0.7741935483870969, 0.6772196598384482, 0.5242990914878309
57.82226179417454, 118.0, 145.33333333333334, 36.48, 4180.801344107822, 156.5713071912546, False, True, -6.176010640523421, 0.013830425565583466, 0.6645193133389156, 1.5850400711122408, 0.8119266055045871, 0.49001916774724186, 0.3978595995012009
55.849937504836944, 110.66666666666667, 144.66666666666666, 36.48, 4180.801344107822, 154.23067237566127, False, True, -6.226080017007559, 0.013358668089682998, 0.614449936854776, 1.5309741640580303, 0.7649769585253458, 0.5046681099834663, 0.38605947583988676
54.664449068350535, 80.66666666666667, 144.66666666666666, 36.48, 4180.801344107822, -57.80426606528675, False, True, -6.2570327996539605, 0.01307511277602114, 0.5834971542083752, 1.498477222268381, 0.5576036866359447, 0.6776584595250066, 0.37786485531117886
57.331979799218644, 79.33333333333333, 144.66666666666666, 36.48, 4180.801344107822, 162.12130340415865, False, True, -6.18829558403895, 0.013713155703994163, 0.6522343698233861, 1.5716003234434937, 0.5483870967741935, 0.7226720142758652, 0.39630400782870034
57.331979799218644, 98.66666666666667, 145.33333333333334, 36.48, 4180.801344107822, 17.87869659584134, False, True, -6.18829558403895, 0.013713155703994163, 0.6522343698233861, 1.5716003234434937, 0.6788990825688074, 0.5810673628299187, 0.3944860995359081
57.270564768797655, 106.0, 144.66666666666666, 36.48, 4180.801344107822, -42.51044707800085, False, True, -6.18984185281754, 0.013698465929148118, 0.6506881010447966, 1.5699167973902868, 0.7327188940092166, 0.5402883468754496, 0.3958794799686474
59.52396129343357, 110.66666666666667, 145.33333333333334, 36.48, 4180.801344107822, -61.11341823308929, False, True, -6.134165143003982, 0.014237452678138649, 0.7063648108583536, 1.6316875354559643, 0.7614678899082569, 0.5378671201213877, 0.409568541009864
77.82461459976612, 104.66666666666667, 144.66666666666666, 36.48, 4180.801344107822, -111.80140948635182, False, True, -5.747409156114903, 0.018614760232376886, 1.0931207977474326, 2.1333501809146416, 0.7235023041474655, 0.7435472732461731, 0.5379581654361714
55.849937504836944, 100.0, 145.33333333333334, 36.48, 4180.801344107822, 143.8418145601917, False, True, -6.226080017007559, 0.013358668089682998, 0.614449936854776, 1.5309741640580303, 0.6880733944954128, 0.5584993750483694, 0.3842885608130982
77.98369811290566, 107.33333333333333, 145.33333333333334, 36.48, 4180.801344107822, 32.005383208083494, False, True, -5.744463112078472, 0.018652811194392514, 1.0960668417838635, 2.137711022831844, 0.738532110091743, 0.7265561935985, 0.5365850787585251
74.5527113166862, 95.33333333333333, 144.66666666666666, 36.48, 4180.801344107822, -40.60129464500447, False, True, -5.809374862284732, 0.01783215828270732, 1.0311550915776049, 2.0436598496898633, 0.6589861751152074, 0.7820214473778273, 0.5153413224655728
80.92307249337075, 134.66666666666666, 145.33333333333334, 36.48, 4180.801344107822, -152.10272896905238, False, True, -5.691084586073861, 0.019355876023006695, 1.149445367788476, 2.2182859784366986, 0.9266055045871558, 0.6009139046537433, 0.5568101318351198
80.92307249337075, 105.33333333333333, 144.66666666666666, 36.48, 4180.801344107822, 117.89727103094764, False, True, -5.691084586073861, 0.019355876023006695, 1.149445367788476, 2.2182859784366986, 0.7281105990783411, 0.7682570173421275, 0.5593760771431159
74.11821048680189, 111.33333333333333, 144.66666666666666, 36.48, 4180.801344107822, 22.380135051959574, False, True, -5.817807634069197, 0.01772823063962601, 1.0227223197931383, 2.031749190975929, 0.7695852534562212, 0.6657324295221726, 0.5123378605078471
80.92307249337075, 117.33333333333333, 145.33333333333334, 36.48, 4180.801344107822, -62.10272896905237, False, True, -5.691084586073861, 0.019355876023006695, 1.149445367788476, 2.2182859784366986, 0.8073394495412843, 0.6896852769321371, 0.5568101318351198
74.11821048680189, 122.66666666666667, 144.66666666666666, 36.48, 4180.801344107822, -157.61986494804043, False, True, -5.817807634069197, 0.01772823063962601, 1.0227223197931383, 2.031749190975929, 0.8479262672811061, 0.6042245420119718, 0.5123378605078471
128.22896590022032, 106.0, 144.66666666666666, 36.48, 4180.801344107822, 30.13344104581551, False, True, -5.0269853964090325, 0.0306709062081935, 1.8135445574533036, 3.515048407352531, 0.7327188940092166, 1.2097072254737766, 0.8863753403241036
102.17708916160505, 93.33333333333333, 144.66666666666666, 36.48, 4180.801344107822, -119.78545903768855, False, True, -5.354635846785081, 0.024439594410676196, 1.485894107077255, 2.8009070493861037, 0.6451612903225806, 1.0947545267314829, 0.7062932430525696
129.0424752323595, 98.66666666666667, 145.33333333333334, 36.48, 4180.801344107822, 90.28364015575784, False, True, -5.017861571505028, 0.03086548836247014, 1.8226683823573082, 3.5373485535186266, 0.6788990825688074, 1.3078629246522921, 0.8879069396721982
101.81127910500628, 88.0, 144.66666666666666, 36.48, 4180.801344107822, -59.76716076739058, False, True, -5.359810190055517, 0.0243520968171552, 1.4807197638068197, 2.7908793614310934, 0.6082949308755761, 1.1569463534659805, 0.7037646021083384
128.59644370746372, 108.66666666666667, 145.33333333333334, 36.48, 4180.801344107822, 150.2551187030578, False, True, -5.022856842518988, 0.030758802708648204, 1.8176731113433477, 3.5251218121563523, 0.7477064220183486, 1.1834028562036538, 0.8848379154183283
100.4556855650607, 131.33333333333334, 144.66666666666666, 36.48, 4180.801344107822, 132.42926288930946, False, True, -5.379148368812687, 0.024027854302773103, 1.461381585049649, 2.7537194507966203, 0.9078341013824887, 0.7648910068405637, 0.6943941398506501
88.48348856488452, 112.66666666666667, 144.66666666666666, 36.48, 4180.801344107822, -131.98721249581666, False, True, -5.562227416734021, 0.021164241321723645, 1.2783025371283148, 2.4255342260110893, 0.7788018433179724, 0.7853564073806318, 0.6116370177296165
76.49233353815525, 81.33333333333333, 144.66666666666666, 36.48, 4180.801344107822, -15.524110996754256, False, True, -5.772320522758785, 0.018296093796936582, 1.0682094311035504, 2.096829318480133, 0.5622119815668203, 0.9404795107150237, 0.528748849342087
77.98369811290566, 82.66666666666667, 144.66666666666666, 36.48, 4180.801344107822, -32.005383208083494, False, True, -5.744463112078472, 0.018652811194392514, 1.0960668417838635, 2.137711022831844, 0.5714285714285715, 0.9433511868496651, 0.5390578210569515
86.28823389915506, 102.66666666666667, 144.66666666666666, 36.48, 4180.801344107822, 64.72227776444704, False, True, -5.5984718337245996, 0.02063916144228299, 1.2420581201377363, 2.365357288902277, 0.7096774193548387, 0.8404698107060558, 0.5964624463075235
68.8003611733548, 100.66666666666667, 145.33333333333334, 36.48, 4180.801344107822, -106.38954033403479, False, True, -5.925219544867265, 0.016456261733248347, 0.9153104089950704, 1.8859748128660858, 0.6926605504587156, 0.6834472964240543, 0.4733969805506064
63.27509092741123, 76.66666666666667, 145.33333333333334, 36.48, 4180.801344107822, 130.2363583092738, False, True, -6.045998007849561, 0.015134680105427028, 0.7945319460127757, 1.734514553931229, 0.5275229357798165, 0.8253272729662333, 0.43537906601429743
66.75399357258384, 80.66666666666667, 144.66666666666666, 36.48, 4180.801344107822, -156.3706222693432, False, True, -5.968781534429713, 0.015966793941707618, 0.8717484194326227, 1.8298792097747765, 0.5576036866359447, 0.8275288459411219, 0.46143313529435837
50.522792323465055, 104.0, 144.66666666666666, 36.48, 4180.801344107822, -114.90476880809518, False, True, -6.370701306316136, 0.01208447571771592, 0.4698286475461991, 1.3849449650072658, 0.7188940092165899, 0.4857960800333178, 0.34923589163685526
66.75399357258384, 98.0, 144.66666666666666, 36.48, 4180.801344107822, -113.62937773065683, False, True, -5.968781534429713, 0.015966793941707618, 0.8717484194326227, 1.8298792097747765, 0.6774193548387097, 0.6811631997202432, 0.46143313529435837
74.60693396557373, 104.0, 144.66666666666666, 36.48, 4180.801344107822, -32.82854179141253, False, True, -5.808325962631589, 0.017845127721918767, 1.0322039912307475, 2.0451462161615606, 0.7188940092165899, 0.7173743650535935, 0.5157161334025834
186.42388538997562, 125.33333333333333, 145.33333333333334, 36.48, 4180.801344107822, 70.16787014978162, False, True, -4.487120872659052, 0.04459046724444599, 2.3534090812032846, 5.1103038758217005, 0.8623853211009174, 1.4874246174732098, 1.2827331563530433
99.78258305351348, 102.66666666666667, 145.33333333333334, 36.48, 4180.801344107822, -132.1844433157888, False, True, -5.3888476667520715, 0.023866855858660024, 1.4516822871102646, 2.735268175809032, 0.7064220183486238, 0.9719082764952611, 0.6865774063315147
57.270564768797655, 82.66666666666667, 145.33333333333334, 36.48, 4180.801344107822, 132.51044707800085, False, True, -6.18984185281754, 0.013698465929148118, 0.6506881010447966, 1.5699167973902868, 0.5688073394495413, 0.6927890899451329, 0.39406351905136
143.63178193089414, 114.66666666666667, 144.66666666666666, 36.48, 4180.801344107822, 175.76360520094116, False, True, -4.863332573572673, 0.03435508413556181, 1.977197380289663, 3.937274723982844, 0.7926267281105992, 1.2526027493973326, 0.9928464188771484
164.66154784446633, 285.3333333333333, 434.6666666666667, 36.48, 4180.801344107822, -53.901716032892, False, True, -4.6662038956531395, 0.03938516430026763, 2.1743260582091968, 4.513748570297871, 0.6564417177914109, 0.5770848639408866, 0.3788225793967783
66.98284547628721, 115.33333333333333, 144.66666666666666, 36.48, 4180.801344107822, -120.96375653207352, False, True, -5.963844019363772, 0.016021532707046444, 0.8766859344985648, 1.8361525623982242, 0.7972350230414746, 0.5807761168464209, 0.4630150608959946
68.8003611733548, 92.66666666666667, 145.33333333333334, 36.48, 4180.801344107822, -163.6104596659652, False, True, -5.925219544867265, 0.016456261733248347, 0.9153104089950704, 1.8859748128660858, 0.6376146788990825, 0.7424499407196561, 0.4733969805506064
57.270564768797655, 101.33333333333333, 145.33333333333334, 36.48, 4180.801344107822, 42.51044707800085, False, True, -6.18984185281754, 0.013698465929148118, 0.6506881010447966, 1.5699167973902868, 0.6972477064220183, 0.5651700470605032, 0.39406351905136
53.53110640673518, 88.66666666666667, 144.66666666666666, 36.48, 4180.801344107822, 161.56505117707798, False, True, -6.287258212086746, 0.01280403013699247, 0.5532717417755904, 1.4674097150969074, 0.6129032258064517, 0.6037342827827276, 0.3700306894474782
52.00399481450647, 110.66666666666667, 144.66666666666666, 36.48, 4180.801344107822, 140.19442890773482, False, True, -6.3290132316937395, 0.01243876246064594, 0.5115167221685966, 1.425548103467831, 0.7649769585253458, 0.46991561579373314, 0.35947461853345486
53.53110640673518, 96.0, 144.66666666666666, 36.48, 4180.801344107822, 161.56505117707798, False, True, -6.287258212086746, 0.01280403013699247, 0.5532717417755904, 1.4674097150969074, 0.663594470046083, 0.5576156917368248, 0.3700306894474782
56.03612397277679, 102.66666666666667, 145.33333333333334, 36.48, 4180.801344107822, -119.74488129694224, False, True, -6.221278515580663, 0.013403201769381088, 0.6192514382816731, 1.5360779597800658, 0.7064220183486238, 0.5458064023322414, 0.38556966036314305
58.24975573485382, 106.66666666666667, 144.66666666666666, 36.48, 4180.801344107822, -127.5685920288275, False, True, -6.16538368339814, 0.013932677240679621, 0.675146270464196, 1.5967586550124404, 0.7373271889400922, 0.5460914600142546, 0.4026480811165011
56.03612397277679, 98.66666666666667, 144.66666666666666, 36.48, 4180.801344107822, -172.8749836510982, False, True, -6.221278515580663, 0.013403201769381088, 0.6192514382816731, 1.5360779597800658, 0.6820276497695853, 0.5679336889132782, 0.387346479074494
71.31751037497146, 80.66666666666667, 144.66666666666666, 36.48, 4180.801344107822, 43.87669728592457, False, True, -5.873379342605872, 0.017058335114506745, 0.9671506112564646, 1.9549756133489986, 0.5576036866359447, 0.8841013682847702, 0.49297818231547097
83.85836627130128, 101.33333333333333, 145.33333333333334, 36.48, 4180.801344107822, -5.856013585428958, False, True, -5.6396809594918125, 0.02005796481803336, 1.2008489943705234, 2.298749075419443, 0.6972477064220183, 0.8275496671509995, 0.5770071073713391
247.26492095400698, 111.33333333333333, 144.66666666666666, 36.48, 4180.801344107822, 159.52772048025807, False, True, -4.079650006879111, 0.05914294906704615, 2.7608799469832257, 6.7780954208883495, 0.7695852534562212, 2.2209424037785057, 1.7092045227235506
